xof 0303txt 0032
template ColorRGBA {
 <35ff44e0-6c7c-11cf-8f52-0040333594a3>
 FLOAT red;
 FLOAT green;
 FLOAT blue;
 FLOAT alpha;
}

template ColorRGB {
 <d3e16e81-7835-11cf-8f52-0040333594a3>
 FLOAT red;
 FLOAT green;
 FLOAT blue;
}

template Material {
 <3d82ab4d-62da-11cf-ab39-0020af71e433>
 ColorRGBA faceColor;
 FLOAT power;
 ColorRGB specularColor;
 ColorRGB emissiveColor;
 [...]
}

template TextureFilename {
 <a42790e1-7810-11cf-8f52-0040333594a3>
 STRING filename;
}

template Frame {
 <3d82ab46-62da-11cf-ab39-0020af71e433>
 [...]
}

template Matrix4x4 {
 <f6f23f45-7686-11cf-8f52-0040333594a3>
 array FLOAT matrix[16];
}

template FrameTransformMatrix {
 <f6f23f41-7686-11cf-8f52-0040333594a3>
 Matrix4x4 frameMatrix;
}

template Vector {
 <3d82ab5e-62da-11cf-ab39-0020af71e433>
 FLOAT x;
 FLOAT y;
 FLOAT z;
}

template MeshFace {
 <3d82ab5f-62da-11cf-ab39-0020af71e433>
 DWORD nFaceVertexIndices;
 array DWORD faceVertexIndices[nFaceVertexIndices];
}

template Mesh {
 <3d82ab44-62da-11cf-ab39-0020af71e433>
 DWORD nVertices;
 array Vector vertices[nVertices];
 DWORD nFaces;
 array MeshFace faces[nFaces];
 [...]
}

template MeshNormals {
 <f6f23f43-7686-11cf-8f52-0040333594a3>
 DWORD nNormals;
 array Vector normals[nNormals];
 DWORD nFaceNormals;
 array MeshFace faceNormals[nFaceNormals];
}

template MeshMaterialList {
 <f6f23f42-7686-11cf-8f52-0040333594a3>
 DWORD nMaterials;
 DWORD nFaceIndexes;
 array DWORD faceIndexes[nFaceIndexes];
 [Material <3d82ab4d-62da-11cf-ab39-0020af71e433>]
}

template Coords2d {
 <f6f23f44-7686-11cf-8f52-0040333594a3>
 FLOAT u;
 FLOAT v;
}

template MeshTextureCoords {
 <f6f23f40-7686-11cf-8f52-0040333594a3>
 DWORD nTextureCoords;
 array Coords2d textureCoords[nTextureCoords];
}


Material MI_rockS_2 {
 1.000000;1.000000;1.000000;1.000000;;
 10.000000;
 0.000000;0.000000;0.000000;;
 0.000000;0.000000;0.000000;;

 TextureFilename {
  "rock2_1.tga";
 }
}

Frame SM_rockS_2 {
 

 FrameTransformMatrix {
  1.000000,0.000000,0.000000,0.000000,0.000000,1.000000,0.000000,0.000000,0.000000,0.000000,1.000000,0.000000,0.000000,0.000000,0.000000,1.000000;;
 }

 Mesh SM_rockS_2 {
  422;
  28.391398;5.149246;29.454051;,
  31.622102;7.262249;28.875552;,
  30.635200;10.550949;28.989654;,
  26.641800;13.464347;28.790653;,
  22.114602;15.335147;28.493856;,
  27.253898;1.089149;29.446954;,
  24.945701;-2.558052;29.587754;,
  21.855998;-4.822752;30.078954;,
  18.381298;-8.233353;30.524150;,
  19.518002;17.606346;27.613552;,
  14.580499;-10.686352;30.145350;,
  8.515600;-9.663252;27.869152;,
  15.153499;20.374446;27.079254;,
  5.640400;-7.873753;28.471853;,
  10.282400;20.197048;26.929955;,
  1.607201;-5.069052;28.830752;,
  5.268200;19.394650;26.592053;,
  0.719700;18.092346;26.183853;,
  -2.456201;-2.506653;27.922851;,
  -2.778000;14.905648;26.350853;,
  -5.655500;0.598248;27.131654;,
  -7.362061;6.521446;26.618350;,
  -6.325240;11.129448;26.223453;,
  14.805000;18.290947;-29.287347;,
  20.912701;16.974648;-29.870851;,
  22.149101;12.820248;-29.998848;,
  23.022202;7.779846;-30.224250;,
  17.129002;-10.844353;-30.453645;,
  24.396000;1.311249;-30.255645;,
  25.027000;-2.414951;-29.913542;,
  10.001200;18.808949;-28.329546;,
  10.653099;-13.373552;-30.319245;,
  5.037701;13.561046;-27.747552;,
  5.526899;17.641147;-27.877846;,
  3.306900;-14.980952;-30.524147;,
  2.250401;16.617248;-25.488846;,
  -5.301400;-12.225351;-29.884544;,
  -1.874500;-18.166051;-30.178246;,
  -5.671000;-19.864354;-30.036950;,
  -8.521900;-18.579853;-29.766845;,
  0.375000;10.288750;-26.297250;,
  -1.888901;16.012250;-23.353050;,
  -7.145580;14.661846;-23.765045;,
  -12.813541;-12.397953;-27.824944;,
  -15.471507;-21.930554;-26.556045;,
  -20.993910;-19.840251;-26.295746;,
  -25.023510;-17.364651;-25.342949;,
  -7.663140;10.104649;-24.284248;,
  -9.249150;14.161747;-22.501549;,
  -14.035240;12.814846;-21.407845;,
  -19.131299;9.581848;-21.244949;,
  -4.717900;4.187447;-25.752450;,
  -11.542601;-2.521652;-24.925246;,
  -8.282631;-6.613552;-27.121146;,
  -20.054301;-4.155352;-24.081848;,
  -24.639099;3.960449;-20.977646;,
  -23.651890;7.057049;-20.511749;,
  -27.322102;5.617947;-18.214843;,
  -23.920090;-6.764153;-24.290146;,
  -28.831398;2.564949;-20.382446;,
  -29.222701;2.153049;-17.783448;,
  -27.499101;-0.898453;-21.638344;,
  -32.253098;1.541248;-20.088950;,
  -33.454003;-0.755352;-14.847946;,
  -35.620301;-3.649252;-20.589843;,
  -36.184102;-4.789553;-18.042549;,
  -30.243402;-7.111153;-22.769349;,
  -36.552902;-8.074152;-20.277146;,
  -36.196899;-7.560852;-18.512146;,
  -33.377798;-11.047253;-21.874046;,
  -27.159901;-12.214453;-24.832848;,
  -29.435402;-14.047152;-23.165947;,
  -8.189600;-1.107452;23.207253;,
  -2.456201;-2.506653;27.922851;,
  -5.655500;0.598248;27.131654;,
  -5.599800;-4.558252;19.947254;,
  -11.971670;-1.500952;17.490051;,
  -3.337100;-6.807953;18.153454;,
  1.607201;-5.069052;28.830752;,
  -10.879921;-5.814053;11.405754;,
  -15.172376;-4.313051;10.639553;,
  4.653700;-9.641254;21.855152;,
  5.640400;-7.873753;28.471853;,
  8.515600;-9.663252;27.869152;,
  -14.966800;-8.117952;4.340351;,
  -20.065152;-3.977152;4.482452;,
  -9.506710;-10.430551;4.695251;,
  1.602800;-12.688652;11.491951;,
  -19.937590;-7.415352;-0.231846;,
  -18.121550;-11.758352;-6.072044;,
  -21.997669;-5.443552;0.238754;,
  -23.866330;-3.400251;-0.102146;,
  -19.423931;-9.368452;-2.815048;,
  -24.118882;-4.700352;-1.711449;,
  -27.942400;-3.868952;-5.247849;,
  -22.261350;-7.100052;-1.775146;,
  -25.590741;-5.326353;-3.499550;,
  -23.284080;-10.933752;-10.011551;,
  -28.451600;-5.613052;-8.216346;,
  -31.227901;-1.504751;-10.596550;,
  -28.750099;-7.508352;-8.805046;,
  -30.205200;-4.099552;-10.708748;,
  -32.716202;-3.062052;-13.489045;,
  -33.454003;-0.755352;-14.847946;,
  -36.184102;-4.789553;-18.042549;,
  -31.139098;-7.746252;-12.029450;,
  -33.924598;-7.270351;-15.145248;,
  -36.196899;-7.560852;-18.512146;,
  -29.460800;-8.925953;-12.257744;,
  -29.180998;-9.946352;-13.792350;,
  -29.522301;-11.661953;-18.132149;,
  -33.377798;-11.047253;-21.874046;,
  -29.435402;-14.047152;-23.165947;,
  -25.023510;-17.364651;-25.342949;,
  -23.624291;-11.967852;-11.709846;,
  -18.370131;-18.816453;-20.828346;,
  -20.993910;-19.840251;-26.295746;,
  -15.471507;-21.930554;-26.556045;,
  -12.894381;-17.768754;-12.952644;,
  -4.573200;-14.834352;0.991653;,
  -8.784441;-22.131453;-19.587448;,
  -12.827550;-22.225354;-23.690750;,
  -8.073190;-18.641053;-27.659347;,
  -8.521900;-18.579853;-29.766845;,
  -5.671000;-19.864354;-30.036950;,
  -7.610890;-19.203152;-25.114746;,
  -3.486401;-20.564851;-27.097245;,
  -1.874500;-18.166051;-30.178246;,
  -7.191550;-20.912152;-22.123550;,
  -5.728701;-20.927354;-24.326347;,
  -0.110801;-18.767552;-27.994950;,
  3.306900;-14.980952;-30.524147;,
  -1.908800;-20.130352;-22.060746;,
  -3.035400;-20.441251;-16.405846;,
  -6.027300;-21.254853;-13.705544;,
  1.254200;-18.898152;-18.251648;,
  -2.837100;-18.848552;-6.811050;,
  0.256701;-18.824950;-9.398147;,
  3.852499;-17.984552;-11.012749;,
  4.094500;-17.416752;-3.715050;,
  0.113899;-18.188152;-1.827049;,
  3.216700;-17.597053;2.290253;,
  6.473299;-16.030653;1.306553;,
  5.658300;-17.487750;5.336151;,
  8.482000;-16.785653;10.075451;,
  7.436600;-15.958651;-3.806747;,
  9.005302;-16.126451;5.037254;,
  11.604099;-13.785451;1.139053;,
  8.814499;-15.627651;13.877150;,
  10.648800;-15.007354;8.524254;,
  13.662000;-12.493853;5.736252;,
  9.908100;-13.900754;18.497550;,
  13.091098;-12.799452;17.274853;,
  16.281398;-10.455252;9.319153;,
  14.109101;-13.875251;22.515651;,
  14.286000;-12.415253;27.356355;,
  14.580499;-10.686352;30.145350;,
  18.381298;-8.233353;30.524150;,
  19.227901;-9.363752;25.442952;,
  21.855998;-4.822752;30.078954;,
  15.935200;-12.481953;20.185352;,
  18.549301;-8.990751;13.457851;,
  23.641899;-5.182352;21.620952;,
  21.170800;-6.819153;16.787254;,
  22.488098;-4.997852;8.076153;,
  25.022800;-2.746252;17.130554;,
  26.881901;-1.841053;25.768654;,
  24.945701;-2.558052;29.587754;,
  27.253898;1.089149;29.446954;,
  28.438198;0.185749;21.726154;,
  33.239398;5.856949;25.208554;,
  28.391398;5.149246;29.454051;,
  31.622102;7.262249;28.875552;,
  27.900198;-0.237854;16.533154;,
  34.907699;10.785846;24.223354;,
  30.635200;10.550949;28.989654;,
  32.624797;11.446949;24.837051;,
  34.858202;13.290249;21.423454;,
  36.552899;11.846847;18.888653;,
  33.440000;5.748348;21.772854;,
  35.622800;7.941547;22.947354;,
  36.279702;8.107449;19.930752;,
  35.753699;10.311546;15.869053;,
  35.939200;6.660149;16.147453;,
  34.918598;8.829949;12.078453;,
  30.663498;2.750347;14.080352;,
  35.040400;5.242149;13.568851;,
  32.192099;5.886948;11.397751;,
  34.325600;7.786346;10.534554;,
  28.789101;1.874649;12.747551;,
  33.203098;5.692047;5.399151;,
  27.539898;-0.654751;8.740452;,
  26.410901;-3.026953;1.025352;,
  32.765200;4.134548;-0.106747;,
  16.293598;-10.323751;-0.951546;,
  29.188400;0.018349;-6.778648;,
  31.590000;2.579048;-6.715248;,
  24.219101;2.879749;-9.786545;,
  26.029499;-4.140753;-3.828949;,
  10.895001;-13.761853;-9.470047;,
  20.879798;-8.199753;-12.650246;,
  6.748301;-16.039552;-21.933944;,
  13.068399;-12.802153;-23.339050;,
  4.033699;-17.339851;-25.118744;,
  6.804600;-15.909051;-26.590149;,
  2.778999;-17.298752;-27.770051;,
  8.898300;-14.342952;-28.559251;,
  10.653099;-13.373552;-30.319245;,
  17.129002;-10.844353;-30.453645;,
  19.963901;-9.643652;-24.077645;,
  21.141998;-8.723852;-19.309150;,
  21.179002;-8.685652;-27.485747;,
  24.380501;-6.834951;-19.256050;,
  23.695899;-7.088552;-30.321251;,
  25.027000;-2.414951;-29.913542;,
  24.602501;-6.122152;-25.889648;,
  23.360901;-7.228653;-28.333245;,
  25.075901;-2.932053;-28.198150;,
  25.083802;-0.924652;-26.525445;,
  24.396000;1.311249;-30.255645;,
  25.912701;-3.493052;-26.014450;,
  26.365600;-3.985653;-20.454445;,
  25.189098;-0.174454;-17.658349;,
  26.681099;-4.132153;-15.665245;,
  24.394699;-6.151352;-11.229744;,
  26.747600;-3.118452;-10.460045;,
  27.599702;-2.187153;-6.212944;,
  26.123299;-1.075151;-7.877350;,
  25.083802;-0.924652;-26.525445;,
  24.396000;1.311249;-30.255645;,
  23.022202;7.779846;-30.224250;,
  21.667198;13.292950;-26.163147;,
  22.149101;12.820248;-29.998848;,
  20.912701;16.974648;-29.870851;,
  22.169400;8.637947;-18.481246;,
  25.189098;-0.174454;-17.658349;,
  20.429600;18.435749;-24.945846;,
  22.285499;7.767448;-12.263946;,
  24.219101;2.879749;-9.786545;,
  20.740600;14.698947;-20.086944;,
  20.356800;13.541046;-15.023651;,
  15.573699;18.770446;-25.628150;,
  14.805000;18.290947;-29.287347;,
  18.584099;19.529846;-19.591850;,
  19.605000;18.033349;-18.454048;,
  10.385300;19.294746;-24.996750;,
  10.001200;18.808949;-28.329546;,
  5.526899;17.641147;-27.877846;,
  15.131099;19.542846;-20.466850;,
  18.896000;19.461850;-17.828048;,
  21.470798;16.834747;-14.980050;,
  17.091800;20.369549;-14.738946;,
  10.431200;19.440547;-20.484749;,
  14.307899;20.026650;-14.686546;,
  3.476299;17.724949;-22.807846;,
  2.250401;16.617248;-25.488846;,
  -1.888901;16.012250;-23.353050;,
  10.122299;19.590050;-14.100045;,
  -8.518090;14.563747;-19.032944;,
  -7.145580;14.661846;-23.765045;,
  -9.249150;14.161747;-22.501549;,
  4.275400;18.312149;-14.938050;,
  -2.193601;16.542050;-13.071450;,
  -12.486210;13.278747;-18.242843;,
  -14.035240;12.814846;-21.407845;,
  8.704500;20.095448;-9.046150;,
  -14.832381;12.582546;-19.126946;,
  2.446800;19.554446;-4.446251;,
  -18.465010;10.275146;-19.363045;,
  -19.131299;9.581848;-21.244949;,
  -14.032550;12.763546;-14.406150;,
  -21.014090;8.959149;-17.354446;,
  -23.651890;7.057049;-20.511749;,
  -27.322102;5.617947;-18.214843;,
  -9.429001;14.720146;-8.113846;,
  -19.067131;9.544146;-9.385750;,
  -23.291352;6.890450;-13.693245;,
  -26.194400;2.656849;-15.457451;,
  -29.222701;2.153049;-17.783448;,
  -16.459498;11.204247;-7.658249;,
  -29.528000;0.817947;-12.158249;,
  -33.454003;-0.755352;-14.847946;,
  -31.227901;-1.504751;-10.596550;,
  -24.892299;0.965248;-9.643646;,
  -27.942400;-3.868952;-5.247849;,
  -22.941610;3.392448;-11.962746;,
  -19.476130;6.174248;-8.887146;,
  -21.991680;3.355049;-9.820450;,
  -22.470800;0.566849;-4.955650;,
  -23.866330;-3.400251;-0.102146;,
  -20.319571;4.227348;-6.409050;,
  -17.456070;6.175449;-5.992050;,
  -18.716730;5.749249;-3.754547;,
  -15.792550;7.714650;-4.435349;,
  -20.203310;2.323448;-1.378151;,
  -17.539570;6.238647;-2.149345;,
  -22.344811;-0.869852;1.356953;,
  -20.065152;-3.977152;4.482452;,
  -16.008109;4.947548;1.499252;,
  -18.114059;-0.677650;6.330753;,
  -18.203600;2.056950;2.642952;,
  -15.172376;-4.313051;10.639553;,
  -14.764091;3.272747;6.333351;,
  -13.600710;1.353748;13.140953;,
  -11.971670;-1.500952;17.490051;,
  -14.652750;3.596848;10.883454;,
  -11.782921;2.539547;18.278854;,
  -8.189600;-1.107452;23.207253;,
  -10.517881;9.284046;14.445355;,
  -13.318470;5.178547;8.634552;,
  -12.778320;7.867046;6.454052;,
  -9.401180;4.493149;22.237354;,
  -5.655500;0.598248;27.131654;,
  -7.362061;6.521446;26.618350;,
  -9.754350;9.509247;20.270954;,
  -6.325240;11.129448;26.223453;,
  -5.996500;15.085450;22.002651;,
  -2.778000;14.905648;26.350853;,
  -5.638000;15.346546;17.834053;,
  -8.505930;12.892449;11.777554;,
  -4.446700;16.005046;24.278554;,
  0.009699;19.250747;23.891853;,
  0.719700;18.092346;26.183853;,
  -1.931300;18.768547;21.524654;,
  5.651100;20.611946;24.175152;,
  5.268200;19.394650;26.592053;,
  10.282400;20.197048;26.929955;,
  4.211599;20.257248;20.073051;,
  -4.981300;16.493846;15.846451;,
  12.488600;21.737549;25.322254;,
  15.153499;20.374446;27.079254;,
  -5.295700;16.325749;12.529354;,
  17.178200;20.349048;26.179554;,
  19.518002;17.606346;27.613552;,
  -7.858400;14.164147;7.988754;,
  -0.539600;19.171146;13.684155;,
  -2.531900;18.653248;10.489853;,
  -9.499651;13.694846;4.381851;,
  2.043800;19.176549;15.773952;,
  -5.295900;17.168347;5.149754;,
  2.639599;19.633747;17.976853;,
  2.331100;18.781147;11.687252;,
  6.148600;18.802349;12.295154;,
  9.038599;19.330848;13.691654;,
  0.264299;19.290349;9.784351;,
  4.778799;20.591450;10.315052;,
  8.622299;20.429749;11.870453;,
  3.646599;21.296646;3.766354;,
  0.025400;19.262848;2.644451;,
  8.247999;21.523147;4.036652;,
  9.935299;21.611747;-4.501945;,
  -5.427800;17.151848;-0.457249;,
  -4.346800;17.096046;-3.805847;,
  -8.951780;15.552147;1.744053;,
  -14.652010;12.243248;-3.050850;,
  -13.732680;12.250647;0.687252;,
  -12.951961;9.515846;3.585354;,
  -14.690061;9.154148;-0.155247;,
  -16.125266;7.693947;-0.613846;,
  14.399598;20.853947;-9.369148;,
  20.162701;18.457749;-10.184646;,
  17.447398;19.590248;-6.769844;,
  24.944802;14.883149;-12.269249;,
  24.019299;15.612549;-6.710648;,
  12.833201;20.966248;-1.222748;,
  20.781398;17.309848;-1.142151;,
  16.280899;18.970146;3.729752;,
  14.171000;19.630547;7.452953;,
  21.931099;17.334347;7.668755;,
  15.501000;19.355450;10.909851;,
  13.125900;20.410846;14.097752;,
  22.086299;18.358749;15.375954;,
  12.435900;19.949947;15.744152;,
  16.940800;20.647149;16.687954;,
  10.422199;20.599147;19.825554;,
  15.343501;21.160149;19.348651;,
  12.092600;21.667549;22.192253;,
  19.156398;19.595250;19.087352;,
  14.552701;22.225349;24.328251;,
  18.364602;19.976848;20.909752;,
  19.108299;20.380650;25.958752;,
  17.624798;21.226448;23.305851;,
  21.866501;18.344848;22.580754;,
  23.797600;17.566646;20.050755;,
  22.513000;18.427850;18.019950;,
  23.930501;15.920949;25.512851;,
  22.114602;15.335147;28.493856;,
  26.641800;13.464347;28.790653;,
  26.997600;15.849549;22.862053;,
  28.932400;12.593048;26.635552;,
  30.635200;10.550949;28.989654;,
  32.624797;11.446949;24.837051;,
  29.379898;13.651848;24.489051;,
  30.044000;15.924248;20.808254;,
  34.858202;13.290249;21.423454;,
  29.122800;16.618846;17.990550;,
  34.658902;14.653248;18.598152;,
  36.552899;11.846847;18.888653;,
  34.095901;15.143251;17.233952;,
  26.489200;16.540848;12.453854;,
  35.065997;11.618446;14.813954;,
  35.753699;10.311546;15.869053;,
  34.918598;8.829949;12.078453;,
  34.073501;12.540046;9.771454;,
  34.348099;9.436750;8.837952;,
  34.325600;7.786346;10.534554;,
  33.203098;5.692047;5.399151;,
  28.899798;15.104846;8.438454;,
  34.001302;8.049446;0.104454;,
  32.765200;4.134548;-0.106747;,
  34.098499;11.281246;1.553253;,
  31.461699;12.872646;1.349754;,
  25.782002;15.123250;0.051353;,
  33.965302;10.717949;-3.691544;,
  30.979600;11.876450;-6.754044;,
  33.524202;8.511547;-4.541847;,
  27.802400;13.044850;-10.681648;,
  32.585398;4.919949;-5.735748;,
  31.590000;2.579048;-6.715248;,
  28.309898;10.754047;-10.682251;,
  29.990701;8.627949;-9.372444;,
  31.117101;5.201347;-8.291649;;
  686;
  3;0,1,2;,
  3;0,2,3;,
  3;4,0,3;,
  3;5,0,4;,
  3;4,6,5;,
  3;4,7,6;,
  3;4,8,7;,
  3;4,9,8;,
  3;10,8,9;,
  3;9,11,10;,
  3;11,9,12;,
  3;12,13,11;,
  3;13,12,14;,
  3;14,15,13;,
  3;15,14,16;,
  3;15,16,17;,
  3;17,18,15;,
  3;17,19,18;,
  3;19,20,18;,
  3;19,21,20;,
  3;19,22,21;,
  3;23,24,25;,
  3;23,25,26;,
  3;27,23,26;,
  3;26,28,27;,
  3;28,29,27;,
  3;27,30,23;,
  3;30,27,31;,
  3;31,32,30;,
  3;32,33,30;,
  3;32,31,34;,
  3;35,33,32;,
  3;36,32,34;,
  3;36,34,37;,
  3;36,37,38;,
  3;38,39,36;,
  3;35,32,40;,
  3;40,32,36;,
  3;35,40,41;,
  3;42,41,40;,
  3;36,39,43;,
  3;43,39,44;,
  3;43,44,45;,
  3;45,46,43;,
  3;40,47,42;,
  3;47,48,42;,
  3;48,47,49;,
  3;49,47,50;,
  3;40,51,47;,
  3;36,51,40;,
  3;51,52,47;,
  3;47,52,50;,
  3;51,36,53;,
  3;53,52,51;,
  3;53,36,43;,
  3;52,53,43;,
  3;43,54,52;,
  3;50,52,54;,
  3;43,46,54;,
  3;54,55,50;,
  3;55,56,50;,
  3;57,56,55;,
  3;58,54,46;,
  3;55,59,57;,
  3;59,60,57;,
  3;54,61,55;,
  3;61,59,55;,
  3;61,54,58;,
  3;60,59,62;,
  3;61,62,59;,
  3;62,63,60;,
  3;63,62,64;,
  3;61,64,62;,
  3;63,64,65;,
  3;58,66,61;,
  3;66,64,61;,
  3;65,64,67;,
  3;66,67,64;,
  3;67,68,65;,
  3;69,68,67;,
  3;69,67,66;,
  3;70,66,58;,
  3;70,69,66;,
  3;46,70,58;,
  3;69,70,71;,
  3;70,46,71;,
  3;72,73,74;,
  3;72,75,73;,
  3;75,72,76;,
  3;75,77,73;,
  3;78,73,77;,
  3;79,75,76;,
  3;79,77,75;,
  3;80,79,76;,
  3;78,77,81;,
  3;81,82,78;,
  3;81,83,82;,
  3;80,84,79;,
  3;85,84,80;,
  3;77,79,86;,
  3;86,79,84;,
  3;77,87,81;,
  3;86,87,77;,
  3;84,85,88;,
  3;89,86,84;,
  3;90,88,85;,
  3;91,90,85;,
  3;88,92,84;,
  3;84,92,89;,
  3;91,93,90;,
  3;93,91,94;,
  3;88,90,95;,
  3;90,93,95;,
  3;95,92,88;,
  3;94,96,93;,
  3;96,95,93;,
  3;97,92,95;,
  3;95,96,97;,
  3;92,97,89;,
  3;96,94,98;,
  3;98,94,99;,
  3;100,96,98;,
  3;100,97,96;,
  3;99,101,98;,
  3;100,98,101;,
  3;102,101,99;,
  3;103,102,99;,
  3;102,103,104;,
  3;101,105,100;,
  3;101,102,105;,
  3;104,106,102;,
  3;105,102,106;,
  3;106,104,107;,
  3;105,108,100;,
  3;97,100,108;,
  3;106,109,105;,
  3;105,109,108;,
  3;110,106,107;,
  3;106,110,109;,
  3;107,111,110;,
  3;112,110,111;,
  3;113,110,112;,
  3;114,108,109;,
  3;108,114,97;,
  3;114,109,110;,
  3;89,97,114;,
  3;113,115,110;,
  3;115,114,110;,
  3;113,116,115;,
  3;116,117,115;,
  3;118,89,114;,
  3;114,115,118;,
  3;119,89,118;,
  3;89,119,86;,
  3;86,119,87;,
  3;120,118,115;,
  3;117,121,115;,
  3;115,121,120;,
  3;121,117,122;,
  3;117,123,122;,
  3;123,124,122;,
  3;121,122,125;,
  3;124,126,122;,
  3;125,122,126;,
  3;124,127,126;,
  3;121,125,128;,
  3;121,128,120;,
  3;126,129,125;,
  3;128,125,129;,
  3;126,127,130;,
  3;130,127,131;,
  3;132,129,126;,
  3;128,129,132;,
  3;130,132,126;,
  3;133,120,128;,
  3;132,133,128;,
  3;120,133,134;,
  3;118,120,134;,
  3;135,133,132;,
  3;118,134,136;,
  3;118,136,119;,
  3;137,134,133;,
  3;134,137,136;,
  3;138,137,133;,
  3;133,135,138;,
  3;136,137,139;,
  3;137,138,139;,
  3;119,136,140;,
  3;139,140,136;,
  3;119,140,141;,
  3;141,140,139;,
  3;119,141,87;,
  3;139,142,141;,
  3;141,143,87;,
  3;143,141,142;,
  3;143,144,87;,
  3;145,142,139;,
  3;145,139,138;,
  3;142,146,143;,
  3;143,146,144;,
  3;142,145,147;,
  3;146,142,147;,
  3;148,87,144;,
  3;87,148,81;,
  3;144,146,149;,
  3;144,149,148;,
  3;146,147,150;,
  3;149,146,150;,
  3;81,148,151;,
  3;81,151,83;,
  3;148,149,152;,
  3;152,151,148;,
  3;153,149,150;,
  3;149,153,152;,
  3;83,151,154;,
  3;151,152,154;,
  3;154,155,83;,
  3;155,156,83;,
  3;155,157,156;,
  3;158,157,155;,
  3;158,155,154;,
  3;159,157,158;,
  3;160,154,152;,
  3;154,160,158;,
  3;152,153,161;,
  3;152,161,160;,
  3;159,158,162;,
  3;162,158,160;,
  3;160,161,163;,
  3;160,163,162;,
  3;164,161,153;,
  3;163,161,164;,
  3;164,153,150;,
  3;163,165,162;,
  3;163,164,165;,
  3;162,166,159;,
  3;166,167,159;,
  3;167,166,168;,
  3;166,162,169;,
  3;162,165,169;,
  3;168,166,170;,
  3;170,166,169;,
  3;170,171,168;,
  3;171,170,172;,
  3;165,173,169;,
  3;174,172,170;,
  3;175,172,174;,
  3;174,176,175;,
  3;176,174,177;,
  3;174,178,177;,
  3;170,169,179;,
  3;179,169,173;,
  3;174,170,180;,
  3;180,170,179;,
  3;178,174,181;,
  3;174,180,181;,
  3;179,181,180;,
  3;182,178,181;,
  3;181,183,182;,
  3;181,179,183;,
  3;182,183,184;,
  3;185,183,179;,
  3;173,185,179;,
  3;186,184,183;,
  3;185,186,183;,
  3;184,186,187;,
  3;185,187,186;,
  3;187,188,184;,
  3;189,185,173;,
  3;189,187,185;,
  3;189,173,165;,
  3;188,187,190;,
  3;189,165,191;,
  3;187,189,191;,
  3;190,187,191;,
  3;191,165,164;,
  3;190,191,192;,
  3;191,164,192;,
  3;192,193,190;,
  3;192,164,194;,
  3;150,194,164;,
  3;194,150,147;,
  3;194,147,145;,
  3;195,193,192;,
  3;193,195,196;,
  3;196,195,197;,
  3;194,198,192;,
  3;192,198,195;,
  3;145,199,194;,
  3;199,145,138;,
  3;200,198,194;,
  3;200,194,199;,
  3;138,201,199;,
  3;135,201,138;,
  3;202,200,199;,
  3;202,199,201;,
  3;135,203,201;,
  3;132,203,135;,
  3;132,130,203;,
  3;204,201,203;,
  3;202,201,204;,
  3;130,205,203;,
  3;204,203,205;,
  3;131,205,130;,
  3;131,204,205;,
  3;206,204,131;,
  3;204,206,202;,
  3;131,207,206;,
  3;202,206,207;,
  3;202,207,208;,
  3;208,209,202;,
  3;202,209,210;,
  3;210,200,202;,
  3;209,208,211;,
  3;210,212,200;,
  3;212,210,209;,
  3;213,211,208;,
  3;214,213,208;,
  3;209,211,215;,
  3;209,215,212;,
  3;213,216,211;,
  3;211,216,215;,
  3;217,216,213;,
  3;214,217,213;,
  3;216,217,215;,
  3;218,214,219;,
  3;218,217,214;,
  3;220,215,217;,
  3;220,217,218;,
  3;221,215,220;,
  3;220,218,221;,
  3;221,212,215;,
  3;222,221,218;,
  3;223,212,221;,
  3;222,223,221;,
  3;212,223,224;,
  3;212,224,200;,
  3;200,224,198;,
  3;222,225,223;,
  3;225,224,223;,
  3;222,197,225;,
  3;226,198,224;,
  3;224,225,226;,
  3;198,226,195;,
  3;225,197,227;,
  3;195,227,197;,
  3;227,226,225;,
  3;227,195,226;,
  3;228,229,230;,
  3;228,230,231;,
  3;230,232,231;,
  3;233,231,232;,
  3;228,231,234;,
  3;234,235,228;,
  3;236,231,233;,
  3;237,235,234;,
  3;235,237,238;,
  3;231,239,234;,
  3;236,239,231;,
  3;240,237,234;,
  3;239,240,234;,
  3;236,233,241;,
  3;241,233,242;,
  3;239,236,243;,
  3;241,243,236;,
  3;243,244,239;,
  3;240,239,244;,
  3;245,241,242;,
  3;242,246,245;,
  3;245,246,247;,
  3;248,243,241;,
  3;248,241,245;,
  3;249,244,243;,
  3;248,249,243;,
  3;244,249,250;,
  3;250,240,244;,
  3;251,249,248;,
  3;251,250,249;,
  3;252,248,245;,
  3;248,253,251;,
  3;252,253,248;,
  3;254,245,247;,
  3;254,252,245;,
  3;255,254,247;,
  3;254,255,256;,
  3;253,252,257;,
  3;254,256,258;,
  3;256,259,258;,
  3;259,260,258;,
  3;254,261,252;,
  3;252,261,257;,
  3;262,254,258;,
  3;254,262,261;,
  3;258,260,263;,
  3;263,260,264;,
  3;261,265,257;,
  3;264,266,263;,
  3;265,261,267;,
  3;262,267,261;,
  3;268,266,264;,
  3;264,269,268;,
  3;270,263,266;,
  3;270,266,268;,
  3;270,258,263;,
  3;271,268,269;,
  3;270,268,271;,
  3;269,272,271;,
  3;271,272,273;,
  3;258,270,274;,
  3;258,274,262;,
  3;275,270,271;,
  3;273,276,271;,
  3;275,271,276;,
  3;273,277,276;,
  3;273,278,277;,
  3;275,279,270;,
  3;270,279,274;,
  3;280,277,278;,
  3;278,281,280;,
  3;280,281,282;,
  3;280,282,283;,
  3;277,280,283;,
  3;283,282,284;,
  3;277,285,276;,
  3;283,285,277;,
  3;285,286,276;,
  3;276,286,275;,
  3;285,283,287;,
  3;285,287,286;,
  3;283,284,288;,
  3;288,284,289;,
  3;290,287,283;,
  3;283,288,290;,
  3;287,290,286;,
  3;286,290,291;,
  3;291,275,286;,
  3;292,290,288;,
  3;291,290,292;,
  3;275,291,293;,
  3;291,292,293;,
  3;293,279,275;,
  3;288,294,292;,
  3;294,288,289;,
  3;292,295,293;,
  3;294,295,292;,
  3;289,296,294;,
  3;296,289,297;,
  3;294,298,295;,
  3;299,296,297;,
  3;294,296,300;,
  3;300,296,299;,
  3;294,300,298;,
  3;301,299,297;,
  3;302,298,300;,
  3;302,300,299;,
  3;299,301,303;,
  3;304,303,301;,
  3;302,299,305;,
  3;303,305,299;,
  3;304,306,303;,
  3;306,304,307;,
  3;308,305,303;,
  3;303,306,308;,
  3;305,309,302;,
  3;308,309,305;,
  3;302,309,310;,
  3;310,309,308;,
  3;298,302,310;,
  3;311,306,307;,
  3;311,307,312;,
  3;311,312,313;,
  3;306,311,314;,
  3;314,311,313;,
  3;308,306,314;,
  3;314,313,315;,
  3;314,315,316;,
  3;315,317,316;,
  3;318,308,314;,
  3;318,314,316;,
  3;308,318,319;,
  3;308,319,310;,
  3;317,320,316;,
  3;321,320,317;,
  3;317,322,321;,
  3;323,316,320;,
  3;321,323,320;,
  3;316,323,318;,
  3;324,321,322;,
  3;322,325,324;,
  3;326,324,325;,
  3;321,327,323;,
  3;324,327,321;,
  3;323,328,318;,
  3;319,318,328;,
  3;324,326,329;,
  3;330,329,326;,
  3;328,331,319;,
  3;329,330,332;,
  3;333,332,330;,
  3;334,319,331;,
  3;310,319,334;,
  3;335,331,328;,
  3;336,334,331;,
  3;335,336,331;,
  3;334,337,310;,
  3;328,338,335;,
  3;338,328,323;,
  3;339,334,336;,
  3;334,339,337;,
  3;323,340,338;,
  3;340,323,327;,
  3;335,338,341;,
  3;340,342,338;,
  3;338,342,341;,
  3;340,327,343;,
  3;343,342,340;,
  3;344,335,341;,
  3;335,344,336;,
  3;339,336,344;,
  3;342,345,341;,
  3;345,344,341;,
  3;346,345,342;,
  3;342,343,346;,
  3;344,345,347;,
  3;344,348,339;,
  3;347,348,344;,
  3;347,345,349;,
  3;345,346,349;,
  3;347,267,348;,
  3;349,350,347;,
  3;350,267,347;,
  3;348,351,339;,
  3;352,348,267;,
  3;348,352,351;,
  3;352,267,262;,
  3;352,262,274;,
  3;351,352,274;,
  3;267,350,265;,
  3;351,353,339;,
  3;274,353,351;,
  3;339,353,337;,
  3;353,274,354;,
  3;279,354,274;,
  3;279,293,354;,
  3;353,354,355;,
  3;337,353,355;,
  3;355,354,293;,
  3;337,355,356;,
  3;356,310,337;,
  3;356,298,310;,
  3;293,357,355;,
  3;357,356,355;,
  3;358,357,293;,
  3;356,357,358;,
  3;358,298,356;,
  3;293,295,358;,
  3;295,298,358;,
  3;257,265,359;,
  3;253,257,359;,
  3;265,350,359;,
  3;253,359,251;,
  3;251,359,360;,
  3;250,251,360;,
  3;361,359,350;,
  3;359,361,360;,
  3;360,362,250;,
  3;362,240,250;,
  3;363,360,361;,
  3;362,360,363;,
  3;350,364,361;,
  3;350,349,364;,
  3;365,361,364;,
  3;361,365,363;,
  3;366,364,349;,
  3;364,366,365;,
  3;349,367,366;,
  3;349,346,367;,
  3;366,368,365;,
  3;368,366,367;,
  3;369,367,346;,
  3;367,369,368;,
  3;346,370,369;,
  3;346,343,370;,
  3;369,371,368;,
  3;343,372,370;,
  3;369,370,373;,
  3;370,372,373;,
  3;369,373,371;,
  3;374,372,343;,
  3;327,374,343;,
  3;324,374,327;,
  3;375,372,374;,
  3;373,372,375;,
  3;376,374,324;,
  3;375,374,376;,
  3;324,329,376;,
  3;377,373,375;,
  3;376,329,378;,
  3;332,378,329;,
  3;379,375,376;,
  3;379,376,378;,
  3;375,379,377;,
  3;378,332,380;,
  3;380,332,333;,
  3;380,381,378;,
  3;378,381,379;,
  3;382,381,380;,
  3;382,379,381;,
  3;382,380,333;,
  3;383,377,379;,
  3;379,382,383;,
  3;373,377,384;,
  3;383,384,377;,
  3;384,371,373;,
  3;382,333,385;,
  3;333,386,385;,
  3;386,387,385;,
  3;382,385,388;,
  3;388,383,382;,
  3;387,389,385;,
  3;389,388,385;,
  3;390,389,387;,
  3;391,389,390;,
  3;388,389,392;,
  3;391,392,389;,
  3;392,393,388;,
  3;393,392,391;,
  3;383,388,393;,
  3;391,394,393;,
  3;383,393,395;,
  3;395,384,383;,
  3;396,393,394;,
  3;397,396,394;,
  3;393,396,398;,
  3;397,398,396;,
  3;398,395,393;,
  3;384,395,399;,
  3;398,399,395;,
  3;399,371,384;,
  3;368,371,399;,
  3;398,397,400;,
  3;400,397,401;,
  3;402,400,401;,
  3;399,398,403;,
  3;398,400,403;,
  3;400,402,404;,
  3;400,404,403;,
  3;404,402,405;,
  3;404,405,406;,
  3;403,407,399;,
  3;399,407,368;,
  3;404,406,408;,
  3;406,409,408;,
  3;410,403,404;,
  3;404,408,410;,
  3;411,407,403;,
  3;403,410,411;,
  3;412,368,407;,
  3;407,411,412;,
  3;365,368,412;,
  3;365,412,363;,
  3;413,411,410;,
  3;410,408,413;,
  3;414,412,411;,
  3;411,413,414;,
  3;363,412,414;,
  3;413,408,415;,
  3;415,414,413;,
  3;408,409,415;,
  3;363,414,416;,
  3;363,416,362;,
  3;415,409,417;,
  3;418,417,409;,
  3;362,416,419;,
  3;414,419,416;,
  3;362,419,240;,
  3;240,419,237;,
  3;420,419,414;,
  3;237,419,420;,
  3;420,414,415;,
  3;238,237,420;,
  3;421,420,415;,
  3;421,238,420;,
  3;421,415,417;,
  3;418,238,421;,
  3;418,421,417;;

  MeshNormals {
   422;
   0.335549;-0.160166;0.928307;,
   0.488861;-0.171130;0.855412;,
   0.470481;0.459737;0.753186;,
   0.283873;0.561037;0.777595;,
   0.168170;0.531244;0.830360;,
   0.424845;-0.253011;0.869190;,
   0.482762;-0.402120;0.777972;,
   0.481936;-0.410276;0.774217;,
   0.328768;-0.410151;0.850698;,
   0.221009;0.419362;0.880506;,
   -0.065946;-0.437954;0.896575;,
   -0.308479;-0.480923;0.820703;,
   0.069912;0.498977;0.863791;,
   -0.221755;-0.521357;0.824022;,
   -0.120026;0.506983;0.853559;,
   -0.316723;-0.449274;0.835368;,
   -0.190352;0.566734;0.801610;,
   -0.283830;0.484593;0.827412;,
   -0.415614;-0.356228;0.836879;,
   -0.347499;0.353739;0.868397;,
   -0.588931;-0.198392;0.783454;,
   -0.553834;0.053258;0.830922;,
   -0.537461;0.297882;0.788925;,
   -0.006820;0.657831;-0.753135;,
   0.464514;0.462128;-0.755424;,
   0.691686;0.187895;-0.697328;,
   0.672570;0.181042;-0.717547;,
   0.264783;-0.579954;-0.770418;,
   0.858707;0.153015;-0.489089;,
   0.675374;-0.060314;-0.735005;,
   -0.162574;0.662162;-0.731513;,
   0.226205;-0.589221;-0.775661;,
   -0.309138;0.112843;-0.944299;,
   -0.379314;0.609895;-0.695808;,
   0.196012;-0.423774;-0.884305;,
   -0.483401;0.629175;-0.608657;,
   -0.176288;0.137411;-0.974700;,
   0.176488;-0.453894;-0.873403;,
   -0.148706;-0.642157;-0.752011;,
   -0.194278;-0.681930;-0.705144;,
   -0.361373;0.242727;-0.900274;,
   -0.289695;0.753906;-0.589664;,
   -0.346605;0.728032;-0.591468;,
   -0.256143;0.159233;-0.953434;,
   -0.229227;-0.740662;-0.631565;,
   -0.449701;-0.720918;-0.527301;,
   -0.570906;-0.645631;-0.507176;,
   -0.279055;0.165659;-0.945878;,
   -0.407607;0.720274;-0.561303;,
   -0.373060;0.743817;-0.554583;,
   -0.452176;0.629532;-0.631843;,
   -0.309815;0.180866;-0.933436;,
   -0.229854;0.225566;-0.946725;,
   -0.310836;0.269294;-0.911516;,
   -0.173040;0.233465;-0.956844;,
   -0.331233;0.316966;-0.888717;,
   -0.484102;0.647347;-0.588716;,
   -0.729396;0.677724;-0.093119;,
   -0.124817;0.206320;-0.970491;,
   -0.430670;0.611696;-0.663590;,
   -0.537426;0.800543;0.265149;,
   -0.203579;0.262546;-0.943200;,
   -0.522967;0.730747;-0.438765;,
   -0.757083;0.556235;0.342677;,
   -0.736050;0.352918;-0.577649;,
   -0.935783;0.165173;0.311494;,
   -0.300711;0.185538;-0.935494;,
   -0.873884;-0.357070;-0.329889;,
   -0.823494;-0.408029;0.394171;,
   -0.707176;-0.599120;-0.375443;,
   -0.272549;0.036437;-0.961452;,
   -0.640022;-0.692206;-0.333501;,
   -0.730759;-0.426089;0.533330;,
   -0.415614;-0.356228;0.836879;,
   -0.588931;-0.198392;0.783454;,
   -0.492193;-0.772908;0.400449;,
   -0.765435;-0.425487;0.482774;,
   -0.462979;-0.796465;0.388966;,
   -0.316723;-0.449274;0.835368;,
   -0.428975;-0.780285;0.455122;,
   -0.713282;-0.418980;0.561859;,
   -0.464158;-0.819182;0.336894;,
   -0.221755;-0.521357;0.824022;,
   -0.308479;-0.480923;0.820703;,
   -0.448850;-0.776260;0.442666;,
   -0.732573;-0.317069;0.602332;,
   -0.405904;-0.807671;0.427680;,
   -0.425725;-0.821264;0.379847;,
   -0.502740;-0.710338;0.492617;,
   -0.416690;-0.807944;0.416648;,
   -0.611522;-0.595064;0.521479;,
   -0.847666;-0.021064;0.530112;,
   -0.455084;-0.780286;0.429013;,
   -0.636683;-0.508159;0.580008;,
   -0.798703;0.148098;0.583216;,
   -0.541455;-0.671798;0.505484;,
   -0.638114;-0.505260;0.580967;,
   -0.463194;-0.737409;0.491609;,
   -0.852006;-0.197076;0.485022;,
   -0.759058;0.260936;0.596442;,
   -0.664829;-0.486386;0.566949;,
   -0.818347;-0.200052;0.538783;,
   -0.814119;-0.039460;0.579356;,
   -0.757083;0.556235;0.342677;,
   -0.935783;0.165173;0.311494;,
   -0.692285;-0.461182;0.555025;,
   -0.719792;-0.416993;0.554991;,
   -0.823494;-0.408029;0.394171;,
   -0.460754;-0.777298;0.428384;,
   -0.479618;-0.789486;0.382988;,
   -0.471312;-0.800298;0.370659;,
   -0.707176;-0.599120;-0.375443;,
   -0.640022;-0.692206;-0.333501;,
   -0.570906;-0.645631;-0.507176;,
   -0.435089;-0.785311;0.440436;,
   -0.387965;-0.850493;0.355170;,
   -0.449701;-0.720918;-0.527301;,
   -0.229227;-0.740662;-0.631565;,
   -0.379743;-0.839938;0.387684;,
   -0.385745;-0.832937;0.396759;,
   0.014177;-0.998194;0.058383;,
   -0.023701;-0.999421;-0.024429;,
   -0.001773;-0.992671;-0.120839;,
   -0.194278;-0.681930;-0.705144;,
   -0.148706;-0.642157;-0.752011;,
   -0.041524;-0.929564;-0.366314;,
   0.120908;-0.969139;-0.214827;,
   0.176488;-0.453894;-0.873403;,
   0.173046;-0.955560;-0.238665;,
   -0.196215;-0.959150;-0.203792;,
   0.406379;-0.848481;-0.339022;,
   0.196012;-0.423774;-0.884305;,
   0.298570;-0.954194;-0.019239;,
   0.296583;-0.954970;0.008382;,
   -0.049938;-0.966917;0.250154;,
   0.391077;-0.920158;-0.019200;,
   -0.101563;-0.951298;0.291062;,
   0.225785;-0.965463;0.130011;,
   0.394603;-0.918574;0.022588;,
   0.310405;-0.949254;0.050645;,
   -0.110339;-0.971855;0.208141;,
   -0.022391;-0.985186;0.170021;,
   0.396460;-0.913142;-0.094817;,
   -0.018102;-0.996164;0.085618;,
   0.180307;-0.960126;0.213651;,
   0.463860;-0.885671;0.020531;,
   0.476182;-0.868311;-0.138882;,
   0.535449;-0.840492;-0.082872;,
   0.027542;-0.960546;0.276755;,
   0.619643;-0.784827;0.009412;,
   0.626122;-0.779253;-0.027135;,
   -0.107884;-0.961010;0.254600;,
   0.427621;-0.898556;-0.098676;,
   0.630910;-0.775132;-0.033501;,
   0.183713;-0.974907;0.125719;,
   0.092136;-0.920493;0.379742;,
   -0.065946;-0.437954;0.896575;,
   0.328768;-0.410151;0.850698;,
   0.670921;-0.724922;0.156053;,
   0.481936;-0.410276;0.774217;,
   0.548759;-0.824813;-0.136185;,
   0.630340;-0.772093;-0.080895;,
   0.714686;-0.699256;-0.016279;,
   0.705603;-0.703299;-0.086577;,
   0.643632;-0.764880;0.026373;,
   0.713684;-0.696832;-0.071283;,
   0.728910;-0.667676;0.151325;,
   0.482762;-0.402120;0.777972;,
   0.424845;-0.253011;0.869190;,
   0.743027;-0.668470;-0.032522;,
   0.792667;-0.495295;0.355474;,
   0.335549;-0.160166;0.928307;,
   0.488861;-0.171130;0.855412;,
   0.661955;-0.738224;-0.129770;,
   0.764738;0.343337;0.545249;,
   0.470481;0.459737;0.753186;,
   0.383252;0.792535;0.474349;,
   0.647665;0.625837;0.434578;,
   0.962597;0.270676;-0.011930;,
   0.695299;-0.714296;0.079623;,
   0.892362;-0.307228;0.330607;,
   0.938792;-0.320584;0.126080;,
   0.960799;0.105171;-0.256523;,
   0.904893;-0.425040;-0.022584;,
   0.953051;-0.130426;-0.273281;,
   0.614267;-0.756245;-0.225320;,
   0.726704;-0.613588;-0.308886;,
   0.686183;-0.687899;-0.236531;,
   0.877788;-0.479010;-0.006065;,
   0.730599;-0.677923;-0.081524;,
   0.878189;-0.474757;0.058224;,
   0.732676;-0.673798;0.095823;,
   0.680562;-0.726562;0.094569;,
   0.873094;-0.487439;0.010522;,
   0.567558;-0.823063;0.021083;,
   0.653217;-0.557925;-0.511887;,
   0.737593;-0.510686;-0.441765;,
   0.819771;0.068566;-0.568571;,
   0.691048;-0.718655;0.077383;,
   0.507221;-0.861799;0.005438;,
   0.488099;-0.870338;0.065353;,
   0.458382;-0.888622;-0.015377;,
   0.438036;-0.898911;-0.009185;,
   0.417097;-0.903819;-0.095616;,
   0.408598;-0.885134;-0.222680;,
   0.427511;-0.812714;-0.395892;,
   0.350904;-0.907681;-0.230178;,
   0.226205;-0.589221;-0.775661;,
   0.264783;-0.579954;-0.770418;,
   0.493118;-0.869963;-0.000366;,
   0.463774;-0.883047;0.071705;,
   0.540817;-0.840844;-0.022307;,
   0.661168;-0.750226;0.004187;,
   0.622041;-0.440007;-0.647656;,
   0.675374;-0.060314;-0.735005;,
   0.787415;-0.598717;-0.146684;,
   0.737606;-0.674994;0.017923;,
   0.977512;-0.129809;-0.166192;,
   0.969347;0.238246;-0.060039;,
   0.858707;0.153015;-0.489089;,
   0.968957;-0.099532;-0.226307;,
   0.987745;-0.144347;-0.059368;,
   0.941555;0.335051;-0.034854;,
   0.974573;-0.223781;-0.011365;,
   0.614675;-0.783738;0.089053;,
   0.991330;-0.123438;-0.045023;,
   0.843531;-0.502928;-0.188467;,
   0.804471;0.164049;-0.570890;,
   0.969347;0.238246;-0.060039;,
   0.858707;0.153015;-0.489089;,
   0.672570;0.181042;-0.717547;,
   0.970697;0.229084;0.072585;,
   0.691686;0.187895;-0.697328;,
   0.464514;0.462128;-0.755424;,
   0.956523;0.286857;0.052702;,
   0.941555;0.335051;-0.034854;,
   0.663051;0.746104;-0.060771;,
   0.836933;0.031848;-0.546377;,
   0.819771;0.068566;-0.568571;,
   0.953007;0.280913;0.113430;,
   0.900824;0.046130;-0.431727;,
   0.102198;0.980302;-0.169007;,
   -0.006820;0.657831;-0.753135;,
   0.463795;0.885257;-0.034842;,
   0.904309;0.374778;-0.204370;,
   -0.091573;0.990750;-0.100141;,
   -0.162574;0.662162;-0.731513;,
   -0.379314;0.609895;-0.695808;,
   0.021888;0.993833;-0.108704;,
   0.557989;0.824529;-0.093813;,
   0.815042;0.380749;-0.436734;,
   0.253631;0.966124;-0.047698;,
   -0.129417;0.990664;-0.042853;,
   -0.109038;0.987909;-0.110210;,
   -0.277776;0.954104;-0.111921;,
   -0.483401;0.629175;-0.608657;,
   -0.289695;0.753906;-0.589664;,
   -0.158340;0.982886;-0.094148;,
   -0.289865;0.956096;-0.043124;,
   -0.346605;0.728032;-0.591468;,
   -0.407607;0.720274;-0.561303;,
   -0.243365;0.965538;-0.092249;,
   -0.293097;0.952040;-0.087831;,
   -0.294750;0.955572;-0.002240;,
   -0.373060;0.743817;-0.554583;,
   -0.184469;0.963705;-0.192988;,
   -0.434537;0.900588;-0.010924;,
   -0.305947;0.940729;-0.146377;,
   -0.516889;0.853121;-0.070788;,
   -0.452176;0.629532;-0.631843;,
   -0.422967;0.906047;0.013330;,
   -0.505298;0.862944;0.001467;,
   -0.484102;0.647347;-0.588716;,
   -0.729396;0.677724;-0.093119;,
   -0.382004;0.922744;-0.051148;,
   -0.715902;0.590525;0.372513;,
   -0.707538;0.562919;0.427215;,
   -0.568778;0.651423;0.502135;,
   -0.537426;0.800543;0.265149;,
   -0.665604;0.708649;0.234069;,
   -0.394620;0.826165;0.402153;,
   -0.757083;0.556235;0.342677;,
   -0.759058;0.260936;0.596442;,
   -0.510651;0.766076;0.390337;,
   -0.798703;0.148098;0.583216;,
   -0.697626;0.531523;0.480419;,
   -0.768100;0.399701;0.500262;,
   -0.690616;0.681985;0.240721;,
   -0.713649;0.618469;0.328938;,
   -0.847666;-0.021064;0.530112;,
   -0.714649;0.665234;0.216195;,
   -0.734507;0.626028;0.261895;,
   -0.683895;0.719951;0.118143;,
   -0.830155;0.502577;0.241369;,
   -0.743199;0.597165;0.301745;,
   -0.709842;0.650625;0.269836;,
   -0.814340;0.441762;0.376426;,
   -0.732573;-0.317069;0.602332;,
   -0.763922;0.491104;0.418617;,
   -0.789413;0.323591;0.521647;,
   -0.642720;0.645268;0.412966;,
   -0.713282;-0.418980;0.561859;,
   -0.803035;0.554426;0.218511;,
   -0.886568;0.129128;0.444211;,
   -0.765435;-0.425487;0.482774;,
   -0.862706;0.409130;0.297238;,
   -0.916192;0.086225;0.391353;,
   -0.730759;-0.426089;0.533330;,
   -0.872416;0.460930;0.162587;,
   -0.863608;0.494229;0.099595;,
   -0.851643;0.455678;0.258963;,
   -0.874643;-0.008175;0.484698;,
   -0.588931;-0.198392;0.783454;,
   -0.553834;0.053258;0.830922;,
   -0.901190;0.356784;0.246093;,
   -0.537461;0.297882;0.788925;,
   -0.771962;0.604199;0.197533;,
   -0.347499;0.353739;0.868397;,
   -0.767435;0.637159;0.071225;,
   -0.786353;0.608192;0.108404;,
   -0.736186;0.430126;0.522515;,
   -0.368885;0.878054;0.304867;,
   -0.283830;0.484593;0.827412;,
   -0.474049;0.879248;0.046911;,
   -0.197573;0.962870;0.183975;,
   -0.190352;0.566734;0.801610;,
   -0.120026;0.506983;0.853559;,
   -0.151007;0.983186;-0.102677;,
   -0.631755;0.772953;0.058566;,
   -0.100391;0.923774;0.369545;,
   0.069912;0.498977;0.863791;,
   -0.649282;0.759061;0.047523;,
   0.167523;0.706744;0.687349;,
   0.221009;0.419362;0.880506;,
   -0.727238;0.671246;0.143367;,
   -0.226041;0.962835;0.147834;,
   -0.435802;0.899665;0.026084;,
   -0.686222;0.636618;0.351877;,
   -0.144702;0.985974;-0.083161;,
   -0.508620;0.856202;0.090688;,
   -0.188509;0.970219;-0.152115;,
   -0.049142;0.969934;0.238355;,
   -0.181793;0.926595;0.329201;,
   -0.212601;0.961924;0.171768;,
   -0.236591;0.967966;0.084058;,
   -0.171339;0.900151;0.400464;,
   -0.109719;0.933249;0.342064;,
   -0.274416;0.961608;0.002378;,
   -0.407111;0.912304;-0.044304;,
   0.094741;0.992309;0.079665;,
   -0.022677;0.993645;-0.110252;,
   -0.370234;0.927033;-0.059480;,
   -0.332456;0.935597;-0.118877;,
   -0.532498;0.832770;0.151459;,
   -0.785600;0.602466;0.140951;,
   -0.789704;0.514650;0.333919;,
   -0.797165;0.440218;0.413201;,
   -0.866571;0.448586;0.218691;,
   -0.798886;0.555541;0.230557;,
   0.130357;0.990823;-0.035727;,
   0.521169;0.853249;0.018697;,
   0.404536;0.912250;0.064433;,
   0.659652;0.535125;-0.527731;,
   0.507272;0.861646;-0.015510;,
   0.288981;0.954863;0.068751;,
   0.418589;0.908113;0.010642;,
   0.326379;0.944717;0.031399;,
   0.255001;0.966738;0.019820;,
   0.303534;0.948347;-0.092221;,
   0.212091;0.969271;-0.124626;,
   -0.056077;0.998332;-0.013762;,
   0.326775;0.936717;-0.125615;,
   -0.157437;0.986752;-0.039163;,
   0.207740;0.970118;-0.125362;,
   -0.126000;0.967374;-0.219798;,
   0.130782;0.989442;-0.062462;,
   -0.093135;0.978961;-0.181553;,
   0.377054;0.925449;0.037069;,
   0.096542;0.988688;0.114785;,
   0.382607;0.914952;-0.128358;,
   0.480450;0.727981;0.489093;,
   0.350930;0.919247;-0.178419;,
   0.503170;0.852215;0.143351;,
   0.337152;0.929851;0.147330;,
   0.337591;0.940276;0.043731;,
   0.423170;0.819051;0.387404;,
   0.168170;0.531244;0.830360;,
   0.283873;0.561037;0.777595;,
   0.341798;0.849555;0.401785;,
   0.481650;0.796774;0.364917;,
   0.470481;0.459737;0.753186;,
   0.383252;0.792535;0.474349;,
   0.417649;0.760330;0.497462;,
   0.318889;0.880316;0.351217;,
   0.647665;0.625837;0.434578;,
   0.265762;0.963892;0.016833;,
   0.647238;0.752029;0.124644;,
   0.962597;0.270676;-0.011930;,
   0.585190;0.802795;-0.114339;,
   0.321237;0.934974;-0.150438;,
   0.928089;0.286743;-0.237549;,
   0.960799;0.105171;-0.256523;,
   0.953051;-0.130426;-0.273281;,
   0.807803;0.568056;-0.157376;,
   0.994056;-0.044051;-0.099560;,
   0.877788;-0.479010;-0.006065;,
   0.878189;-0.474757;0.058224;,
   0.401001;0.910451;-0.101381;,
   0.982224;-0.180792;-0.050498;,
   0.873094;-0.487439;0.010522;,
   0.875084;0.476838;-0.082790;,
   0.455390;0.881085;-0.127709;,
   0.401533;0.911432;-0.089798;,
   0.867006;0.400970;-0.295843;,
   0.684674;0.615994;-0.389580;,
   0.926285;-0.056041;-0.372633;,
   0.665766;0.527483;-0.527748;,
   0.933558;-0.209514;-0.290816;,
   0.737593;-0.510686;-0.441765;,
   0.593316;-0.016784;-0.804795;,
   0.623112;-0.010244;-0.782065;,
   0.608694;-0.190192;-0.770272;;
   686;
   3;0,1,2;,
   3;0,2,3;,
   3;4,0,3;,
   3;5,0,4;,
   3;4,6,5;,
   3;4,7,6;,
   3;4,8,7;,
   3;4,9,8;,
   3;10,8,9;,
   3;9,11,10;,
   3;11,9,12;,
   3;12,13,11;,
   3;13,12,14;,
   3;14,15,13;,
   3;15,14,16;,
   3;15,16,17;,
   3;17,18,15;,
   3;17,19,18;,
   3;19,20,18;,
   3;19,21,20;,
   3;19,22,21;,
   3;23,24,25;,
   3;23,25,26;,
   3;27,23,26;,
   3;26,28,27;,
   3;28,29,27;,
   3;27,30,23;,
   3;30,27,31;,
   3;31,32,30;,
   3;32,33,30;,
   3;32,31,34;,
   3;35,33,32;,
   3;36,32,34;,
   3;36,34,37;,
   3;36,37,38;,
   3;38,39,36;,
   3;35,32,40;,
   3;40,32,36;,
   3;35,40,41;,
   3;42,41,40;,
   3;36,39,43;,
   3;43,39,44;,
   3;43,44,45;,
   3;45,46,43;,
   3;40,47,42;,
   3;47,48,42;,
   3;48,47,49;,
   3;49,47,50;,
   3;40,51,47;,
   3;36,51,40;,
   3;51,52,47;,
   3;47,52,50;,
   3;51,36,53;,
   3;53,52,51;,
   3;53,36,43;,
   3;52,53,43;,
   3;43,54,52;,
   3;50,52,54;,
   3;43,46,54;,
   3;54,55,50;,
   3;55,56,50;,
   3;57,56,55;,
   3;58,54,46;,
   3;55,59,57;,
   3;59,60,57;,
   3;54,61,55;,
   3;61,59,55;,
   3;61,54,58;,
   3;60,59,62;,
   3;61,62,59;,
   3;62,63,60;,
   3;63,62,64;,
   3;61,64,62;,
   3;63,64,65;,
   3;58,66,61;,
   3;66,64,61;,
   3;65,64,67;,
   3;66,67,64;,
   3;67,68,65;,
   3;69,68,67;,
   3;69,67,66;,
   3;70,66,58;,
   3;70,69,66;,
   3;46,70,58;,
   3;69,70,71;,
   3;70,46,71;,
   3;72,73,74;,
   3;72,75,73;,
   3;75,72,76;,
   3;75,77,73;,
   3;78,73,77;,
   3;79,75,76;,
   3;79,77,75;,
   3;80,79,76;,
   3;78,77,81;,
   3;81,82,78;,
   3;81,83,82;,
   3;80,84,79;,
   3;85,84,80;,
   3;77,79,86;,
   3;86,79,84;,
   3;77,87,81;,
   3;86,87,77;,
   3;84,85,88;,
   3;89,86,84;,
   3;90,88,85;,
   3;91,90,85;,
   3;88,92,84;,
   3;84,92,89;,
   3;91,93,90;,
   3;93,91,94;,
   3;88,90,95;,
   3;90,93,95;,
   3;95,92,88;,
   3;94,96,93;,
   3;96,95,93;,
   3;97,92,95;,
   3;95,96,97;,
   3;92,97,89;,
   3;96,94,98;,
   3;98,94,99;,
   3;100,96,98;,
   3;100,97,96;,
   3;99,101,98;,
   3;100,98,101;,
   3;102,101,99;,
   3;103,102,99;,
   3;102,103,104;,
   3;101,105,100;,
   3;101,102,105;,
   3;104,106,102;,
   3;105,102,106;,
   3;106,104,107;,
   3;105,108,100;,
   3;97,100,108;,
   3;106,109,105;,
   3;105,109,108;,
   3;110,106,107;,
   3;106,110,109;,
   3;107,111,110;,
   3;112,110,111;,
   3;113,110,112;,
   3;114,108,109;,
   3;108,114,97;,
   3;114,109,110;,
   3;89,97,114;,
   3;113,115,110;,
   3;115,114,110;,
   3;113,116,115;,
   3;116,117,115;,
   3;118,89,114;,
   3;114,115,118;,
   3;119,89,118;,
   3;89,119,86;,
   3;86,119,87;,
   3;120,118,115;,
   3;117,121,115;,
   3;115,121,120;,
   3;121,117,122;,
   3;117,123,122;,
   3;123,124,122;,
   3;121,122,125;,
   3;124,126,122;,
   3;125,122,126;,
   3;124,127,126;,
   3;121,125,128;,
   3;121,128,120;,
   3;126,129,125;,
   3;128,125,129;,
   3;126,127,130;,
   3;130,127,131;,
   3;132,129,126;,
   3;128,129,132;,
   3;130,132,126;,
   3;133,120,128;,
   3;132,133,128;,
   3;120,133,134;,
   3;118,120,134;,
   3;135,133,132;,
   3;118,134,136;,
   3;118,136,119;,
   3;137,134,133;,
   3;134,137,136;,
   3;138,137,133;,
   3;133,135,138;,
   3;136,137,139;,
   3;137,138,139;,
   3;119,136,140;,
   3;139,140,136;,
   3;119,140,141;,
   3;141,140,139;,
   3;119,141,87;,
   3;139,142,141;,
   3;141,143,87;,
   3;143,141,142;,
   3;143,144,87;,
   3;145,142,139;,
   3;145,139,138;,
   3;142,146,143;,
   3;143,146,144;,
   3;142,145,147;,
   3;146,142,147;,
   3;148,87,144;,
   3;87,148,81;,
   3;144,146,149;,
   3;144,149,148;,
   3;146,147,150;,
   3;149,146,150;,
   3;81,148,151;,
   3;81,151,83;,
   3;148,149,152;,
   3;152,151,148;,
   3;153,149,150;,
   3;149,153,152;,
   3;83,151,154;,
   3;151,152,154;,
   3;154,155,83;,
   3;155,156,83;,
   3;155,157,156;,
   3;158,157,155;,
   3;158,155,154;,
   3;159,157,158;,
   3;160,154,152;,
   3;154,160,158;,
   3;152,153,161;,
   3;152,161,160;,
   3;159,158,162;,
   3;162,158,160;,
   3;160,161,163;,
   3;160,163,162;,
   3;164,161,153;,
   3;163,161,164;,
   3;164,153,150;,
   3;163,165,162;,
   3;163,164,165;,
   3;162,166,159;,
   3;166,167,159;,
   3;167,166,168;,
   3;166,162,169;,
   3;162,165,169;,
   3;168,166,170;,
   3;170,166,169;,
   3;170,171,168;,
   3;171,170,172;,
   3;165,173,169;,
   3;174,172,170;,
   3;175,172,174;,
   3;174,176,175;,
   3;176,174,177;,
   3;174,178,177;,
   3;170,169,179;,
   3;179,169,173;,
   3;174,170,180;,
   3;180,170,179;,
   3;178,174,181;,
   3;174,180,181;,
   3;179,181,180;,
   3;182,178,181;,
   3;181,183,182;,
   3;181,179,183;,
   3;182,183,184;,
   3;185,183,179;,
   3;173,185,179;,
   3;186,184,183;,
   3;185,186,183;,
   3;184,186,187;,
   3;185,187,186;,
   3;187,188,184;,
   3;189,185,173;,
   3;189,187,185;,
   3;189,173,165;,
   3;188,187,190;,
   3;189,165,191;,
   3;187,189,191;,
   3;190,187,191;,
   3;191,165,164;,
   3;190,191,192;,
   3;191,164,192;,
   3;192,193,190;,
   3;192,164,194;,
   3;150,194,164;,
   3;194,150,147;,
   3;194,147,145;,
   3;195,193,192;,
   3;193,195,196;,
   3;196,195,197;,
   3;194,198,192;,
   3;192,198,195;,
   3;145,199,194;,
   3;199,145,138;,
   3;200,198,194;,
   3;200,194,199;,
   3;138,201,199;,
   3;135,201,138;,
   3;202,200,199;,
   3;202,199,201;,
   3;135,203,201;,
   3;132,203,135;,
   3;132,130,203;,
   3;204,201,203;,
   3;202,201,204;,
   3;130,205,203;,
   3;204,203,205;,
   3;131,205,130;,
   3;131,204,205;,
   3;206,204,131;,
   3;204,206,202;,
   3;131,207,206;,
   3;202,206,207;,
   3;202,207,208;,
   3;208,209,202;,
   3;202,209,210;,
   3;210,200,202;,
   3;209,208,211;,
   3;210,212,200;,
   3;212,210,209;,
   3;213,211,208;,
   3;214,213,208;,
   3;209,211,215;,
   3;209,215,212;,
   3;213,216,211;,
   3;211,216,215;,
   3;217,216,213;,
   3;214,217,213;,
   3;216,217,215;,
   3;218,214,219;,
   3;218,217,214;,
   3;220,215,217;,
   3;220,217,218;,
   3;221,215,220;,
   3;220,218,221;,
   3;221,212,215;,
   3;222,221,218;,
   3;223,212,221;,
   3;222,223,221;,
   3;212,223,224;,
   3;212,224,200;,
   3;200,224,198;,
   3;222,225,223;,
   3;225,224,223;,
   3;222,197,225;,
   3;226,198,224;,
   3;224,225,226;,
   3;198,226,195;,
   3;225,197,227;,
   3;195,227,197;,
   3;227,226,225;,
   3;227,195,226;,
   3;228,229,230;,
   3;228,230,231;,
   3;230,232,231;,
   3;233,231,232;,
   3;228,231,234;,
   3;234,235,228;,
   3;236,231,233;,
   3;237,235,234;,
   3;235,237,238;,
   3;231,239,234;,
   3;236,239,231;,
   3;240,237,234;,
   3;239,240,234;,
   3;236,233,241;,
   3;241,233,242;,
   3;239,236,243;,
   3;241,243,236;,
   3;243,244,239;,
   3;240,239,244;,
   3;245,241,242;,
   3;242,246,245;,
   3;245,246,247;,
   3;248,243,241;,
   3;248,241,245;,
   3;249,244,243;,
   3;248,249,243;,
   3;244,249,250;,
   3;250,240,244;,
   3;251,249,248;,
   3;251,250,249;,
   3;252,248,245;,
   3;248,253,251;,
   3;252,253,248;,
   3;254,245,247;,
   3;254,252,245;,
   3;255,254,247;,
   3;254,255,256;,
   3;253,252,257;,
   3;254,256,258;,
   3;256,259,258;,
   3;259,260,258;,
   3;254,261,252;,
   3;252,261,257;,
   3;262,254,258;,
   3;254,262,261;,
   3;258,260,263;,
   3;263,260,264;,
   3;261,265,257;,
   3;264,266,263;,
   3;265,261,267;,
   3;262,267,261;,
   3;268,266,264;,
   3;264,269,268;,
   3;270,263,266;,
   3;270,266,268;,
   3;270,258,263;,
   3;271,268,269;,
   3;270,268,271;,
   3;269,272,271;,
   3;271,272,273;,
   3;258,270,274;,
   3;258,274,262;,
   3;275,270,271;,
   3;273,276,271;,
   3;275,271,276;,
   3;273,277,276;,
   3;273,278,277;,
   3;275,279,270;,
   3;270,279,274;,
   3;280,277,278;,
   3;278,281,280;,
   3;280,281,282;,
   3;280,282,283;,
   3;277,280,283;,
   3;283,282,284;,
   3;277,285,276;,
   3;283,285,277;,
   3;285,286,276;,
   3;276,286,275;,
   3;285,283,287;,
   3;285,287,286;,
   3;283,284,288;,
   3;288,284,289;,
   3;290,287,283;,
   3;283,288,290;,
   3;287,290,286;,
   3;286,290,291;,
   3;291,275,286;,
   3;292,290,288;,
   3;291,290,292;,
   3;275,291,293;,
   3;291,292,293;,
   3;293,279,275;,
   3;288,294,292;,
   3;294,288,289;,
   3;292,295,293;,
   3;294,295,292;,
   3;289,296,294;,
   3;296,289,297;,
   3;294,298,295;,
   3;299,296,297;,
   3;294,296,300;,
   3;300,296,299;,
   3;294,300,298;,
   3;301,299,297;,
   3;302,298,300;,
   3;302,300,299;,
   3;299,301,303;,
   3;304,303,301;,
   3;302,299,305;,
   3;303,305,299;,
   3;304,306,303;,
   3;306,304,307;,
   3;308,305,303;,
   3;303,306,308;,
   3;305,309,302;,
   3;308,309,305;,
   3;302,309,310;,
   3;310,309,308;,
   3;298,302,310;,
   3;311,306,307;,
   3;311,307,312;,
   3;311,312,313;,
   3;306,311,314;,
   3;314,311,313;,
   3;308,306,314;,
   3;314,313,315;,
   3;314,315,316;,
   3;315,317,316;,
   3;318,308,314;,
   3;318,314,316;,
   3;308,318,319;,
   3;308,319,310;,
   3;317,320,316;,
   3;321,320,317;,
   3;317,322,321;,
   3;323,316,320;,
   3;321,323,320;,
   3;316,323,318;,
   3;324,321,322;,
   3;322,325,324;,
   3;326,324,325;,
   3;321,327,323;,
   3;324,327,321;,
   3;323,328,318;,
   3;319,318,328;,
   3;324,326,329;,
   3;330,329,326;,
   3;328,331,319;,
   3;329,330,332;,
   3;333,332,330;,
   3;334,319,331;,
   3;310,319,334;,
   3;335,331,328;,
   3;336,334,331;,
   3;335,336,331;,
   3;334,337,310;,
   3;328,338,335;,
   3;338,328,323;,
   3;339,334,336;,
   3;334,339,337;,
   3;323,340,338;,
   3;340,323,327;,
   3;335,338,341;,
   3;340,342,338;,
   3;338,342,341;,
   3;340,327,343;,
   3;343,342,340;,
   3;344,335,341;,
   3;335,344,336;,
   3;339,336,344;,
   3;342,345,341;,
   3;345,344,341;,
   3;346,345,342;,
   3;342,343,346;,
   3;344,345,347;,
   3;344,348,339;,
   3;347,348,344;,
   3;347,345,349;,
   3;345,346,349;,
   3;347,267,348;,
   3;349,350,347;,
   3;350,267,347;,
   3;348,351,339;,
   3;352,348,267;,
   3;348,352,351;,
   3;352,267,262;,
   3;352,262,274;,
   3;351,352,274;,
   3;267,350,265;,
   3;351,353,339;,
   3;274,353,351;,
   3;339,353,337;,
   3;353,274,354;,
   3;279,354,274;,
   3;279,293,354;,
   3;353,354,355;,
   3;337,353,355;,
   3;355,354,293;,
   3;337,355,356;,
   3;356,310,337;,
   3;356,298,310;,
   3;293,357,355;,
   3;357,356,355;,
   3;358,357,293;,
   3;356,357,358;,
   3;358,298,356;,
   3;293,295,358;,
   3;295,298,358;,
   3;257,265,359;,
   3;253,257,359;,
   3;265,350,359;,
   3;253,359,251;,
   3;251,359,360;,
   3;250,251,360;,
   3;361,359,350;,
   3;359,361,360;,
   3;360,362,250;,
   3;362,240,250;,
   3;363,360,361;,
   3;362,360,363;,
   3;350,364,361;,
   3;350,349,364;,
   3;365,361,364;,
   3;361,365,363;,
   3;366,364,349;,
   3;364,366,365;,
   3;349,367,366;,
   3;349,346,367;,
   3;366,368,365;,
   3;368,366,367;,
   3;369,367,346;,
   3;367,369,368;,
   3;346,370,369;,
   3;346,343,370;,
   3;369,371,368;,
   3;343,372,370;,
   3;369,370,373;,
   3;370,372,373;,
   3;369,373,371;,
   3;374,372,343;,
   3;327,374,343;,
   3;324,374,327;,
   3;375,372,374;,
   3;373,372,375;,
   3;376,374,324;,
   3;375,374,376;,
   3;324,329,376;,
   3;377,373,375;,
   3;376,329,378;,
   3;332,378,329;,
   3;379,375,376;,
   3;379,376,378;,
   3;375,379,377;,
   3;378,332,380;,
   3;380,332,333;,
   3;380,381,378;,
   3;378,381,379;,
   3;382,381,380;,
   3;382,379,381;,
   3;382,380,333;,
   3;383,377,379;,
   3;379,382,383;,
   3;373,377,384;,
   3;383,384,377;,
   3;384,371,373;,
   3;382,333,385;,
   3;333,386,385;,
   3;386,387,385;,
   3;382,385,388;,
   3;388,383,382;,
   3;387,389,385;,
   3;389,388,385;,
   3;390,389,387;,
   3;391,389,390;,
   3;388,389,392;,
   3;391,392,389;,
   3;392,393,388;,
   3;393,392,391;,
   3;383,388,393;,
   3;391,394,393;,
   3;383,393,395;,
   3;395,384,383;,
   3;396,393,394;,
   3;397,396,394;,
   3;393,396,398;,
   3;397,398,396;,
   3;398,395,393;,
   3;384,395,399;,
   3;398,399,395;,
   3;399,371,384;,
   3;368,371,399;,
   3;398,397,400;,
   3;400,397,401;,
   3;402,400,401;,
   3;399,398,403;,
   3;398,400,403;,
   3;400,402,404;,
   3;400,404,403;,
   3;404,402,405;,
   3;404,405,406;,
   3;403,407,399;,
   3;399,407,368;,
   3;404,406,408;,
   3;406,409,408;,
   3;410,403,404;,
   3;404,408,410;,
   3;411,407,403;,
   3;403,410,411;,
   3;412,368,407;,
   3;407,411,412;,
   3;365,368,412;,
   3;365,412,363;,
   3;413,411,410;,
   3;410,408,413;,
   3;414,412,411;,
   3;411,413,414;,
   3;363,412,414;,
   3;413,408,415;,
   3;415,414,413;,
   3;408,409,415;,
   3;363,414,416;,
   3;363,416,362;,
   3;415,409,417;,
   3;418,417,409;,
   3;362,416,419;,
   3;414,419,416;,
   3;362,419,240;,
   3;240,419,237;,
   3;420,419,414;,
   3;237,419,420;,
   3;420,414,415;,
   3;238,237,420;,
   3;421,420,415;,
   3;421,238,420;,
   3;421,415,417;,
   3;418,238,421;,
   3;418,421,417;;
  }

  MeshMaterialList {
   1;
   686;
   0,
   0,
   0,
   0,
   0,
   0,
   0,
   0,
   0,
   0,
   0,
   0,
   0,
   0,
   0,
   0,
   0,
   0,
   0,
   0,
   0,
   0,
   0,
   0,
   0,
   0,
   0,
   0,
   0,
   0,
   0,
   0,
   0,
   0,
   0,
   0,
   0,
   0,
   0,
   0,
   0,
   0,
   0,
   0,
   0,
   0,
   0,
   0,
   0,
   0,
   0,
   0,
   0,
   0,
   0,
   0,
   0,
   0,
   0,
   0,
   0,
   0,
   0,
   0,
   0,
   0,
   0,
   0,
   0,
   0,
   0,
   0,
   0,
   0,
   0,
   0,
   0,
   0,
   0,
   0,
   0,
   0,
   0,
   0,
   0,
   0,
   0,
   0,
   0,
   0,
   0,
   0,
   0,
   0,
   0,
   0,
   0,
   0,
   0,
   0,
   0,
   0,
   0,
   0,
   0,
   0,
   0,
   0,
   0,
   0,
   0,
   0,
   0,
   0,
   0,
   0,
   0,
   0,
   0,
   0,
   0,
   0,
   0,
   0,
   0,
   0,
   0,
   0,
   0,
   0,
   0,
   0,
   0,
   0,
   0,
   0,
   0,
   0,
   0,
   0,
   0,
   0,
   0,
   0,
   0,
   0,
   0,
   0,
   0,
   0,
   0,
   0,
   0,
   0,
   0,
   0,
   0,
   0,
   0,
   0,
   0,
   0,
   0,
   0,
   0,
   0,
   0,
   0,
   0,
   0,
   0,
   0,
   0,
   0,
   0,
   0,
   0,
   0,
   0,
   0,
   0,
   0,
   0,
   0,
   0,
   0,
   0,
   0,
   0,
   0,
   0,
   0,
   0,
   0,
   0,
   0,
   0,
   0,
   0,
   0,
   0,
   0,
   0,
   0,
   0,
   0,
   0,
   0,
   0,
   0,
   0,
   0,
   0,
   0,
   0,
   0,
   0,
   0,
   0,
   0,
   0,
   0,
   0,
   0,
   0,
   0,
   0,
   0,
   0,
   0,
   0,
   0,
   0,
   0,
   0,
   0,
   0,
   0,
   0,
   0,
   0,
   0,
   0,
   0,
   0,
   0,
   0,
   0,
   0,
   0,
   0,
   0,
   0,
   0,
   0,
   0,
   0,
   0,
   0,
   0,
   0,
   0,
   0,
   0,
   0,
   0,
   0,
   0,
   0,
   0,
   0,
   0,
   0,
   0,
   0,
   0,
   0,
   0,
   0,
   0,
   0,
   0,
   0,
   0,
   0,
   0,
   0,
   0,
   0,
   0,
   0,
   0,
   0,
   0,
   0,
   0,
   0,
   0,
   0,
   0,
   0,
   0,
   0,
   0,
   0,
   0,
   0,
   0,
   0,
   0,
   0,
   0,
   0,
   0,
   0,
   0,
   0,
   0,
   0,
   0,
   0,
   0,
   0,
   0,
   0,
   0,
   0,
   0,
   0,
   0,
   0,
   0,
   0,
   0,
   0,
   0,
   0,
   0,
   0,
   0,
   0,
   0,
   0,
   0,
   0,
   0,
   0,
   0,
   0,
   0,
   0,
   0,
   0,
   0,
   0,
   0,
   0,
   0,
   0,
   0,
   0,
   0,
   0,
   0,
   0,
   0,
   0,
   0,
   0,
   0,
   0,
   0,
   0,
   0,
   0,
   0,
   0,
   0,
   0,
   0,
   0,
   0,
   0,
   0,
   0,
   0,
   0,
   0,
   0,
   0,
   0,
   0,
   0,
   0,
   0,
   0,
   0,
   0,
   0,
   0,
   0,
   0,
   0,
   0,
   0,
   0,
   0,
   0,
   0,
   0,
   0,
   0,
   0,
   0,
   0,
   0,
   0,
   0,
   0,
   0,
   0,
   0,
   0,
   0,
   0,
   0,
   0,
   0,
   0,
   0,
   0,
   0,
   0,
   0,
   0,
   0,
   0,
   0,
   0,
   0,
   0,
   0,
   0,
   0,
   0,
   0,
   0,
   0,
   0,
   0,
   0,
   0,
   0,
   0,
   0,
   0,
   0,
   0,
   0,
   0,
   0,
   0,
   0,
   0,
   0,
   0,
   0,
   0,
   0,
   0,
   0,
   0,
   0,
   0,
   0,
   0,
   0,
   0,
   0,
   0,
   0,
   0,
   0,
   0,
   0,
   0,
   0,
   0,
   0,
   0,
   0,
   0,
   0,
   0,
   0,
   0,
   0,
   0,
   0,
   0,
   0,
   0,
   0,
   0,
   0,
   0,
   0,
   0,
   0,
   0,
   0,
   0,
   0,
   0,
   0,
   0,
   0,
   0,
   0,
   0,
   0,
   0,
   0,
   0,
   0,
   0,
   0,
   0,
   0,
   0,
   0,
   0,
   0,
   0,
   0,
   0,
   0,
   0,
   0,
   0,
   0,
   0,
   0,
   0,
   0,
   0,
   0,
   0,
   0,
   0,
   0,
   0,
   0,
   0,
   0,
   0,
   0,
   0,
   0,
   0,
   0,
   0,
   0,
   0,
   0,
   0,
   0,
   0,
   0,
   0,
   0,
   0,
   0,
   0,
   0,
   0,
   0,
   0,
   0,
   0,
   0,
   0,
   0,
   0,
   0,
   0,
   0,
   0,
   0,
   0,
   0,
   0,
   0,
   0,
   0,
   0,
   0,
   0,
   0,
   0,
   0,
   0,
   0,
   0,
   0,
   0,
   0,
   0,
   0,
   0,
   0,
   0,
   0,
   0,
   0,
   0,
   0,
   0,
   0,
   0,
   0,
   0,
   0,
   0,
   0,
   0,
   0,
   0,
   0,
   0,
   0,
   0,
   0,
   0,
   0,
   0,
   0,
   0,
   0,
   0,
   0,
   0,
   0,
   0,
   0,
   0,
   0,
   0,
   0,
   0,
   0,
   0,
   0,
   0,
   0,
   0,
   0,
   0,
   0,
   0,
   0,
   0,
   0,
   0,
   0,
   0,
   0,
   0,
   0,
   0,
   0,
   0,
   0,
   0,
   0,
   0,
   0,
   0,
   0,
   0,
   0,
   0,
   0,
   0,
   0,
   0;
   { MI_rockS_2 }
  }

  MeshTextureCoords c1 {
   422;
   0.376221;0.867188;,
   0.402344;0.881836;,
   0.396240;0.907715;,
   0.366699;0.932129;,
   0.332764;0.948731;,
   0.365479;0.836426;,
   0.345947;0.809570;,
   0.321045;0.793457;,
   0.292480;0.768555;,
   0.313477;0.968262;,
   0.261719;0.751953;,
   0.212891;0.765137;,
   0.281250;0.992188;,
   0.191284;0.780273;,
   0.243652;0.993652;,
   0.161621;0.804199;,
   0.204590;0.991211;,
   0.168579;0.983887;,
   0.131592;0.827148;,
   0.139771;0.961426;,
   0.108643;0.853516;,
   0.099182;0.899902;,
   0.109924;0.935059;,
   0.826172;0.738281;,
   0.868164;0.760742;,
   0.868164;0.793945;,
   0.863770;0.833496;,
   0.778320;0.958496;,
   0.860840;0.884766;,
   0.855957;0.913574;,
   0.792480;0.724121;,
   0.724609;0.962891;,
   0.742188;0.750000;,
   0.757813;0.721680;,
   0.666016;0.958984;,
   0.726074;0.717285;,
   0.608398;0.918457;,
   0.620605;0.970703;,
   0.588379;0.974121;,
   0.570313;0.958496;,
   0.698242;0.760254;,
   0.691406;0.708496;,
   0.649902;0.708496;,
   0.550293;0.901367;,
   0.505859;0.964844;,
   0.470947;0.936035;,
   0.446533;0.908203;,
   0.636230;0.741699;,
   0.630859;0.705566;,
   0.591797;0.703613;,
   0.547363;0.716797;,
   0.645508;0.792480;,
   0.579102;0.826172;,
   0.596191;0.866699;,
   0.512207;0.819824;,
   0.493897;0.746094;,
   0.507813;0.724609;,
   0.473145;0.720703;,
   0.478027;0.831055;,
   0.458496;0.747559;,
   0.446289;0.730469;,
   0.462647;0.776367;,
   0.431885;0.750977;,
   0.399658;0.721680;,
   0.396240;0.777344;,
   0.375488;0.772949;,
   0.429932;0.818359;,
   0.379883;0.804199;,
   0.366211;0.800293;,
   0.395020;0.838379;,
   0.441895;0.865234;,
   0.416992;0.872070;,
   0.062805;0.334961;,
   0.030823;0.383057;,
   0.027069;0.348877;,
   0.096191;0.360596;,
   0.109070;0.305176;,
   0.114746;0.381592;,
   0.031250;0.421387;,
   0.166138;0.321533;,
   0.170410;0.286133;,
   0.093201;0.452148;,
   0.040070;0.458984;,
   0.047180;0.483887;,
   0.226929;0.294922;,
   0.216187;0.245361;,
   0.227783;0.341309;,
   0.177734;0.429932;,
   0.260254;0.253906;,
   0.313477;0.276611;,
   0.251953;0.233276;,
   0.248535;0.212036;,
   0.284424;0.261963;,
   0.264160;0.213623;,
   0.287354;0.179810;,
   0.271729;0.235596;,
   0.280273;0.204224;,
   0.341797;0.234009;,
   0.313721;0.177612;,
   0.313965;0.135254;,
   0.326660;0.185181;,
   0.324707;0.153687;,
   0.341797;0.128540;,
   0.339844;0.107178;,
   0.385010;0.110840;,
   0.351807;0.166870;,
   0.374512;0.143555;,
   0.400879;0.126343;,
   0.355957;0.182495;,
   0.369629;0.186768;,
   0.405762;0.187256;,
   0.433350;0.155640;,
   0.448486;0.192139;,
   0.470947;0.232178;,
   0.357178;0.233765;,
   0.439209;0.286865;,
   0.483154;0.267822;,
   0.487549;0.314697;,
   0.376709;0.327637;,
   0.264160;0.387939;,
   0.433838;0.366211;,
   0.465820;0.335693;,
   0.500977;0.377197;,
   0.517578;0.375488;,
   0.515137;0.401611;,
   0.480225;0.378906;,
   0.489258;0.414063;,
   0.514160;0.434814;,
   0.453613;0.381348;,
   0.469238;0.395264;,
   0.493897;0.443848;,
   0.515137;0.481445;,
   0.449219;0.423584;,
   0.406494;0.411377;,
   0.387695;0.386230;,
   0.417725;0.447510;,
   0.330322;0.408203;,
   0.349365;0.434082;,
   0.360107;0.463867;,
   0.303711;0.462891;,
   0.291016;0.430176;,
   0.257568;0.452393;,
   0.264160;0.481445;,
   0.233032;0.469971;,
   0.195557;0.489746;,
   0.302490;0.491455;,
   0.233276;0.498047;,
   0.261963;0.525391;,
   0.165283;0.492920;,
   0.205444;0.511719;,
   0.224854;0.542969;,
   0.127686;0.500000;,
   0.135498;0.529297;,
   0.194580;0.566895;,
   0.094971;0.530762;,
   0.056183;0.533203;,
   0.031403;0.535156;,
   0.025528;0.573730;,
   0.067017;0.580078;,
   0.026794;0.615234;,
   0.110718;0.549805;,
   0.160889;0.585449;,
   0.094238;0.629883;,
   0.133667;0.610352;,
   0.200317;0.630859;,
   0.128662;0.653809;,
   0.059174;0.662598;,
   0.029739;0.645508;,
   0.025391;0.677734;,
   0.088806;0.685059;,
   0.054413;0.737793;,
   0.016998;0.708496;,
   0.022415;0.736816;,
   0.129639;0.683594;,
   0.050720;0.777832;,
   0.006100;0.757813;,
   0.031555;0.780762;,
   0.069702;0.808594;,
   0.097107;0.801270;,
   0.079956;0.740234;,
   0.069275;0.762695;,
   0.090942;0.771973;,
   0.125000;0.792480;,
   0.118958;0.763672;,
   0.156128;0.773926;,
   0.144165;0.714844;,
   0.140381;0.752441;,
   0.163452;0.740234;,
   0.166992;0.762207;,
   0.157593;0.701172;,
   0.207886;0.746582;,
   0.191284;0.681641;,
   0.252441;0.666504;,
   0.250244;0.738281;,
   0.274902;0.571289;,
   0.304199;0.703125;,
   0.298096;0.727539;,
   0.345459;0.721191;,
   0.291504;0.661621;,
   0.343994;0.526367;,
   0.363037;0.616699;,
   0.442627;0.497559;,
   0.449951;0.553223;,
   0.468994;0.475830;,
   0.479492;0.500488;,
   0.490479;0.468506;,
   0.492432;0.521973;,
   0.504883;0.538086;,
   0.502441;0.591797;,
   0.452148;0.612305;,
   0.414551;0.620605;,
   0.477539;0.625977;,
   0.412354;0.649414;,
   0.493897;0.650391;,
   0.508789;0.684570;,
   0.463379;0.657227;,
   0.481201;0.649414;,
   0.483643;0.682129;,
   0.469727;0.698730;,
   0.503418;0.710449;,
   0.464355;0.679199;,
   0.420166;0.675781;,
   0.398926;0.703613;,
   0.383301;0.672363;,
   0.350342;0.646973;,
   0.342041;0.675781;,
   0.306396;0.683105;,
   0.325439;0.692871;,
   0.964844;0.107300;,
   0.987305;0.122742;,
   0.982910;0.169678;,
   0.952637;0.213135;,
   0.980469;0.205200;,
   0.980469;0.237427;,
   0.903809;0.182617;,
   0.910645;0.111511;,
   0.944824;0.251709;,
   0.863770;0.170654;,
   0.854981;0.126953;,
   0.907715;0.229126;,
   0.873047;0.221680;,
   0.955566;0.284668;,
   0.983887;0.284424;,
   0.905762;0.270264;,
   0.895020;0.257568;,
   0.958984;0.325439;,
   0.984375;0.322510;,
   0.989258;0.358154;,
   0.917969;0.295654;,
   0.892090;0.270508;,
   0.863770;0.246338;,
   0.871094;0.289795;,
   0.925781;0.331787;,
   0.876465;0.311279;,
   0.956055;0.382813;,
   0.979004;0.388672;,
   0.970703;0.424561;,
   0.878906;0.344727;,
   0.951172;0.484131;,
   0.983398;0.465088;,
   0.978516;0.484131;,
   0.895508;0.389648;,
   0.894531;0.444336;,
   0.953125;0.517090;,
   0.979492;0.523438;,
   0.843262;0.363770;,
   0.963867;0.534180;,
   0.818848;0.420166;,
   0.973633;0.565918;,
   0.989746;0.569824;,
   0.927246;0.536621;,
   0.964356;0.591309;,
   0.993652;0.609863;,
   0.984863;0.643066;,
   0.870606;0.510742;,
   0.901856;0.590332;,
   0.943359;0.620605;,
   0.959473;0.661133;,
   0.985352;0.673828;,
   0.881836;0.571289;,
   0.947754;0.697754;,
   0.979004;0.720703;,
   0.939453;0.721191;,
   0.914551;0.674316;,
   0.888184;0.723145;,
   0.927246;0.646484;,
   0.897949;0.617676;,
   0.909180;0.645508;,
   0.872559;0.671387;,
   0.838379;0.709961;,
   0.879883;0.637695;,
   0.871094;0.613770;,
   0.854981;0.625488;,
   0.855469;0.598633;,
   0.840332;0.655273;,
   0.839844;0.618164;,
   0.825195;0.687988;,
   0.791504;0.704102;,
   0.808105;0.623047;,
   0.776855;0.674316;,
   0.805664;0.652832;,
   0.736328;0.697266;,
   0.770508;0.633789;,
   0.717285;0.652344;,
   0.681152;0.672852;,
   0.736816;0.635254;,
   0.675781;0.642578;,
   0.625977;0.670410;,
   0.701660;0.585938;,
   0.750977;0.617188;,
   0.765625;0.594238;,
   0.638184;0.627930;,
   0.589355;0.658203;,
   0.599121;0.611816;,
   0.654785;0.590332;,
   0.598633;0.575684;,
   0.631348;0.545410;,
   0.587891;0.534668;,
   0.664063;0.532715;,
   0.716797;0.550781;,
   0.610840;0.533203;,
   0.604492;0.491943;,
   0.584473;0.494629;,
   0.626465;0.501953;,
   0.591797;0.448486;,
   0.572754;0.458008;,
   0.559570;0.420898;,
   0.625977;0.452148;,
   0.676758;0.519043;,
   0.569336;0.399658;,
   0.546387;0.383789;,
   0.703125;0.516113;,
   0.551270;0.365967;,
   0.529785;0.341064;,
   0.744141;0.534180;,
   0.685059;0.476563;,
   0.713379;0.485596;,
   0.774414;0.540039;,
   0.663086;0.461914;,
   0.759766;0.499756;,
   0.644531;0.460693;,
   0.693359;0.451172;,
   0.680664;0.424072;,
   0.665527;0.403320;,
   0.713379;0.462647;,
   0.702637;0.426758;,
   0.682617;0.400391;,
   0.752930;0.422607;,
   0.769043;0.451904;,
   0.742676;0.387939;,
   0.804688;0.360840;,
   0.803223;0.489990;,
   0.827637;0.476563;,
   0.793945;0.522949;,
   0.842773;0.563477;,
   0.812500;0.564453;,
   0.787598;0.582031;,
   0.819824;0.588867;,
   0.826172;0.604004;,
   0.834961;0.319092;,
   0.830078;0.270020;,
   0.809082;0.298096;,
   0.833496;0.222046;,
   0.793457;0.240723;,
   0.774902;0.343750;,
   0.757324;0.278320;,
   0.728516;0.324219;,
   0.704590;0.348389;,
   0.687012;0.288086;,
   0.675293;0.345215;,
   0.656250;0.371338;,
   0.627930;0.304199;,
   0.644531;0.380615;,
   0.627441;0.348877;,
   0.616699;0.404053;,
   0.610352;0.365723;,
   0.594238;0.395020;,
   0.604492;0.334473;,
   0.572266;0.381348;,
   0.592285;0.343994;,
   0.553223;0.350586;,
   0.575195;0.356445;,
   0.571777;0.317627;,
   0.587891;0.298584;,
   0.606445;0.306152;,
   0.541016;0.302979;,
   0.516113;0.316895;,
   0.506836;0.282959;,
   0.559082;0.277344;,
   0.518555;0.262207;,
   0.494141;0.248657;,
   0.524414;0.229858;,
   0.537109;0.257568;,
   0.570313;0.251465;,
   0.554688;0.210693;,
   0.593750;0.254883;,
   0.578125;0.211182;,
   0.571777;0.184692;,
   0.589355;0.214844;,
   0.640625;0.263184;,
   0.606934;0.185791;,
   0.598633;0.174316;,
   0.627441;0.164185;,
   0.646484;0.192627;,
   0.652344;0.167236;,
   0.638184;0.155029;,
   0.674316;0.131958;,
   0.666504;0.234741;,
   0.718262;0.145020;,
   0.719727;0.111755;,
   0.708984;0.172974;,
   0.714844;0.197021;,
   0.736816;0.239868;,
   0.748535;0.164307;,
   0.777832;0.181641;,
   0.757813;0.148560;,
   0.814453;0.199951;,
   0.773926;0.124695;,
   0.788574;0.108215;,
   0.816895;0.181763;,
   0.804199;0.161499;,
   0.797363;0.133179;;
  }

  MeshTextureCoords c2 {
   422;
   0.200439;0.705566;,
   0.215332;0.679688;,
   0.240967;0.685547;,
   0.265137;0.714844;,
   0.281738;0.748535;,
   0.169922;0.716309;,
   0.143188;0.735840;,
   0.127075;0.760742;,
   0.102478;0.789063;,
   0.301025;0.768066;,
   0.085938;0.819336;,
   0.098816;0.868164;,
   0.324951;0.800293;,
   0.114197;0.889648;,
   0.326416;0.837402;,
   0.137939;0.918945;,
   0.323730;0.876465;,
   0.316895;0.912109;,
   0.160522;0.949219;,
   0.294434;0.940918;,
   0.186768;0.971680;,
   0.233276;0.981445;,
   0.268066;0.970703;,
   0.949219;0.042114;,
   0.990723;0.064697;,
   0.990723;0.097778;,
   0.986328;0.136963;,
   0.901367;0.261475;,
   0.983398;0.187988;,
   0.978516;0.216919;,
   0.915527;0.028244;,
   0.847656;0.265625;,
   0.865723;0.053833;,
   0.880859;0.025742;,
   0.790039;0.261719;,
   0.849609;0.021423;,
   0.732422;0.221802;,
   0.744629;0.273438;,
   0.712891;0.277100;,
   0.694824;0.261475;,
   0.821777;0.064209;,
   0.814941;0.012436;,
   0.773926;0.012421;,
   0.674805;0.204468;,
   0.630859;0.267578;,
   0.596191;0.239014;,
   0.571777;0.211182;,
   0.760254;0.045380;,
   0.754883;0.009430;,
   0.716309;0.007813;,
   0.671875;0.020828;,
   0.769531;0.096191;,
   0.703613;0.129639;,
   0.720215;0.169922;,
   0.637207;0.123413;,
   0.618652;0.049744;,
   0.632813;0.028473;,
   0.598145;0.024887;,
   0.603027;0.134766;,
   0.583496;0.051300;,
   0.571289;0.034424;,
   0.587891;0.080200;,
   0.557129;0.054840;,
   0.524902;0.025833;,
   0.521973;0.081238;,
   0.500977;0.076538;,
   0.555176;0.121765;,
   0.505371;0.107544;,
   0.492188;0.104065;,
   0.520508;0.141602;,
   0.567383;0.168457;,
   0.542480;0.175537;,
   0.064148;0.234741;,
   0.032349;0.282471;,
   0.028641;0.248535;,
   0.097290;0.260254;,
   0.110107;0.205200;,
   0.115723;0.281250;,
   0.032806;0.320801;,
   0.166870;0.221313;,
   0.171021;0.186035;,
   0.094360;0.351318;,
   0.041534;0.358154;,
   0.048615;0.383057;,
   0.227173;0.194946;,
   0.216553;0.145386;,
   0.228027;0.241089;,
   0.178345;0.329102;,
   0.260254;0.154053;,
   0.313232;0.176636;,
   0.251953;0.133423;,
   0.248535;0.112244;,
   0.284180;0.162109;,
   0.264160;0.113892;,
   0.287354;0.080200;,
   0.271729;0.135620;,
   0.280273;0.104492;,
   0.341309;0.134033;,
   0.313232;0.077942;,
   0.313721;0.035736;,
   0.326416;0.085510;,
   0.324219;0.054199;,
   0.341064;0.029175;,
   0.339355;0.007813;,
   0.384033;0.011497;,
   0.351074;0.067322;,
   0.373779;0.044128;,
   0.400146;0.026947;,
   0.355225;0.082886;,
   0.368896;0.087036;,
   0.404785;0.087524;,
   0.432129;0.056061;,
   0.447266;0.092468;,
   0.469482;0.132324;,
   0.356445;0.133789;,
   0.437988;0.186768;,
   0.481689;0.167725;,
   0.486084;0.214478;,
   0.375977;0.227417;,
   0.264160;0.287354;,
   0.432617;0.265625;,
   0.464355;0.235474;,
   0.499512;0.276611;,
   0.516113;0.275146;,
   0.513672;0.301025;,
   0.478760;0.278320;,
   0.487793;0.313232;,
   0.512695;0.333984;,
   0.452148;0.280762;,
   0.467773;0.294678;,
   0.492188;0.343018;,
   0.513672;0.380615;,
   0.447998;0.322754;,
   0.405518;0.310547;,
   0.386719;0.285645;,
   0.416748;0.346680;,
   0.329834;0.307617;,
   0.348877;0.333252;,
   0.359619;0.363037;,
   0.303467;0.362061;,
   0.290771;0.329590;,
   0.257813;0.351563;,
   0.264160;0.380371;,
   0.233276;0.369141;,
   0.196045;0.388672;,
   0.302246;0.390381;,
   0.233521;0.396973;,
   0.261963;0.424316;,
   0.165894;0.391846;,
   0.205811;0.410889;,
   0.225098;0.441895;,
   0.128540;0.399170;,
   0.136353;0.427979;,
   0.195068;0.465820;,
   0.096069;0.429688;,
   0.057556;0.432373;,
   0.032928;0.434082;,
   0.027115;0.472412;,
   0.068298;0.479004;,
   0.028366;0.513672;,
   0.111755;0.448486;,
   0.161621;0.484131;,
   0.095398;0.528320;,
   0.134521;0.508789;,
   0.200806;0.529297;,
   0.129517;0.552246;,
   0.060516;0.560547;,
   0.031281;0.543945;,
   0.026962;0.576172;,
   0.089966;0.583008;,
   0.055786;0.635742;,
   0.018631;0.606934;,
   0.024017;0.634766;,
   0.130493;0.581543;,
   0.052155;0.675781;,
   0.007813;0.655762;,
   0.033081;0.678711;,
   0.070984;0.706055;,
   0.098206;0.699219;,
   0.081177;0.638184;,
   0.070618;0.660156;,
   0.092102;0.669434;,
   0.125977;0.690430;,
   0.119934;0.661621;,
   0.156860;0.671875;,
   0.144897;0.612793;,
   0.141235;0.649902;,
   0.164185;0.638184;,
   0.167603;0.660156;,
   0.158325;0.599121;,
   0.208252;0.644531;,
   0.191772;0.579590;,
   0.252441;0.564941;,
   0.250244;0.636230;,
   0.274902;0.470215;,
   0.303711;0.601563;,
   0.297852;0.625488;,
   0.344971;0.619141;,
   0.291260;0.560059;,
   0.343506;0.425293;,
   0.362305;0.515137;,
   0.441650;0.396484;,
   0.448730;0.452148;,
   0.467529;0.375000;,
   0.478027;0.399414;,
   0.489014;0.367676;,
   0.490967;0.420898;,
   0.503418;0.437256;,
   0.500977;0.490723;,
   0.450684;0.510742;,
   0.413574;0.519043;,
   0.476074;0.524414;,
   0.411377;0.547852;,
   0.492432;0.548828;,
   0.507324;0.583008;,
   0.462158;0.555664;,
   0.479736;0.547852;,
   0.482178;0.580566;,
   0.468262;0.597168;,
   0.501953;0.608398;,
   0.463135;0.577148;,
   0.419189;0.573730;,
   0.397949;0.602051;,
   0.382324;0.570313;,
   0.349609;0.545410;,
   0.341553;0.573730;,
   0.306152;0.581055;,
   0.324951;0.590820;,
   0.930176;0.946289;,
   0.952148;0.931152;,
   0.947754;0.884766;,
   0.917481;0.841797;,
   0.945313;0.849609;,
   0.945313;0.817383;,
   0.869141;0.871582;,
   0.875977;0.942383;,
   0.910156;0.803223;,
   0.829102;0.883789;,
   0.820313;0.927246;,
   0.873047;0.825684;,
   0.838379;0.833008;,
   0.920898;0.770508;,
   0.948731;0.770996;,
   0.871094;0.784668;,
   0.860352;0.797363;,
   0.924316;0.730469;,
   0.949707;0.733398;,
   0.954590;0.697754;,
   0.883301;0.759766;,
   0.857422;0.784668;,
   0.829102;0.808594;,
   0.836426;0.765625;,
   0.891113;0.724121;,
   0.841797;0.744141;,
   0.920898;0.673340;,
   0.944336;0.667480;,
   0.936035;0.631836;,
   0.844238;0.710938;,
   0.916016;0.572754;,
   0.948731;0.591797;,
   0.943359;0.573242;,
   0.860840;0.666504;,
   0.859863;0.612305;,
   0.918457;0.540039;,
   0.944824;0.533691;,
   0.808594;0.692383;,
   0.929199;0.523438;,
   0.784668;0.636230;,
   0.938965;0.491699;,
   0.954590;0.488037;,
   0.892578;0.520996;,
   0.929688;0.466797;,
   0.958496;0.448242;,
   0.950195;0.415283;,
   0.836426;0.546387;,
   0.867188;0.467529;,
   0.908691;0.437500;,
   0.924805;0.397217;,
   0.950195;0.384766;,
   0.847168;0.486328;,
   0.913086;0.361084;,
   0.944336;0.338135;,
   0.904785;0.337646;,
   0.879883;0.384521;,
   0.854004;0.335938;,
   0.892090;0.412109;,
   0.863281;0.440430;,
   0.874512;0.412842;,
   0.837891;0.387207;,
   0.804199;0.349121;,
   0.845215;0.420898;,
   0.836426;0.444580;,
   0.820313;0.432861;,
   0.820801;0.459229;,
   0.805664;0.403076;,
   0.805176;0.439941;,
   0.791016;0.370850;,
   0.756836;0.354736;,
   0.773926;0.435059;,
   0.742676;0.384521;,
   0.770996;0.405762;,
   0.702148;0.361328;,
   0.736328;0.424805;,
   0.683105;0.406006;,
   0.647461;0.385742;,
   0.702637;0.422852;,
   0.642090;0.415771;,
   0.592285;0.388184;,
   0.667480;0.472168;,
   0.716797;0.440918;,
   0.731445;0.463623;,
   0.604492;0.430420;,
   0.556152;0.400146;,
   0.565430;0.446533;,
   0.621094;0.467529;,
   0.564941;0.482178;,
   0.597656;0.511719;,
   0.554199;0.522949;,
   0.629883;0.524902;,
   0.682617;0.506836;,
   0.577637;0.524414;,
   0.570801;0.565430;,
   0.550781;0.562500;,
   0.592773;0.555176;,
   0.558105;0.608398;,
   0.539551;0.598633;,
   0.526367;0.635742;,
   0.592285;0.604492;,
   0.643066;0.538086;,
   0.536133;0.656738;,
   0.512695;0.672363;,
   0.669434;0.541016;,
   0.517578;0.689941;,
   0.496582;0.714844;,
   0.709961;0.522949;,
   0.650879;0.580566;,
   0.679199;0.571289;,
   0.740234;0.517090;,
   0.628906;0.594727;,
   0.725586;0.557617;,
   0.610840;0.596191;,
   0.659668;0.605469;,
   0.646484;0.632324;,
   0.631836;0.653320;,
   0.679199;0.594238;,
   0.668457;0.629883;,
   0.648926;0.655762;,
   0.718750;0.633789;,
   0.734863;0.604980;,
   0.708496;0.668457;,
   0.770508;0.695313;,
   0.769043;0.566895;,
   0.793457;0.580566;,
   0.759766;0.534180;,
   0.808594;0.494141;,
   0.778320;0.493408;,
   0.753418;0.476074;,
   0.785645;0.469238;,
   0.791992;0.454102;,
   0.800781;0.736328;,
   0.795898;0.785156;,
   0.774902;0.757324;,
   0.799316;0.832520;,
   0.759277;0.813965;,
   0.740723;0.711914;,
   0.723145;0.776855;,
   0.694824;0.731445;,
   0.670410;0.707520;,
   0.652832;0.767090;,
   0.641602;0.710449;,
   0.622070;0.684570;,
   0.594238;0.750977;,
   0.610840;0.675293;,
   0.593750;0.707031;,
   0.583008;0.652344;,
   0.576660;0.690430;,
   0.560547;0.661133;,
   0.571289;0.721191;,
   0.539063;0.674805;,
   0.558594;0.711914;,
   0.520020;0.705078;,
   0.541504;0.699707;,
   0.538086;0.737793;,
   0.554199;0.756836;,
   0.573242;0.749512;,
   0.507813;0.752441;,
   0.482666;0.738770;,
   0.473633;0.772461;,
   0.525391;0.777832;,
   0.485352;0.792969;,
   0.460938;0.806152;,
   0.490967;0.825195;,
   0.503906;0.797363;,
   0.536621;0.803711;,
   0.520996;0.844238;,
   0.560547;0.800293;,
   0.544922;0.843750;,
   0.538574;0.869629;,
   0.555664;0.839844;,
   0.606934;0.791992;,
   0.573242;0.868652;,
   0.564941;0.879883;,
   0.593750;0.890137;,
   0.612793;0.861816;,
   0.618652;0.887207;,
   0.604492;0.899414;,
   0.640625;0.921875;,
   0.632813;0.820313;,
   0.684570;0.909180;,
   0.685547;0.941895;,
   0.675293;0.881348;,
   0.680664;0.857422;,
   0.703125;0.814941;,
   0.714355;0.890137;,
   0.743652;0.873047;,
   0.723633;0.905762;,
   0.780273;0.854492;,
   0.739746;0.929199;,
   0.754395;0.945801;,
   0.782227;0.872559;,
   0.770020;0.892578;,
   0.762695;0.920898;;
  }
 }
}