xof 0303txt 0032
template ColorRGBA {
 <35ff44e0-6c7c-11cf-8f52-0040333594a3>
 FLOAT red;
 FLOAT green;
 FLOAT blue;
 FLOAT alpha;
}

template ColorRGB {
 <d3e16e81-7835-11cf-8f52-0040333594a3>
 FLOAT red;
 FLOAT green;
 FLOAT blue;
}

template Material {
 <3d82ab4d-62da-11cf-ab39-0020af71e433>
 ColorRGBA faceColor;
 FLOAT power;
 ColorRGB specularColor;
 ColorRGB emissiveColor;
 [...]
}

template TextureFilename {
 <a42790e1-7810-11cf-8f52-0040333594a3>
 STRING filename;
}

template Frame {
 <3d82ab46-62da-11cf-ab39-0020af71e433>
 [...]
}

template Matrix4x4 {
 <f6f23f45-7686-11cf-8f52-0040333594a3>
 array FLOAT matrix[16];
}

template FrameTransformMatrix {
 <f6f23f41-7686-11cf-8f52-0040333594a3>
 Matrix4x4 frameMatrix;
}

template Vector {
 <3d82ab5e-62da-11cf-ab39-0020af71e433>
 FLOAT x;
 FLOAT y;
 FLOAT z;
}

template MeshFace {
 <3d82ab5f-62da-11cf-ab39-0020af71e433>
 DWORD nFaceVertexIndices;
 array DWORD faceVertexIndices[nFaceVertexIndices];
}

template Mesh {
 <3d82ab44-62da-11cf-ab39-0020af71e433>
 DWORD nVertices;
 array Vector vertices[nVertices];
 DWORD nFaces;
 array MeshFace faces[nFaces];
 [...]
}

template MeshNormals {
 <f6f23f43-7686-11cf-8f52-0040333594a3>
 DWORD nNormals;
 array Vector normals[nNormals];
 DWORD nFaceNormals;
 array MeshFace faceNormals[nFaceNormals];
}

template MeshMaterialList {
 <f6f23f42-7686-11cf-8f52-0040333594a3>
 DWORD nMaterials;
 DWORD nFaceIndexes;
 array DWORD faceIndexes[nFaceIndexes];
 [Material <3d82ab4d-62da-11cf-ab39-0020af71e433>]
}

template Coords2d {
 <f6f23f44-7686-11cf-8f52-0040333594a3>
 FLOAT u;
 FLOAT v;
}

template MeshTextureCoords {
 <f6f23f40-7686-11cf-8f52-0040333594a3>
 DWORD nTextureCoords;
 array Coords2d textureCoords[nTextureCoords];
}


Material MI_Plants_LF {
 1.000000;1.000000;1.000000;1.000000;;
 10.000000;
 0.000000;0.000000;0.000000;;
 0.000000;0.000000;0.000000;;

 TextureFilename {
  "T_PlantAtlas01_D.tga";
 }
}

Frame SM_LF_Grass06 {
 

 FrameTransformMatrix {
  1.000000,0.000000,0.000000,0.000000,0.000000,1.000000,0.000000,0.000000,0.000000,0.000000,1.000000,0.000000,0.000000,0.000000,0.000000,1.000000;;
 }

 Mesh SM_LF_Grass06 {
  240;
  23.777272;10.011846;31.089370;,
  25.710803;-0.243153;39.175050;,
  21.541981;9.968197;31.833373;,
  21.541981;9.968197;31.833373;,
  25.710803;-0.243153;39.175050;,
  19.492909;9.162838;32.055251;,
  -6.669750;0.356442;-5.356445;,
  -7.263134;0.635727;-3.915466;,
  -12.505382;6.905003;-7.000977;,
  -11.953074;6.782532;-8.771286;,
  -6.554454;-0.263340;-6.698547;,
  -11.812450;6.087294;-10.341919;,
  -2.991100;-1.159119;-5.684082;,
  4.382557;11.547512;-11.967713;,
  2.948842;11.375338;-13.513046;,
  -4.727001;-0.661813;-6.772766;,
  1.351307;12.032036;-14.482528;,
  -6.437084;0.300519;-7.003769;,
  -5.380504;-0.828766;4.899734;,
  -4.095470;-0.139257;4.629105;,
  -8.005015;6.850689;13.296326;,
  -6.463573;7.527968;12.896850;,
  -2.553905;0.195395;4.761658;,
  -4.590404;7.635856;12.805588;,
  -5.546703;9.351627;23.756699;,
  -8.005015;6.850689;13.296326;,
  -3.757824;10.396717;23.737731;,
  -1.593700;10.752718;23.792664;,
  -5.123790;9.774595;35.432448;,
  -7.319347;9.409267;34.669312;,
  -10.811961;13.302334;44.969603;,
  -9.138622;8.260954;34.159242;,
  -10.811961;13.302334;44.969603;,
  -20.082165;7.676332;-11.937805;,
  -11.812450;6.087294;-10.341919;,
  -11.953074;6.782532;-8.771286;,
  -20.622570;8.674841;-10.273071;,
  -12.505382;6.905003;-7.000977;,
  -21.133800;8.932928;-8.245789;,
  -26.814160;3.464477;-14.097306;,
  -28.169811;4.299050;-12.536377;,
  -34.834730;1.947875;-18.171570;,
  -21.133800;8.932928;-8.245789;,
  -29.458384;4.366709;-10.498230;,
  -34.834730;1.947875;-18.171570;,
  21.541981;9.968197;31.833373;,
  19.492909;9.162838;32.055251;,
  16.361378;11.350586;20.059693;,
  18.044056;12.105346;19.250778;,
  23.777272;10.011846;31.089370;,
  20.006214;12.086796;18.482605;,
  11.456044;5.309963;10.471497;,
  1.298207;-0.120964;4.916016;,
  1.970448;-0.090452;3.594360;,
  12.601430;5.530202;9.125046;,
  20.006214;12.086796;18.482605;,
  2.865834;-0.598796;2.391968;,
  14.046742;5.146472;7.941284;,
  -5.167614;-0.850284;-7.173569;,
  -3.804698;0.222013;-5.974182;,
  -0.247447;7.111946;-16.444154;,
  -0.915599;5.633773;-17.800232;,
  -6.929698;-1.099624;-8.031814;,
  7.216358;12.894337;-25.204040;,
  -2.226512;4.898404;-19.110474;,
  7.321217;11.173256;-26.426208;,
  6.757924;10.081144;-27.987245;,
  17.074085;15.420674;-33.490845;,
  17.353749;17.184016;-32.480042;,
  28.586291;14.783539;-38.938966;,
  17.140186;19.383371;-32.207459;,
  28.586291;14.783539;-38.938966;,
  -1.154857;-0.884851;-4.222092;,
  -0.035533;-2.668776;-4.332580;,
  13.591786;6.116858;-5.058472;,
  12.652578;7.871767;-5.787170;,
  -1.986156;0.605564;-3.226944;,
  27.288502;13.649494;-0.193726;,
  11.659535;9.560408;-5.528198;,
  26.770008;15.145722;-1.593384;,
  42.217395;20.719418;-2.975220;,
  26.049610;16.925832;-2.061218;,
  42.217395;20.719418;-2.975220;,
  1.154591;18.081933;5.959671;,
  -0.639537;19.116629;13.942245;,
  0.069569;16.128066;6.388870;,
  -1.810619;13.938976;-0.147766;,
  3.040272;19.638382;5.642716;,
  -0.639537;19.116629;13.942245;,
  -0.960887;15.237786;-1.455627;,
  -2.416942;7.916312;-4.052322;,
  0.578785;16.144086;-2.598938;,
  -1.679454;8.216955;-5.661621;,
  -0.336620;8.310358;-7.009216;,
  -4.201427;0.407563;-5.702392;,
  -4.714122;0.564993;-4.319748;,
  -3.166210;0.080386;-6.854660;,
  -24.871410;5.415766;-4.246231;,
  -33.672925;4.162278;-0.503601;,
  -25.490062;5.964377;-6.310364;,
  -16.283581;8.541807;-6.751098;,
  -24.222667;4.010063;-2.471252;,
  -33.672925;4.162278;-0.503601;,
  -16.555493;7.859714;-4.839478;,
  -16.785046;6.411648;-3.168091;,
  -10.026866;4.784366;-0.731430;,
  -8.711802;5.574447;-1.902527;,
  -7.660228;5.753265;-3.320251;,
  -6.013683;-0.714000;3.690918;,
  -3.602611;-0.530925;1.899307;,
  -4.657116;-0.407333;2.934509;,
  -16.646069;45.911344;-13.277786;,
  -25.382030;56.628173;-22.266480;,
  -16.454051;45.176973;-15.258774;,
  -13.384837;30.394781;-9.316406;,
  -25.382030;56.628173;-22.266480;,
  -17.160656;44.220922;-16.887146;,
  -14.046030;29.762093;-11.216126;,
  -15.430309;29.069779;-12.453232;,
  -6.239513;15.880002;-6.894287;,
  -9.460277;14.717797;-8.989365;,
  -7.625743;15.254598;-8.376404;,
  -5.488048;-0.198117;-3.804626;,
  -7.367138;-0.443960;-4.728958;,
  -9.342540;-0.470576;-4.707275;,
  28.421680;16.765712;-30.763427;,
  37.265126;6.301348;-40.070800;,
  27.209216;15.241558;-31.784973;,
  14.064320;16.334114;-23.348022;,
  2.948842;11.375338;-13.513046;,
  4.382557;11.547512;-11.967713;,
  37.265126;6.301348;-40.070800;,
  26.041066;14.593987;-33.292723;,
  12.963674;15.527371;-24.978821;,
  1.351307;12.032036;-14.482528;,
  11.735463;15.699096;-26.574035;,
  29.358144;27.413478;-6.367859;,
  42.613027;32.899530;-6.106750;,
  29.176442;27.838576;-8.456406;,
  16.978443;21.443837;-4.254684;,
  42.613027;32.899530;-6.106750;,
  28.707021;29.020867;-9.996292;,
  15.991323;22.249640;-5.960068;,
  14.723867;23.565565;-6.857056;,
  6.517567;11.315519;-4.793152;,
  8.084767;10.111302;-4.632080;,
  9.555898;9.081638;-3.515610;,
  -0.225902;-1.941320;-3.223190;,
  -1.768444;-0.553103;-3.598877;,
  -3.126598;0.759308;-3.019043;,
  -14.152050;21.709312;22.995483;,
  -14.367014;29.410240;32.425338;,
  -14.734813;23.497955;22.041931;,
  -12.191539;17.259464;12.618408;,
  -14.367014;29.410240;32.425338;,
  -16.096325;24.751328;21.348038;,
  -13.457530;18.445922;11.300476;,
  -15.213816;18.891158;10.401978;,
  -7.591075;9.859862;5.797424;,
  -10.893993;9.224247;3.624634;,
  -3.626537;-0.526762;1.912842;,
  -1.870250;0.195589;2.829269;,
  -9.123546;9.803314;4.306091;,
  -5.367809;-1.460169;1.948792;,
  5.448964;30.550230;25.393067;,
  9.055898;33.525744;44.201600;,
  4.161122;32.052122;24.828568;,
  2.591420;17.661397;11.119995;,
  5.940419;28.593440;26.309494;,
  9.055898;33.525744;44.201600;,
  4.431752;17.034066;11.482254;,
  5.842396;15.959019;12.632339;,
  -0.908641;-0.254104;4.385010;,
  -2.797985;0.167771;4.780991;,
  0.978505;-1.045450;4.892380;,
  4.634938;35.153859;-28.149597;,
  6.992604;36.001363;-44.969603;,
  4.722706;33.174838;-29.062989;,
  7.553273;24.460056;-15.410034;,
  6.992604;36.001363;-44.969603;,
  3.877980;31.532330;-29.840086;,
  6.773487;22.884211;-16.574462;,
  5.276051;21.828859;-17.320008;,
  3.815297;13.356785;-3.944580;,
  5.665150;13.596470;-3.211853;,
  7.103626;14.481190;-1.847229;,
  3.499867;-0.478350;5.014954;,
  1.684559;-0.509809;3.942886;,
  -0.231639;-0.078865;3.724732;,
  -28.696726;9.702175;2.541748;,
  -33.624339;4.162278;2.973679;,
  -27.604259;7.807136;1.702515;,
  -20.268018;9.170675;1.732361;,
  -29.628246;11.259662;4.189880;,
  -33.624339;4.162278;2.973679;,
  -19.850230;11.050138;2.528625;,
  -13.521861;6.283723;-1.333801;,
  -19.332104;12.601974;4.036072;,
  -8.452342;-0.691199;-0.990540;,
  -7.316295;0.110128;-0.474487;,
  -12.359813;7.462094;-0.770752;,
  -11.296763;8.347908;0.445190;,
  -6.373180;0.801011;0.593582;,
  -11.296763;8.347908;0.445190;,
  17.432240;21.409710;23.477189;,
  24.042226;31.023984;26.813232;,
  16.104176;21.950586;25.344910;,
  8.620595;16.122014;18.497376;,
  24.042226;31.023984;26.813232;,
  15.315174;21.797360;27.415101;,
  5.628529;15.792498;21.343139;,
  6.920155;16.288483;19.850646;,
  1.691090;10.023651;11.341492;,
  2.779713;10.529156;10.022965;,
  4.321522;10.562046;8.972962;,
  -2.820812;-0.038091;7.497925;,
  -0.768077;-0.185755;5.302063;,
  -2.009838;0.037107;6.258743;,
  -10.647960;28.605990;15.589722;,
  -23.912731;38.239754;21.687928;,
  -11.547862;29.272656;13.795106;,
  -4.826061;15.349442;5.957321;,
  -23.912731;38.239754;21.687928;,
  -12.995006;29.216160;12.405457;,
  -8.211314;15.709614;3.908020;,
  -6.323497;15.745422;4.526428;,
  -6.500866;-0.893448;0.155701;,
  -4.549755;-1.115834;0.923645;,
  -8.468882;-0.917965;0.332459;,
  -23.571850;28.503757;13.204590;,
  -42.613050;34.534976;16.813720;,
  -24.457592;28.786544;11.278565;,
  -10.690379;17.869486;1.860291;,
  -42.613050;34.534976;16.813720;,
  -25.625989;28.207328;9.726623;,
  -13.837840;17.107082;-0.447449;,
  -12.130809;17.787440;0.322571;,
  -5.636119;-0.215254;-4.810181;,
  -3.777843;0.196511;-3.902710;,
  -7.492076;-0.892908;-4.778564;;
  222;
  3;0,1,2;,
  3;3,4,5;,
  3;6,7,8;,
  3;8,9,6;,
  3;10,6,9;,
  3;9,11,10;,
  3;12,13,14;,
  3;14,15,12;,
  3;15,14,16;,
  3;16,17,15;,
  3;18,19,20;,
  3;21,20,19;,
  3;19,22,23;,
  3;23,21,19;,
  3;24,25,21;,
  3;21,23,26;,
  3;21,26,24;,
  3;23,27,26;,
  3;26,27,28;,
  3;24,26,29;,
  3;28,29,26;,
  3;28,30,29;,
  3;29,31,24;,
  3;29,32,31;,
  3;33,34,35;,
  3;35,36,33;,
  3;36,35,37;,
  3;37,38,36;,
  3;39,33,36;,
  3;36,40,39;,
  3;40,41,39;,
  3;40,36,42;,
  3;42,43,40;,
  3;43,44,40;,
  3;45,46,47;,
  3;47,48,45;,
  3;49,45,48;,
  3;48,50,49;,
  3;48,47,51;,
  3;51,52,53;,
  3;51,54,48;,
  3;54,51,53;,
  3;55,48,54;,
  3;56,54,53;,
  3;54,57,55;,
  3;57,54,56;,
  3;58,59,60;,
  3;60,61,58;,
  3;62,58,61;,
  3;61,60,63;,
  3;61,64,62;,
  3;64,61,65;,
  3;63,65,61;,
  3;65,66,64;,
  3;66,65,67;,
  3;65,63,68;,
  3;68,67,65;,
  3;68,69,67;,
  3;70,68,63;,
  3;70,71,68;,
  3;72,73,74;,
  3;74,75,72;,
  3;76,72,75;,
  3;75,74,77;,
  3;75,78,76;,
  3;77,79,75;,
  3;78,75,79;,
  3;77,80,79;,
  3;79,81,78;,
  3;79,82,81;,
  3;83,84,85;,
  3;83,85,86;,
  3;87,88,83;,
  3;86,89,83;,
  3;87,83,89;,
  3;89,86,90;,
  3;89,91,87;,
  3;91,89,92;,
  3;90,92,89;,
  3;92,93,91;,
  3;92,90,94;,
  3;93,92,94;,
  3;95,94,90;,
  3;94,96,93;,
  3;97,98,99;,
  3;97,99,100;,
  3;101,102,97;,
  3;101,97,103;,
  3;100,103,97;,
  3;103,104,101;,
  3;105,104,103;,
  3;106,103,100;,
  3;106,105,103;,
  3;107,106,100;,
  3;108,105,106;,
  3;106,107,109;,
  3;110,108,106;,
  3;109,110,106;,
  3;111,112,113;,
  3;114,111,113;,
  3;113,115,116;,
  3;113,117,114;,
  3;117,113,116;,
  3;118,117,116;,
  3;119,114,117;,
  3;117,118,120;,
  3;117,121,119;,
  3;120,121,117;,
  3;119,121,122;,
  3;123,122,121;,
  3;123,121,120;,
  3;124,123,120;,
  3;125,126,127;,
  3;125,127,128;,
  3;129,130,128;,
  3;127,131,132;,
  3;128,133,129;,
  3;133,128,127;,
  3;133,127,132;,
  3;134,129,133;,
  3;135,133,132;,
  3;133,135,134;,
  3;136,137,138;,
  3;139,136,138;,
  3;138,140,141;,
  3;138,141,142;,
  3;142,139,138;,
  3;143,142,141;,
  3;142,143,144;,
  3;139,142,145;,
  3;144,145,142;,
  3;145,146,139;,
  3;146,145,147;,
  3;145,148,147;,
  3;145,144,148;,
  3;144,149,148;,
  3;150,151,152;,
  3;150,152,153;,
  3;152,154,155;,
  3;156,153,152;,
  3;152,155,156;,
  3;157,156,155;,
  3;153,156,158;,
  3;156,157,159;,
  3;160,161,158;,
  3;159,162,156;,
  3;162,158,156;,
  3;158,162,160;,
  3;162,159,163;,
  3;163,160,162;,
  3;164,165,166;,
  3;164,166,167;,
  3;168,169,164;,
  3;168,164,170;,
  3;167,170,164;,
  3;170,171,168;,
  3;172,170,167;,
  3;171,170,172;,
  3;167,173,172;,
  3;172,174,171;,
  3;175,176,177;,
  3;175,177,178;,
  3;177,179,180;,
  3;177,180,181;,
  3;181,178,177;,
  3;182,181,180;,
  3;181,182,183;,
  3;178,181,184;,
  3;183,184,181;,
  3;184,185,178;,
  3;185,184,186;,
  3;187,186,184;,
  3;187,184,183;,
  3;183,188,187;,
  3;189,190,191;,
  3;189,191,192;,
  3;193,194,189;,
  3;192,195,189;,
  3;193,189,195;,
  3;195,192,196;,
  3;195,197,193;,
  3;198,199,196;,
  3;197,195,200;,
  3;196,200,195;,
  3;200,196,199;,
  3;200,201,197;,
  3;199,202,200;,
  3;203,200,202;,
  3;204,205,206;,
  3;204,206,207;,
  3;206,208,209;,
  3;206,209,210;,
  3;210,211,206;,
  3;206,211,207;,
  3;211,210,212;,
  3;207,211,213;,
  3;212,213,211;,
  3;213,214,207;,
  3;213,212,215;,
  3;216,214,213;,
  3;215,217,213;,
  3;213,217,216;,
  3;218,219,220;,
  3;218,220,221;,
  3;220,222,223;,
  3;220,223,224;,
  3;221,220,225;,
  3;224,225,220;,
  3;221,225,226;,
  3;226,225,224;,
  3;226,227,221;,
  3;228,226,224;,
  3;229,230,231;,
  3;229,231,232;,
  3;231,233,234;,
  3;231,234,235;,
  3;236,232,231;,
  3;235,236,231;,
  3;232,236,237;,
  3;236,235,237;,
  3;237,238,232;,
  3;239,237,235;;

  MeshNormals {
   240;
   -0.234490;-0.628771;-0.741392;,
   -0.234489;-0.628771;-0.741392;,
   -0.056001;-0.597810;-0.799680;,
   -0.056001;-0.597810;-0.799680;,
   0.124516;-0.545199;-0.829008;,
   0.124516;-0.545199;-0.829008;,
   -0.774955;-0.631885;0.012911;,
   -0.715857;-0.678907;-0.163201;,
   -0.713060;-0.679147;-0.174083;,
   -0.775923;-0.630733;0.010969;,
   -0.805538;-0.561738;0.188573;,
   -0.805688;-0.564978;0.177950;,
   -0.322230;0.606628;0.726753;,
   -0.615562;0.606228;0.503558;,
   -0.423797;0.611762;0.667940;,
   -0.091857;0.552830;0.828216;,
   -0.202657;0.577406;0.790906;,
   0.142439;0.463105;0.874783;,
   0.454342;-0.582068;0.674367;,
   0.278775;-0.663150;0.694634;,
   0.437760;-0.593062;0.675754;,
   0.288645;-0.842488;0.454861;,
   0.096704;-0.718343;0.688935;,
   0.079178;-0.875175;0.477284;,
   0.500362;-0.860635;0.094579;,
   0.424422;-0.898134;0.114988;,
   0.300419;-0.948617;0.099370;,
   0.159140;-0.982438;0.097417;,
   0.106567;-0.981205;0.160873;,
   0.295311;-0.928725;0.224189;,
   0.029191;-0.931705;0.362042;,
   0.464399;-0.848482;0.253795;,
   0.388738;-0.810500;0.438147;,
   0.026225;-0.855627;0.516928;,
   -0.244115;-0.894657;0.374162;,
   -0.235582;-0.949891;0.205448;,
   0.068263;-0.943381;0.324611;,
   -0.216677;-0.976197;0.009504;,
   -0.237022;-0.969417;0.063642;,
   0.118367;-0.833254;0.540071;,
   0.218170;-0.903541;0.368804;,
   -0.051445;-0.898589;0.435764;,
   0.432523;-0.871327;0.231760;,
   0.310782;-0.922946;0.227124;,
   0.204302;-0.965541;0.161218;,
   0.147170;-0.967041;-0.207782;,
   0.330214;-0.909617;-0.252101;,
   0.414978;-0.909778;0.009865;,
   0.224080;-0.969172;0.102441;,
   -0.036576;-0.986950;-0.156816;,
   -0.065322;-0.987564;-0.143004;,
   0.437838;-0.869371;0.229109;,
   0.387451;-0.904899;0.176181;,
   0.293259;-0.892159;0.343588;,
   0.288472;-0.875743;0.387116;,
   0.173863;-0.865860;0.469104;,
   0.188140;-0.846317;0.498349;,
   0.173558;-0.854838;0.489010;,
   -0.542402;0.785663;0.297545;,
   -0.709540;0.674795;0.202989;,
   -0.825632;0.542439;-0.155213;,
   -0.708792;0.705011;-0.023955;,
   -0.345413;0.858476;0.379090;,
   -0.715627;0.373467;-0.590254;,
   -0.574246;0.813591;0.091169;,
   -0.681219;0.579947;-0.446768;,
   -0.614320;0.733299;-0.291347;,
   -0.507095;0.503058;-0.699848;,
   -0.541686;0.242238;-0.804921;,
   -0.345525;0.507335;-0.789445;,
   -0.545264;0.050756;-0.836727;,
   -0.487810;0.060563;-0.870846;,
   0.203042;-0.193573;0.959846;,
   0.066196;-0.020252;0.997601;,
   -0.252989;0.235663;0.938328;,
   -0.119572;0.048014;0.991664;,
   0.330860;-0.359070;0.872697;,
   -0.329763;0.567259;0.754635;,
   0.009683;-0.128670;0.991640;,
   -0.244998;0.396668;0.884664;,
   -0.164971;0.642695;0.748150;,
   -0.156440;0.191348;0.968975;,
   -0.004536;0.252460;0.967597;,
   0.754113;-0.641226;0.141921;,
   0.868662;-0.427331;0.250627;,
   0.878526;-0.472641;0.069297;,
   0.890966;-0.432843;0.137209;,
   0.638580;-0.749536;0.174389;,
   0.641717;-0.728849;0.238702;,
   0.778785;-0.556960;0.288599;,
   0.889646;-0.294230;0.349226;,
   0.661927;-0.639859;0.390427;,
   0.780288;-0.320532;0.537038;,
   0.679212;-0.331901;0.654609;,
   0.804667;-0.262629;0.532482;,
   0.886076;-0.290040;0.361588;,
   0.692151;-0.225094;0.685755;,
   0.084213;-0.886547;-0.454910;,
   0.025144;-0.964245;-0.263816;,
   0.142476;-0.945155;-0.293908;,
   0.055480;-0.944409;-0.324058;,
   0.026744;-0.780293;-0.624842;,
   -0.134587;-0.800156;-0.584497;,
   0.079713;-0.884407;-0.459858;,
   0.119821;-0.758435;-0.640640;,
   -0.102904;-0.759909;-0.641833;,
   -0.261607;-0.828250;-0.495544;,
   -0.360609;-0.853932;-0.375182;,
   -0.217533;-0.699145;-0.681084;,
   -0.524671;-0.720960;-0.452698;,
   -0.380839;-0.723614;-0.575625;,
   -0.921094;-0.385624;0.053673;,
   -0.818642;-0.559817;0.128179;,
   -0.918858;-0.297125;0.259647;,
   -0.905852;-0.210575;0.367547;,
   -0.797232;-0.301524;0.522976;,
   -0.860078;-0.159452;0.484603;,
   -0.803501;-0.087143;0.588891;,
   -0.672470;0.022681;0.739777;,
   -0.731824;-0.045267;0.679988;,
   -0.346449;0.121649;0.930148;,
   -0.561679;0.039180;0.826427;,
   -0.480141;0.187127;0.857000;,
   -0.244056;0.237101;0.940330;,
   0.006907;0.271397;0.962443;,
   -0.233770;0.662770;-0.711399;,
   -0.104945;0.609936;-0.785471;,
   -0.102947;0.785971;-0.609632;,
   -0.324917;0.915573;-0.236972;,
   -0.097912;0.952345;0.288880;,
   -0.283027;0.946147;0.157169;,
   0.260470;0.797432;-0.544296;,
   0.070390;0.903802;-0.422121;,
   -0.154382;0.987068;-0.043157;,
   0.093944;0.908780;0.406563;,
   -0.012017;0.993157;0.116166;,
   -0.385835;0.896897;0.216120;,
   -0.377022;0.900638;0.216115;,
   -0.334831;0.818676;0.466538;,
   -0.458181;0.670878;0.583089;,
   -0.367172;0.680345;0.634283;,
   -0.271860;0.710850;0.648679;,
   -0.294481;0.562909;0.772279;,
   -0.155650;0.449622;0.879553;,
   -0.012674;0.114747;0.993314;,
   -0.227064;0.238873;0.944130;,
   -0.407980;0.337106;0.848476;,
   -0.112186;0.191339;0.975092;,
   0.096231;0.040708;0.994526;,
   0.296839;-0.111808;0.948360;,
   -0.957846;-0.281498;0.057363;,
   -0.960400;-0.226132;0.162778;,
   -0.860399;-0.473088;0.189477;,
   -0.777792;-0.605269;0.169380;,
   -0.724531;-0.587604;0.360244;,
   -0.709558;-0.637371;0.300475;,
   -0.592038;-0.704109;0.392074;,
   -0.447408;-0.734139;0.510751;,
   -0.557980;-0.582272;0.591285;,
   -0.197452;-0.479457;0.855063;,
   -0.105759;-0.312670;0.943956;,
   -0.274078;-0.426911;0.861759;,
   -0.352422;-0.540003;0.764327;,
   0.071966;-0.181271;0.980796;,
   -0.866411;-0.375071;0.329627;,
   -0.779664;-0.577983;0.240954;,
   -0.765211;-0.507068;0.396655;,
   -0.326780;-0.484029;0.811746;,
   -0.963456;-0.155778;0.217915;,
   -0.967180;-0.145282;0.208461;,
   -0.548338;-0.401603;0.733513;,
   -0.720710;-0.307341;0.621385;,
   -0.154240;-0.335330;0.929389;,
   0.111110;-0.368654;0.922902;,
   -0.362459;-0.298238;0.882994;,
   -0.998885;-0.046879;0.005588;,
   -0.990263;0.019688;-0.137813;,
   -0.985424;0.150473;0.079361;,
   -0.928455;0.276434;0.248106;,
   -0.880358;0.472475;-0.041672;,
   -0.900586;0.393994;0.183613;,
   -0.816462;0.459058;0.350223;,
   -0.653294;0.620424;0.433913;,
   -0.349380;0.658715;0.666354;,
   -0.586591;0.580826;0.564405;,
   -0.738609;0.494945;0.457696;,
   -0.473509;0.497630;0.726742;,
   -0.238303;0.512033;0.825247;,
   0.011835;0.493013;0.869941;,
   0.282449;-0.473908;0.834046;,
   0.326660;-0.218870;0.919450;,
   0.184432;-0.307139;0.933622;,
   0.140371;-0.410514;0.900985;,
   0.321458;-0.592633;0.738546;,
   0.547650;-0.431217;0.717030;,
   0.080294;-0.601117;0.795117;,
   -0.079342;-0.353713;0.931983;,
   0.037914;-0.709096;0.704092;,
   -0.302883;-0.174028;0.937004;,
   -0.444204;-0.272116;0.853602;,
   -0.231382;-0.484370;0.843711;,
   -0.110643;-0.754776;0.646585;,
   -0.569359;-0.360368;0.738895;,
   -0.562336;-0.352156;0.748174;,
   0.421681;-0.745744;0.515802;,
   0.567731;-0.589652;0.574449;,
   0.530354;-0.777103;0.338874;,
   0.256069;-0.868146;0.425148;,
   0.715342;-0.662022;0.223634;,
   0.592196;-0.788223;0.167359;,
   0.521118;-0.835742;0.173124;,
   0.418772;-0.863029;0.282509;,
   0.687363;-0.651748;0.320558;,
   0.538335;-0.696073;0.475056;,
   0.405419;-0.712254;0.573001;,
   0.739644;-0.499718;0.450786;,
   0.480882;-0.481937;0.732454;,
   0.620149;-0.499976;0.604516;,
   -0.728748;-0.675119;0.114634;,
   -0.589074;-0.808065;-0.004792;,
   -0.614163;-0.724387;0.313156;,
   -0.685943;-0.394987;0.611120;,
   -0.354368;-0.843653;0.403328;,
   -0.466538;-0.719056;0.515073;,
   -0.271907;-0.433747;0.859029;,
   -0.501890;-0.424604;0.753536;,
   -0.177521;-0.249284;0.952021;,
   -0.379092;-0.276348;0.883131;,
   0.090050;-0.210711;0.973392;,
   -0.439746;-0.895329;0.070775;,
   -0.302135;-0.953265;-0.001016;,
   -0.345492;-0.900025;0.265689;,
   -0.535165;-0.650115;0.539397;,
   -0.146122;-0.885739;0.440585;,
   -0.225858;-0.844678;0.485291;,
   -0.147956;-0.552181;0.820491;,
   -0.362635;-0.620816;0.695042;,
   -0.145332;-0.320346;0.936086;,
   -0.326768;-0.406100;0.853408;,
   0.090610;-0.202670;0.975046;;
   222;
   3;0,1,2;,
   3;3,4,5;,
   3;6,7,8;,
   3;8,9,6;,
   3;10,6,9;,
   3;9,11,10;,
   3;12,13,14;,
   3;14,15,12;,
   3;15,14,16;,
   3;16,17,15;,
   3;18,19,20;,
   3;21,20,19;,
   3;19,22,23;,
   3;23,21,19;,
   3;24,25,21;,
   3;21,23,26;,
   3;21,26,24;,
   3;23,27,26;,
   3;26,27,28;,
   3;24,26,29;,
   3;28,29,26;,
   3;28,30,29;,
   3;29,31,24;,
   3;29,32,31;,
   3;33,34,35;,
   3;35,36,33;,
   3;36,35,37;,
   3;37,38,36;,
   3;39,33,36;,
   3;36,40,39;,
   3;40,41,39;,
   3;40,36,42;,
   3;42,43,40;,
   3;43,44,40;,
   3;45,46,47;,
   3;47,48,45;,
   3;49,45,48;,
   3;48,50,49;,
   3;48,47,51;,
   3;51,52,53;,
   3;51,54,48;,
   3;54,51,53;,
   3;55,48,54;,
   3;56,54,53;,
   3;54,57,55;,
   3;57,54,56;,
   3;58,59,60;,
   3;60,61,58;,
   3;62,58,61;,
   3;61,60,63;,
   3;61,64,62;,
   3;64,61,65;,
   3;63,65,61;,
   3;65,66,64;,
   3;66,65,67;,
   3;65,63,68;,
   3;68,67,65;,
   3;68,69,67;,
   3;70,68,63;,
   3;70,71,68;,
   3;72,73,74;,
   3;74,75,72;,
   3;76,72,75;,
   3;75,74,77;,
   3;75,78,76;,
   3;77,79,75;,
   3;78,75,79;,
   3;77,80,79;,
   3;79,81,78;,
   3;79,82,81;,
   3;83,84,85;,
   3;83,85,86;,
   3;87,88,83;,
   3;86,89,83;,
   3;87,83,89;,
   3;89,86,90;,
   3;89,91,87;,
   3;91,89,92;,
   3;90,92,89;,
   3;92,93,91;,
   3;92,90,94;,
   3;93,92,94;,
   3;95,94,90;,
   3;94,96,93;,
   3;97,98,99;,
   3;97,99,100;,
   3;101,102,97;,
   3;101,97,103;,
   3;100,103,97;,
   3;103,104,101;,
   3;105,104,103;,
   3;106,103,100;,
   3;106,105,103;,
   3;107,106,100;,
   3;108,105,106;,
   3;106,107,109;,
   3;110,108,106;,
   3;109,110,106;,
   3;111,112,113;,
   3;114,111,113;,
   3;113,115,116;,
   3;113,117,114;,
   3;117,113,116;,
   3;118,117,116;,
   3;119,114,117;,
   3;117,118,120;,
   3;117,121,119;,
   3;120,121,117;,
   3;119,121,122;,
   3;123,122,121;,
   3;123,121,120;,
   3;124,123,120;,
   3;125,126,127;,
   3;125,127,128;,
   3;129,130,128;,
   3;127,131,132;,
   3;128,133,129;,
   3;133,128,127;,
   3;133,127,132;,
   3;134,129,133;,
   3;135,133,132;,
   3;133,135,134;,
   3;136,137,138;,
   3;139,136,138;,
   3;138,140,141;,
   3;138,141,142;,
   3;142,139,138;,
   3;143,142,141;,
   3;142,143,144;,
   3;139,142,145;,
   3;144,145,142;,
   3;145,146,139;,
   3;146,145,147;,
   3;145,148,147;,
   3;145,144,148;,
   3;144,149,148;,
   3;150,151,152;,
   3;150,152,153;,
   3;152,154,155;,
   3;156,153,152;,
   3;152,155,156;,
   3;157,156,155;,
   3;153,156,158;,
   3;156,157,159;,
   3;160,161,158;,
   3;159,162,156;,
   3;162,158,156;,
   3;158,162,160;,
   3;162,159,163;,
   3;163,160,162;,
   3;164,165,166;,
   3;164,166,167;,
   3;168,169,164;,
   3;168,164,170;,
   3;167,170,164;,
   3;170,171,168;,
   3;172,170,167;,
   3;171,170,172;,
   3;167,173,172;,
   3;172,174,171;,
   3;175,176,177;,
   3;175,177,178;,
   3;177,179,180;,
   3;177,180,181;,
   3;181,178,177;,
   3;182,181,180;,
   3;181,182,183;,
   3;178,181,184;,
   3;183,184,181;,
   3;184,185,178;,
   3;185,184,186;,
   3;187,186,184;,
   3;187,184,183;,
   3;183,188,187;,
   3;189,190,191;,
   3;189,191,192;,
   3;193,194,189;,
   3;192,195,189;,
   3;193,189,195;,
   3;195,192,196;,
   3;195,197,193;,
   3;198,199,196;,
   3;197,195,200;,
   3;196,200,195;,
   3;200,196,199;,
   3;200,201,197;,
   3;199,202,200;,
   3;203,200,202;,
   3;204,205,206;,
   3;204,206,207;,
   3;206,208,209;,
   3;206,209,210;,
   3;210,211,206;,
   3;206,211,207;,
   3;211,210,212;,
   3;207,211,213;,
   3;212,213,211;,
   3;213,214,207;,
   3;213,212,215;,
   3;216,214,213;,
   3;215,217,213;,
   3;213,217,216;,
   3;218,219,220;,
   3;218,220,221;,
   3;220,222,223;,
   3;220,223,224;,
   3;221,220,225;,
   3;224,225,220;,
   3;221,225,226;,
   3;226,225,224;,
   3;226,227,221;,
   3;228,226,224;,
   3;229,230,231;,
   3;229,231,232;,
   3;231,233,234;,
   3;231,234,235;,
   3;236,232,231;,
   3;235,236,231;,
   3;232,236,237;,
   3;236,235,237;,
   3;237,238,232;,
   3;239,237,235;;
  }

  MeshMaterialList {
   1;
   222;
   0,
   0,
   0,
   0,
   0,
   0,
   0,
   0,
   0,
   0,
   0,
   0,
   0,
   0,
   0,
   0,
   0,
   0,
   0,
   0,
   0,
   0,
   0,
   0,
   0,
   0,
   0,
   0,
   0,
   0,
   0,
   0,
   0,
   0,
   0,
   0,
   0,
   0,
   0,
   0,
   0,
   0,
   0,
   0,
   0,
   0,
   0,
   0,
   0,
   0,
   0,
   0,
   0,
   0,
   0,
   0,
   0,
   0,
   0,
   0,
   0,
   0,
   0,
   0,
   0,
   0,
   0,
   0,
   0,
   0,
   0,
   0,
   0,
   0,
   0,
   0,
   0,
   0,
   0,
   0,
   0,
   0,
   0,
   0,
   0,
   0,
   0,
   0,
   0,
   0,
   0,
   0,
   0,
   0,
   0,
   0,
   0,
   0,
   0,
   0,
   0,
   0,
   0,
   0,
   0,
   0,
   0,
   0,
   0,
   0,
   0,
   0,
   0,
   0,
   0,
   0,
   0,
   0,
   0,
   0,
   0,
   0,
   0,
   0,
   0,
   0,
   0,
   0,
   0,
   0,
   0,
   0,
   0,
   0,
   0,
   0,
   0,
   0,
   0,
   0,
   0,
   0,
   0,
   0,
   0,
   0,
   0,
   0,
   0,
   0,
   0,
   0,
   0,
   0,
   0,
   0,
   0,
   0,
   0,
   0,
   0,
   0,
   0,
   0,
   0,
   0,
   0,
   0,
   0,
   0,
   0,
   0,
   0,
   0,
   0,
   0,
   0,
   0,
   0,
   0,
   0,
   0,
   0,
   0,
   0,
   0,
   0,
   0,
   0,
   0,
   0,
   0,
   0,
   0,
   0,
   0,
   0,
   0,
   0,
   0,
   0,
   0,
   0,
   0,
   0,
   0,
   0,
   0,
   0,
   0,
   0,
   0,
   0,
   0,
   0,
   0,
   0,
   0,
   0,
   0,
   0,
   0;
   { MI_Plants_LF }
  }

  MeshTextureCoords c1 {
   240;
   3.328125;-0.772949;,
   3.347656;-0.971191;,
   3.363281;-0.755371;,
   3.363281;-0.755371;,
   3.347656;-0.971191;,
   3.396484;-0.739746;,
   3.382812;-0.019897;,
   3.300781;-0.022156;,
   3.300781;-0.285400;,
   3.376953;-0.289063;,
   3.445312;-0.070801;,
   3.445312;-0.292969;,
   2.302734;-1.061523;,
   2.300781;-1.291992;,
   2.375000;-1.234375;,
   2.375000;-1.015625;,
   2.447266;-1.179688;,
   2.435547;-1.038086;,
   3.445312;-0.070801;,
   3.382812;-0.019897;,
   3.445312;-0.292969;,
   3.376953;-0.289307;,
   3.300781;-0.022156;,
   3.300781;-0.285400;,
   3.447266;-0.514160;,
   3.445312;-0.292969;,
   3.367188;-0.524414;,
   3.292969;-0.535156;,
   3.328125;-0.772949;,
   3.363281;-0.754883;,
   3.347656;-0.971191;,
   3.396484;-0.739746;,
   3.347656;-0.971191;,
   3.447266;-0.514160;,
   3.445312;-0.292969;,
   3.376953;-0.289063;,
   3.369141;-0.524414;,
   3.300781;-0.285400;,
   3.292969;-0.535156;,
   3.396484;-0.739746;,
   3.361328;-0.755371;,
   3.347656;-0.971191;,
   3.292969;-0.535156;,
   3.328125;-0.772949;,
   3.347656;-0.971191;,
   3.363281;-0.755371;,
   3.396484;-0.739746;,
   3.447266;-0.514160;,
   3.371094;-0.524414;,
   3.328125;-0.772949;,
   3.292969;-0.535156;,
   3.445312;-0.292969;,
   3.445312;-0.070801;,
   3.382812;-0.019897;,
   3.373047;-0.289063;,
   3.292969;-0.535156;,
   3.300781;-0.022156;,
   3.300781;-0.285400;,
   2.375000;-1.015625;,
   2.302734;-1.061523;,
   2.300781;-1.291992;,
   2.376953;-1.233398;,
   2.435547;-1.038086;,
   2.294922;-1.527344;,
   2.447266;-1.179688;,
   2.375000;-1.478516;,
   2.457031;-1.452148;,
   2.402344;-1.727539;,
   2.361328;-1.744141;,
   2.353516;-1.982422;,
   2.328125;-1.757812;,
   2.353516;-1.982422;,
   0.359375;-1.020508;,
   0.286377;-1.059570;,
   0.293945;-1.305664;,
   0.373291;-1.295898;,
   0.429443;-1.038086;,
   0.291504;-1.571289;,
   0.446777;-1.288086;,
   0.371338;-1.561523;,
   0.352783;-1.983398;,
   0.441650;-1.560547;,
   0.352783;-1.983398;,
   3.361328;-0.755859;,
   3.347656;-0.971191;,
   3.396484;-0.739746;,
   3.447266;-0.514160;,
   3.328125;-0.772949;,
   3.347656;-0.971191;,
   3.369141;-0.524414;,
   3.445312;-0.292969;,
   3.292969;-0.535156;,
   3.371094;-0.288574;,
   3.300781;-0.285400;,
   3.382812;-0.019897;,
   3.445312;-0.070801;,
   3.300781;-0.022156;,
   3.363281;-0.752930;,
   3.347656;-0.971191;,
   3.396484;-0.739746;,
   3.447266;-0.514160;,
   3.328125;-0.772949;,
   3.347656;-0.971191;,
   3.378906;-0.523438;,
   3.292969;-0.535156;,
   3.300781;-0.285400;,
   3.380859;-0.289551;,
   3.445312;-0.292969;,
   3.300781;-0.022156;,
   3.445312;-0.070801;,
   3.382812;-0.019897;,
   2.328125;-1.757812;,
   2.353516;-1.982422;,
   2.363281;-1.744141;,
   2.294922;-1.527344;,
   2.353516;-1.982422;,
   2.402344;-1.727539;,
   2.375000;-1.478516;,
   2.457031;-1.452148;,
   2.300781;-1.291992;,
   2.447266;-1.179688;,
   2.375000;-1.235352;,
   2.302734;-1.061523;,
   2.375000;-1.015625;,
   2.435547;-1.038086;,
   2.328125;-1.757812;,
   2.353516;-1.982422;,
   2.363281;-1.744141;,
   2.294922;-1.527344;,
   2.375000;-1.234375;,
   2.300781;-1.291992;,
   2.353516;-1.982422;,
   2.402344;-1.727539;,
   2.375000;-1.477539;,
   2.447266;-1.179688;,
   2.457031;-1.452148;,
   2.328125;-1.757812;,
   2.353516;-1.982422;,
   2.365234;-1.742188;,
   2.294922;-1.527344;,
   2.353516;-1.982422;,
   2.402344;-1.727539;,
   2.376953;-1.477539;,
   2.457031;-1.452148;,
   2.447266;-1.179688;,
   2.375000;-1.234375;,
   2.300781;-1.291992;,
   2.302734;-1.061523;,
   2.375000;-1.015625;,
   2.435547;-1.038086;,
   2.328125;-1.757812;,
   2.353516;-1.982422;,
   2.365234;-1.743164;,
   2.294922;-1.527344;,
   2.353516;-1.982422;,
   2.402344;-1.727539;,
   2.376953;-1.476563;,
   2.457031;-1.452148;,
   2.300781;-1.291992;,
   2.447266;-1.179688;,
   2.375000;-1.015625;,
   2.302734;-1.061523;,
   2.376953;-1.233398;,
   2.435547;-1.038086;,
   0.374268;-1.560547;,
   0.352783;-1.983398;,
   0.441650;-1.560547;,
   0.446777;-1.288086;,
   0.291504;-1.571289;,
   0.352783;-1.983398;,
   0.372803;-1.296875;,
   0.293945;-1.305664;,
   0.359375;-1.020508;,
   0.429443;-1.038086;,
   0.286377;-1.059570;,
   2.328125;-1.757812;,
   2.353516;-1.982422;,
   2.363281;-1.744141;,
   2.294922;-1.527344;,
   2.353516;-1.982422;,
   2.402344;-1.727539;,
   2.375000;-1.478516;,
   2.457031;-1.452148;,
   2.447266;-1.179688;,
   2.373047;-1.235352;,
   2.300781;-1.291992;,
   2.302734;-1.061523;,
   2.375000;-1.015625;,
   2.435547;-1.038086;,
   2.357422;-0.724121;,
   2.353516;-0.973145;,
   2.406250;-0.748047;,
   2.445312;-0.533203;,
   2.324219;-0.732910;,
   2.353516;-0.973145;,
   2.371094;-0.507813;,
   2.447266;-0.270020;,
   2.296875;-0.511719;,
   2.427734;-0.024704;,
   2.378906;-0.009148;,
   2.380859;-0.246582;,
   2.302734;-0.248291;,
   2.298828;-0.016769;,
   2.302734;-0.248291;,
   3.328125;-0.772949;,
   3.347656;-0.971191;,
   3.363281;-0.754883;,
   3.292969;-0.535156;,
   3.347656;-0.971191;,
   3.396484;-0.739746;,
   3.447266;-0.514160;,
   3.376953;-0.523926;,
   3.445312;-0.292969;,
   3.373047;-0.289307;,
   3.300781;-0.285400;,
   3.445312;-0.070801;,
   3.300781;-0.022156;,
   3.382812;-0.019897;,
   0.291504;-1.571289;,
   0.352783;-1.983398;,
   0.370605;-1.560547;,
   0.293945;-1.305664;,
   0.352783;-1.983398;,
   0.441650;-1.560547;,
   0.446777;-1.288086;,
   0.372314;-1.296875;,
   0.359375;-1.020508;,
   0.286377;-1.059570;,
   0.429443;-1.038086;,
   0.291504;-1.571289;,
   0.352783;-1.983398;,
   0.370361;-1.560547;,
   0.293945;-1.305664;,
   0.352783;-1.983398;,
   0.441650;-1.560547;,
   0.446777;-1.288086;,
   0.372314;-1.296875;,
   0.359375;-1.020508;,
   0.286377;-1.059570;,
   0.429443;-1.038086;;
  }
 }
}