xof 0303txt 0032
template ColorRGBA {
 <35ff44e0-6c7c-11cf-8f52-0040333594a3>
 FLOAT red;
 FLOAT green;
 FLOAT blue;
 FLOAT alpha;
}

template ColorRGB {
 <d3e16e81-7835-11cf-8f52-0040333594a3>
 FLOAT red;
 FLOAT green;
 FLOAT blue;
}

template Material {
 <3d82ab4d-62da-11cf-ab39-0020af71e433>
 ColorRGBA faceColor;
 FLOAT power;
 ColorRGB specularColor;
 ColorRGB emissiveColor;
 [...]
}

template TextureFilename {
 <a42790e1-7810-11cf-8f52-0040333594a3>
 STRING filename;
}

template Frame {
 <3d82ab46-62da-11cf-ab39-0020af71e433>
 [...]
}

template Matrix4x4 {
 <f6f23f45-7686-11cf-8f52-0040333594a3>
 array FLOAT matrix[16];
}

template FrameTransformMatrix {
 <f6f23f41-7686-11cf-8f52-0040333594a3>
 Matrix4x4 frameMatrix;
}

template Vector {
 <3d82ab5e-62da-11cf-ab39-0020af71e433>
 FLOAT x;
 FLOAT y;
 FLOAT z;
}

template MeshFace {
 <3d82ab5f-62da-11cf-ab39-0020af71e433>
 DWORD nFaceVertexIndices;
 array DWORD faceVertexIndices[nFaceVertexIndices];
}

template Mesh {
 <3d82ab44-62da-11cf-ab39-0020af71e433>
 DWORD nVertices;
 array Vector vertices[nVertices];
 DWORD nFaces;
 array MeshFace faces[nFaces];
 [...]
}

template MeshNormals {
 <f6f23f43-7686-11cf-8f52-0040333594a3>
 DWORD nNormals;
 array Vector normals[nNormals];
 DWORD nFaceNormals;
 array MeshFace faceNormals[nFaceNormals];
}

template MeshMaterialList {
 <f6f23f42-7686-11cf-8f52-0040333594a3>
 DWORD nMaterials;
 DWORD nFaceIndexes;
 array DWORD faceIndexes[nFaceIndexes];
 [Material <3d82ab4d-62da-11cf-ab39-0020af71e433>]
}

template Coords2d {
 <f6f23f44-7686-11cf-8f52-0040333594a3>
 FLOAT u;
 FLOAT v;
}

template MeshTextureCoords {
 <f6f23f40-7686-11cf-8f52-0040333594a3>
 DWORD nTextureCoords;
 array Coords2d textureCoords[nTextureCoords];
}


Material MI_MountainRock {
 1.000000;1.000000;1.000000;1.000000;;
 10.000000;
 0.000000;0.000000;0.000000;;
 0.000000;0.000000;0.000000;;

 TextureFilename {
  "tree_mud_diffuse.tga";
 }
}

Frame SM_Peeble02 {
 

 FrameTransformMatrix {
  1.000000,0.000000,0.000000,0.000000,0.000000,1.000000,0.000000,0.000000,0.000000,0.000000,1.000000,0.000000,0.000000,0.000000,0.000000,1.000000;;
 }

 Mesh SM_Peeble02 {
  426;
  -10.959882;5.277868;3.302888;,
  -10.174176;6.731690;0.255454;,
  -9.754159;5.733760;1.472434;,
  7.408222;4.182524;-5.241654;,
  6.887068;5.654100;-3.745154;,
  7.900506;4.336578;-4.305578;,
  4.064102;8.721408;-6.378303;,
  3.315783;9.593595;-7.353770;,
  3.628098;10.305746;-5.983039;,
  4.512045;11.953913;1.239735;,
  6.403653;12.218672;2.063460;,
  6.597490;11.354054;0.928952;,
  -2.651468;14.532069;7.647282;,
  -3.616285;13.752672;7.551152;,
  -1.964435;13.562670;8.988159;,
  4.601001;12.438410;9.515398;,
  3.434486;10.598911;9.591657;,
  4.702630;11.285229;9.197489;,
  -6.263012;15.031523;2.822165;,
  -6.263284;14.000312;3.515369;,
  -5.129734;15.416757;3.869578;,
  9.359343;1.054481;-2.567695;,
  8.717918;-0.096986;-2.351345;,
  9.106980;1.159764;-3.184401;,
  7.394145;-0.449212;-4.000820;,
  8.026587;0.647487;-4.841046;,
  7.521615;-1.030082;-2.201069;,
  4.686192;-2.673850;-0.414832;,
  5.298130;-1.837925;-1.806523;,
  5.852188;-2.841679;-0.693215;,
  6.952166;-2.622948;-0.235522;,
  7.353407;-2.087999;0.523425;,
  6.748441;-3.283357;3.235783;,
  6.748441;-3.283357;3.235783;,
  7.416356;-2.115540;1.849823;,
  8.997090;-1.838096;4.898182;,
  3.434486;10.598911;9.591657;,
  7.929925;8.484997;9.196690;,
  5.578018;9.839335;8.432808;,
  10.029634;8.604603;4.326208;,
  9.524908;7.457372;6.393904;,
  9.013496;7.858708;4.709014;,
  4.064102;8.721408;-6.378303;,
  3.628098;10.305746;-5.983039;,
  4.494055;9.688958;-5.362727;,
  3.315783;9.593595;-7.353770;,
  0.200485;8.262850;-9.010113;,
  3.628098;10.305746;-5.983039;,
  6.597490;11.354054;0.928952;,
  6.403653;12.218672;2.063460;,
  7.280470;9.609480;0.768329;,
  6.664169;13.725346;3.081277;,
  6.528032;12.738814;2.620035;,
  7.081218;13.145480;4.075291;,
  7.547296;13.138179;5.849691;,
  7.547296;13.138179;5.849691;,
  8.430914;13.180106;4.983778;,
  7.081218;13.145480;4.075291;,
  8.295218;12.655104;3.210035;,
  7.081218;13.145480;4.075291;,
  6.528032;12.738814;2.620035;,
  -5.287667;14.986960;5.052119;,
  -5.846860;14.019846;5.469103;,
  -4.185045;14.681120;6.176308;,
  -5.838546;13.184516;5.653356;,
  -3.616285;13.752672;7.551152;,
  -3.034343;13.138912;8.717609;,
  -10.516810;6.272638;6.247928;,
  -10.296106;4.900202;5.025993;,
  -10.096702;5.948690;6.325388;,
  -8.358660;-1.079749;8.527192;,
  -6.494079;4.596865;8.455855;,
  -10.096702;5.948690;6.325388;,
  -10.159673;-0.187893;4.534063;,
  -9.992537;-0.418393;3.094459;,
  -10.296106;4.900202;5.025993;,
  -8.358660;-1.079749;8.527192;,
  -4.138848;-0.901854;11.075362;,
  -10.959882;5.277868;3.302888;,
  -10.516810;6.272638;6.247928;,
  -10.010001;7.848856;7.590079;,
  -8.039872;5.626964;8.678274;,
  -11.255218;7.256610;3.674792;,
  -9.749043;7.385671;1.205488;,
  -10.174176;6.731690;0.255454;,
  -9.754159;5.733760;1.472434;,
  -7.275546;-1.532439;-0.872862;,
  -8.142145;-1.966149;1.621148;,
  -10.174176;6.731690;0.255454;,
  -8.099111;7.316887;-0.533319;,
  -6.914124;5.439210;-4.436611;,
  -6.800526;-1.898634;-3.344932;,
  -6.483044;7.585130;-2.045618;,
  -6.345148;2.936993;-4.235108;,
  -5.867642;4.186327;-5.373588;,
  -5.288871;-0.210762;-8.254862;,
  -5.867642;4.186327;-5.373588;,
  -6.372344;2.096760;-6.484925;,
  -5.999477;2.856516;-7.137274;,
  -5.877604;5.615529;-7.238980;,
  -6.842646;8.910302;-4.694180;,
  -6.458237;8.195298;-6.909285;,
  -5.239925;9.069850;-6.885710;,
  -4.913468;10.265872;-3.314547;,
  -3.813511;11.303318;-1.758795;,
  -7.732547;8.000894;1.674933;,
  -4.797890;11.147434;-0.778041;,
  -6.523783;13.859150;1.779791;,
  -6.263012;15.031523;2.822165;,
  -6.263284;14.000312;3.515369;,
  -5.287667;14.986960;5.052119;,
  -5.129734;15.416757;3.869578;,
  -5.846860;14.019846;5.469103;,
  -5.838546;13.184516;5.653356;,
  -8.503030;8.808895;6.739570;,
  -5.909750;10.048045;8.943037;,
  -8.366214;8.387993;3.689842;,
  -9.190669;8.183315;7.342064;,
  -9.311199;7.593970;4.489867;,
  -3.204648;8.134746;-9.355017;,
  -3.494668;5.585513;-12.519540;,
  -5.172429;5.063965;-8.008710;,
  -5.029324;3.361607;-8.264085;,
  -5.172429;5.063965;-8.008710;,
  -3.280472;1.383595;-11.902818;,
  -3.897309;0.458304;-9.673705;,
  -4.580882;1.555853;-7.792506;,
  -3.911850;0.187073;-8.483494;,
  -3.352406;0.303690;-11.395775;,
  -3.494668;5.585513;-12.519540;,
  -2.713159;4.975941;-12.702610;,
  -3.204648;8.134746;-9.355017;,
  1.541387;3.977443;-12.850261;,
  -3.352406;0.303690;-11.395775;,
  4.118882;-0.316681;-11.085502;,
  5.700936;1.694027;-10.147275;,
  4.887134;4.111578;-12.145934;,
  0.200485;8.262850;-9.010113;,
  -4.913468;10.265872;-3.314547;,
  -4.093619;8.023458;-8.528916;,
  -5.239925;9.069850;-6.885710;,
  -6.842646;8.910302;-4.694180;,
  4.966499;6.396721;-9.366679;,
  4.887134;4.111578;-12.145934;,
  6.171554;5.353263;-9.799975;,
  4.966499;6.396721;-9.366679;,
  6.121046;4.102780;-10.182486;,
  6.285847;7.268778;-8.230146;,
  6.171554;5.353263;-9.799975;,
  4.064102;8.721408;-6.378303;,
  6.678216;8.559594;-4.403951;,
  4.494055;9.688958;-5.362727;,
  6.055629;10.750514;-2.630800;,
  3.628098;10.305746;-5.983039;,
  5.001428;11.156722;-3.317213;,
  6.137512;11.790352;0.043716;,
  4.512045;11.953913;1.239735;,
  6.597490;11.354054;0.928952;,
  2.158017;11.939690;0.419218;,
  -3.813511;11.303318;-1.758795;,
  -6.523783;13.859150;1.779791;,
  -4.797890;11.147434;-0.778041;,
  -5.129734;15.416757;3.869578;,
  -6.263012;15.031523;2.822165;,
  2.158017;11.939690;0.419218;,
  -5.287667;14.986960;5.052119;,
  -4.185045;14.681120;6.176308;,
  -0.127276;15.191594;8.068648;,
  3.162983;13.812978;9.834334;,
  -2.651468;14.532069;7.647282;,
  -1.964435;13.562670;8.988159;,
  -3.616285;13.752672;7.551152;,
  -5.846860;14.019846;5.469103;,
  -3.034343;13.138912;8.717609;,
  -5.909750;10.048045;8.943037;,
  -5.838546;13.184516;5.653356;,
  -3.034343;13.138912;8.717609;,
  -0.129212;12.332327;9.790699;,
  -1.964435;13.562670;8.988159;,
  5.970193;14.407480;7.751480;,
  4.104372;14.632659;9.252536;,
  4.869660;13.757960;9.672774;,
  6.664169;13.725346;3.081277;,
  7.547296;13.138179;5.849691;,
  5.837522;7.465102;9.246159;,
  7.385598;5.157235;9.004918;,
  8.376442;5.530174;8.452197;,
  5.923743;4.109692;9.687832;,
  6.637702;2.414683;10.308314;,
  6.326768;0.317387;8.858081;,
  6.096506;0.950929;11.219650;,
  8.126436;2.266247;6.998340;,
  8.991312;3.659674;6.713925;,
  8.376442;5.530174;8.452197;,
  6.676606;-0.247619;6.015970;,
  8.684758;1.805970;6.027460;,
  9.098573;6.363388;4.923862;,
  9.524908;7.457372;6.393904;,
  9.643427;5.383189;8.119898;,
  9.034382;6.839099;8.911698;,
  9.013496;7.858708;4.709014;,
  9.117692;7.986386;2.633309;,
  10.029634;8.604603;4.326208;,
  10.029634;8.604603;4.326208;,
  8.591788;8.183408;1.808541;,
  8.746503;9.365667;1.283268;,
  8.295218;12.655104;3.210035;,
  8.430914;13.180106;4.983778;,
  7.929925;8.484997;9.196690;,
  7.847696;9.623653;8.652365;,
  7.599482;12.601419;6.737404;,
  7.547296;13.138179;5.849691;,
  9.280197;7.562729;1.410816;,
  8.591788;8.183408;1.808541;,
  9.117692;7.986386;2.633309;,
  7.544824;7.149670;-0.561863;,
  7.850533;7.223790;-1.339747;,
  7.039378;8.199506;-0.159570;,
  8.591788;8.183408;1.808541;,
  5.557155;6.885198;-3.879422;,
  6.403653;12.218672;2.063460;,
  4.512045;11.953913;1.239735;,
  6.664169;13.725346;3.081277;,
  2.158017;11.939690;0.419218;,
  6.676606;-0.247619;6.015970;,
  8.126436;2.266247;6.998340;,
  5.708318;-0.270207;7.547650;,
  6.326768;0.317387;8.858081;,
  6.096506;0.950929;11.219650;,
  5.750047;-0.377055;9.572574;,
  4.877881;-0.829687;11.422436;,
  4.877881;-0.829687;11.422436;,
  2.577530;-1.801268;8.778830;,
  2.495708;-0.573756;11.107437;,
  -1.298104;-1.187335;11.228500;,
  0.805540;-2.240979;8.579014;,
  -2.682936;-1.736972;10.856720;,
  -8.358660;-1.079749;8.527192;,
  -4.138848;-0.901854;11.075362;,
  -10.159673;-0.187893;4.534063;,
  -8.142145;-1.966149;1.621148;,
  -9.992537;-0.418393;3.094459;,
  4.686192;-2.673850;-0.414832;,
  -7.275546;-1.532439;-0.872862;,
  -6.800526;-1.898634;-3.344932;,
  2.577530;-1.801268;8.778830;,
  -3.911850;0.187073;-8.483494;,
  -5.288871;-0.210762;-8.254862;,
  5.750047;-0.377055;9.572574;,
  6.326768;0.317387;8.858081;,
  5.708318;-0.270207;7.547650;,
  4.652243;-2.594314;4.359093;,
  6.676606;-0.247619;6.015970;,
  6.726382;-3.696862;5.353801;,
  -3.897309;0.458304;-9.673705;,
  -3.352406;0.303690;-11.395775;,
  6.748441;-3.283357;3.235783;,
  8.493266;-1.979193;5.967781;,
  8.997090;-1.838096;4.898182;,
  5.058519;-0.381183;-8.553067;,
  4.118882;-0.316681;-11.085502;,
  5.105352;0.427022;-9.971662;,
  5.812491;0.138352;-7.990710;,
  5.318475;-0.106338;-5.056140;,
  5.298130;-1.837925;-1.806523;,
  5.852188;-2.841679;-0.693215;,
  7.394145;-0.449212;-4.000820;,
  6.952166;-2.622948;-0.235522;,
  6.937162;1.107460;-6.336702;,
  6.143722;0.381978;-6.377130;,
  5.812491;0.138352;-7.990710;,
  8.026587;0.647487;-4.841046;,
  7.521615;-1.030082;-2.201069;,
  8.389535;0.651378;-4.301169;,
  7.353407;-2.087999;0.523425;,
  8.717918;-0.096986;-2.351345;,
  7.416356;-2.115540;1.849823;,
  9.261146;-0.140884;-1.244070;,
  9.359343;1.054481;-2.567695;,
  9.586197;-0.515102;1.101651;,
  9.269564;-0.313392;2.890944;,
  8.997090;-1.838096;4.898182;,
  9.743410;-0.295382;4.208906;,
  6.143722;0.381978;-6.377130;,
  5.318475;-0.106338;-5.056140;,
  5.058519;-0.381183;-8.553067;,
  5.812491;0.138352;-7.990710;,
  5.105352;0.427022;-9.971662;,
  5.700936;1.694027;-10.147275;,
  4.118882;-0.316681;-11.085502;,
  6.937162;1.107460;-6.336702;,
  5.428220;3.615264;-10.475405;,
  4.887134;4.111578;-12.145934;,
  8.026587;0.647487;-4.841046;,
  6.121046;4.102780;-10.182486;,
  9.106980;1.159764;-3.184401;,
  8.389535;0.651378;-4.301169;,
  8.717918;-0.096986;-2.351345;,
  5.447176;5.462224;-8.662804;,
  6.171554;5.353263;-9.799975;,
  6.285847;7.268778;-8.230146;,
  6.678216;8.559594;-4.403951;,
  7.408222;4.182524;-5.241654;,
  7.408222;4.182524;-5.241654;,
  7.900506;4.336578;-4.305578;,
  5.557155;6.885198;-3.879422;,
  9.359343;1.054481;-2.567695;,
  6.887068;5.654100;-3.745154;,
  7.796792;5.157850;-2.672915;,
  7.796792;5.157850;-2.672915;,
  7.850533;7.223790;-1.339747;,
  7.544824;7.149670;-0.561863;,
  8.591788;8.183408;1.808541;,
  7.039378;8.199506;-0.159570;,
  7.280470;9.609480;0.768329;,
  6.055629;10.750514;-2.630800;,
  6.137512;11.790352;0.043716;,
  6.597490;11.354054;0.928952;,
  5.001428;11.156722;-3.317213;,
  9.261146;-0.140884;-1.244070;,
  8.729225;1.645517;-2.223969;,
  9.261146;-0.140884;-1.244070;,
  9.586197;-0.515102;1.101651;,
  7.544824;7.149670;-0.561863;,
  9.280197;7.562729;1.410816;,
  9.098573;6.363388;4.923862;,
  9.117692;7.986386;2.633309;,
  9.269564;-0.313392;2.890944;,
  8.684758;1.805970;6.027460;,
  8.493266;-1.979193;5.967781;,
  9.743410;-0.295382;4.208906;,
  8.997090;-1.838096;4.898182;,
  6.012550;11.135949;8.351817;,
  4.702630;11.285229;9.197489;,
  5.578018;9.839335;8.432808;,
  3.434486;10.598911;9.591657;,
  3.162983;13.812978;9.834334;,
  -0.209049;9.056114;9.950166;,
  4.869660;13.757960;9.672774;,
  4.104372;14.632659;9.252536;,
  -0.129212;12.332327;9.790699;,
  -0.127276;15.191594;8.068648;,
  -1.964435;13.562670;8.988159;,
  6.012550;11.135949;8.351817;,
  7.599482;12.601419;6.737404;,
  4.702630;11.285229;9.197489;,
  4.601001;12.438410;9.515398;,
  7.547296;13.138179;5.849691;,
  4.869660;13.757960;9.672774;,
  3.434486;10.598911;9.591657;,
  5.970193;14.407480;7.751480;,
  7.599482;12.601419;6.737404;,
  6.012550;11.135949;8.351817;,
  7.847696;9.623653;8.652365;,
  7.929925;8.484997;9.196690;,
  5.578018;9.839335;8.432808;,
  5.837522;7.465102;9.246159;,
  3.434486;10.598911;9.591657;,
  -0.209049;9.056114;9.950166;,
  8.376442;5.530174;8.452197;,
  9.034382;6.839099;8.911698;,
  9.643427;5.383189;8.119898;,
  8.991312;3.659674;6.713925;,
  7.385598;5.157235;9.004918;,
  -5.909750;10.048045;8.943037;,
  -0.129212;12.332327;9.790699;,
  2.898911;4.479238;9.736262;,
  5.923743;4.109692;9.687832;,
  6.637702;2.414683;10.308314;,
  -2.848090;8.289753;10.072422;,
  -9.104392;7.226306;8.669403;,
  -4.621955;5.057804;10.116109;,
  -8.039872;5.626964;8.678274;,
  -10.010001;7.848856;7.590079;,
  -0.157482;4.484588;9.548322;,
  -2.780274;4.365293;9.755140;,
  6.096506;0.950929;11.219650;,
  4.877881;-0.829687;11.422436;,
  2.495708;-0.573756;11.107437;,
  -1.298104;-1.187335;11.228500;,
  -2.682936;-1.736972;10.856720;,
  -2.780274;4.365293;9.755140;,
  8.591788;8.183408;1.808541;,
  7.280470;9.609480;0.768329;,
  8.746503;9.365667;1.283268;,
  8.295218;12.655104;3.210035;,
  6.403653;12.218672;2.063460;,
  6.528032;12.738814;2.620035;,
  6.726382;-3.696862;5.353801;,
  6.676606;-0.247619;6.015970;,
  4.652243;-2.594314;4.359093;,
  8.493266;-1.979193;5.967781;,
  8.684758;1.805970;6.027460;,
  -4.580882;1.555853;-7.792506;,
  -3.911850;0.187073;-8.483494;,
  -5.288871;-0.210762;-8.254862;,
  -5.999477;2.856516;-7.137274;,
  -5.029324;3.361607;-8.264085;,
  -5.172429;5.063965;-8.008710;,
  -5.877604;5.615529;-7.238980;,
  -6.372344;2.096760;-6.484925;,
  -5.172429;5.063965;-8.008710;,
  -4.093619;8.023458;-8.528916;,
  -3.204648;8.134746;-9.355017;,
  -6.458237;8.195298;-6.909285;,
  -5.239925;9.069850;-6.885710;,
  -2.780274;4.365293;9.755140;,
  -4.621955;5.057804;10.116109;,
  -8.039872;5.626964;8.678274;,
  -6.494079;4.596865;8.455855;,
  -10.096702;5.948690;6.325388;,
  -10.516810;6.272638;6.247928;,
  -6.483044;7.585130;-2.045618;,
  -8.099111;7.316887;-0.533319;,
  -7.732547;8.000894;1.674933;,
  -9.749043;7.385671;1.205488;,
  -8.366214;8.387993;3.689842;,
  -10.174176;6.731690;0.255454;,
  -9.311199;7.593970;4.489867;,
  -8.366214;8.387993;3.689842;,
  -10.010001;7.848856;7.590079;,
  -11.255218;7.256610;3.674792;,
  -9.190669;8.183315;7.342064;,
  -5.909750;10.048045;8.943037;,
  -9.104392;7.226306;8.669403;,
  -8.503030;8.808895;6.739570;;
  354;
  3;0,1,2;,
  3;3,4,5;,
  3;6,7,8;,
  3;9,10,11;,
  3;12,13,14;,
  3;15,16,17;,
  3;18,19,20;,
  3;21,22,23;,
  3;24,25,26;,
  3;27,28,29;,
  3;30,31,32;,
  3;33,34,35;,
  3;36,37,38;,
  3;39,40,41;,
  3;42,43,44;,
  3;45,42,46;,
  3;46,47,45;,
  3;48,49,50;,
  3;51,52,49;,
  3;52,51,53;,
  3;53,51,54;,
  3;55,56,57;,
  3;58,59,56;,
  3;60,59,58;,
  3;61,62,63;,
  3;62,64,65;,
  3;64,66,65;,
  3;67,68,69;,
  3;70,71,69;,
  3;72,73,70;,
  3;74,73,72;,
  3;75,74,72;,
  3;71,76,77;,
  3;75,78,74;,
  3;79,78,75;,
  3;80,79,81;,
  3;80,82,79;,
  3;82,78,79;,
  3;78,82,83;,
  3;84,78,83;,
  3;74,78,85;,
  3;86,74,85;,
  3;87,74,86;,
  3;88,86,85;,
  3;86,88,89;,
  3;90,86,89;,
  3;90,91,86;,
  3;90,89,92;,
  3;91,90,93;,
  3;93,94,91;,
  3;94,95,91;,
  3;93,90,96;,
  3;97,95,94;,
  3;98,95,97;,
  3;99,97,96;,
  3;90,99,96;,
  3;90,92,99;,
  3;92,100,99;,
  3;101,99,100;,
  3;101,100,102;,
  3;92,103,100;,
  3;103,92,104;,
  3;105,104,92;,
  3;104,105,106;,
  3;107,106,105;,
  3;107,105,108;,
  3;105,109,108;,
  3;109,110,111;,
  3;112,110,109;,
  3;109,105,112;,
  3;112,105,113;,
  3;105,114,113;,
  3;113,114,115;,
  3;114,105,116;,
  3;116,117,114;,
  3;117,116,118;,
  3;119,120,121;,
  3;122,123,120;,
  3;120,124,122;,
  3;124,125,122;,
  3;122,125,126;,
  3;126,125,127;,
  3;125,124,128;,
  3;129,130,124;,
  3;131,130,129;,
  3;130,132,124;,
  3;133,124,132;,
  3;132,134,133;,
  3;135,134,136;,
  3;136,134,132;,
  3;130,131,137;,
  3;132,130,137;,
  3;137,131,138;,
  3;131,139,138;,
  3;140,138,139;,
  3;138,140,141;,
  3;132,137,142;,
  3;142,143,132;,
  3;144,143,145;,
  3;144,146,143;,
  3;147,148,142;,
  3;147,142,149;,
  3;142,137,149;,
  3;147,149,150;,
  3;150,149,151;,
  3;151,152,150;,
  3;151,153,152;,
  3;153,154,152;,
  3;153,137,154;,
  3;154,137,138;,
  3;155,154,138;,
  3;156,157,155;,
  3;155,158,156;,
  3;155,138,158;,
  3;138,159,158;,
  3;160,159,161;,
  3;160,162,159;,
  3;160,163,162;,
  3;162,164,159;,
  3;162,165,166;,
  3;167,164,162;,
  3;162,166,167;,
  3;167,168,164;,
  3;167,166,169;,
  3;167,169,170;,
  3;171,169,166;,
  3;172,171,166;,
  3;170,171,173;,
  3;174,173,175;,
  3;176,174,177;,
  3;176,177,178;,
  3;168,179,164;,
  3;180,179,168;,
  3;179,180,181;,
  3;182,164,179;,
  3;183,182,179;,
  3;184,185,186;,
  3;185,187,188;,
  3;189,188,190;,
  3;191,188,189;,
  3;191,185,188;,
  3;191,192,185;,
  3;192,193,185;,
  3;191,194,192;,
  3;195,192,194;,
  3;195,196,192;,
  3;197,192,196;,
  3;197,198,192;,
  3;199,198,197;,
  3;200,197,196;,
  3;196,201,200;,
  3;200,201,202;,
  3;203,199,197;,
  3;204,205,201;,
  3;203,201,205;,
  3;206,203,205;,
  3;203,206,207;,
  3;208,199,209;,
  3;199,210,209;,
  3;203,210,199;,
  3;210,203,207;,
  3;207,211,210;,
  3;212,213,214;,
  3;215,213,212;,
  3;216,217,218;,
  3;219,217,216;,
  3;220,221,222;,
  3;222,221,223;,
  3;224,225,226;,
  3;225,227,226;,
  3;227,228,229;,
  3;229,228,230;,
  3;231,232,229;,
  3;231,233,232;,
  3;234,232,233;,
  3;234,235,232;,
  3;234,236,235;,
  3;237,236,238;,
  3;237,235,236;,
  3;239,235,237;,
  3;240,239,241;,
  3;239,242,235;,
  3;240,242,239;,
  3;242,240,243;,
  3;244,242,243;,
  3;245,235,242;,
  3;246,244,247;,
  3;244,246,242;,
  3;248,245,249;,
  3;245,250,249;,
  3;251,250,245;,
  3;250,251,252;,
  3;251,245,242;,
  3;253,251,242;,
  3;254,255,246;,
  3;255,242,246;,
  3;256,253,242;,
  3;253,256,257;,
  3;257,256,258;,
  3;259,242,255;,
  3;260,259,255;,
  3;260,261,259;,
  3;259,261,262;,
  3;263,242,259;,
  3;242,263,264;,
  3;256,242,265;,
  3;266,264,263;,
  3;264,266,265;,
  3;256,265,267;,
  3;266,263,268;,
  3;268,263,269;,
  3;270,268,269;,
  3;266,268,271;,
  3;266,272,265;,
  3;272,267,265;,
  3;271,273,272;,
  3;274,267,272;,
  3;275,272,273;,
  3;256,274,276;,
  3;272,275,277;,
  3;274,272,277;,
  3;277,275,278;,
  3;277,276,274;,
  3;276,277,279;,
  3;276,279,280;,
  3;281,276,280;,
  3;281,280,282;,
  3;283,284,285;,
  3;285,286,283;,
  3;286,287,288;,
  3;287,289,288;,
  3;286,288,290;,
  3;290,288,291;,
  3;291,288,292;,
  3;291,293,290;,
  3;143,294,291;,
  3;291,295,293;,
  3;295,296,293;,
  3;296,295,297;,
  3;298,291,294;,
  3;298,294,299;,
  3;298,299,300;,
  3;301,298,300;,
  3;291,302,295;,
  3;302,291,298;,
  3;295,303,304;,
  3;305,302,298;,
  3;305,298,301;,
  3;306,295,304;,
  3;302,305,307;,
  3;307,308,304;,
  3;309,306,304;,
  3;308,307,310;,
  3;307,305,310;,
  3;308,310,311;,
  3;310,312,311;,
  3;313,305,301;,
  3;312,313,314;,
  3;314,313,301;,
  3;314,301,315;,
  3;314,315,316;,
  3;314,316,317;,
  3;315,318,316;,
  3;319,306,320;,
  3;320,306,309;,
  3;321,320,322;,
  3;322,320,309;,
  3;309,323,324;,
  3;325,322,309;,
  3;309,324,325;,
  3;324,326,325;,
  3;322,325,327;,
  3;327,325,328;,
  3;329,327,328;,
  3;330,327,329;,
  3;331,330,329;,
  3;332,333,334;,
  3;333,335,334;,
  3;335,336,337;,
  3;335,338,336;,
  3;336,338,339;,
  3;340,337,336;,
  3;340,336,341;,
  3;342,340,341;,
  3;343,344,345;,
  3;345,344,346;,
  3;344,347,346;,
  3;348,346,347;,
  3;348,349,346;,
  3;350,348,347;,
  3;351,352,353;,
  3;353,352,354;,
  3;352,355,354;,
  3;356,354,357;,
  3;358,356,357;,
  3;354,356,359;,
  3;354,359,360;,
  3;359,361,360;,
  3;359,362,361;,
  3;358,363,356;,
  3;364,358,365;,
  3;363,358,366;,
  3;366,367,363;,
  3;366,368,367;,
  3;369,358,364;,
  3;370,369,364;,
  3;358,369,371;,
  3;369,370,371;,
  3;371,366,358;,
  3;372,370,373;,
  3;371,370,372;,
  3;374,366,371;,
  3;368,366,374;,
  3;371,375,374;,
  3;368,374,376;,
  3;377,376,378;,
  3;378,376,374;,
  3;379,378,374;,
  3;380,379,77;,
  3;379,374,77;,
  3;374,71,77;,
  3;374,381,71;,
  3;382,383,384;,
  3;384,383,385;,
  3;383,386,385;,
  3;386,387,385;,
  3;388,389,390;,
  3;389,388,391;,
  3;391,392,389;,
  3;393,394,395;,
  3;396,393,395;,
  3;396,397,393;,
  3;397,396,398;,
  3;398,396,399;,
  3;400,399,396;,
  3;401,399,402;,
  3;401,402,403;,
  3;402,399,404;,
  3;405,402,404;,
  3;406,407,408;,
  3;408,409,406;,
  3;410,409,408;,
  3;411,410,408;,
  3;412,413,414;,
  3;415,414,413;,
  3;416,414,415;,
  3;413,417,415;,
  3;418,419,415;,
  3;420,418,415;,
  3;415,421,420;,
  3;420,422,418;,
  3;420,423,422;,
  3;424,423,420;,
  3;422,423,425;;

  MeshNormals {
   426;
   -0.797617;-0.499236;-0.338483;,
   -0.836135;0.146771;-0.528523;,
   -0.740372;-0.545157;-0.393259;,
   0.797770;0.427352;-0.425362;,
   0.644084;0.621060;-0.446587;,
   0.769327;0.509234;-0.385769;,
   0.685168;0.408222;-0.603241;,
   0.615221;0.422387;-0.665652;,
   0.361540;0.785049;-0.502978;,
   0.184271;0.835758;-0.517256;,
   0.481916;0.592449;-0.645570;,
   0.662336;0.720540;-0.205264;,
   -0.435503;0.674368;0.596293;,
   -0.553393;0.548869;0.626497;,
   -0.308201;0.504313;0.806648;,
   0.477736;-0.186021;0.858583;,
   0.340196;0.079613;0.936978;,
   0.503350;-0.151634;0.850674;,
   -0.731902;0.680960;0.024758;,
   -0.841381;0.345012;0.415988;,
   -0.565166;0.807453;0.169139;,
   0.950911;-0.235269;-0.201040;,
   0.745530;-0.558564;-0.363582;,
   0.872490;-0.275348;-0.403664;,
   0.508467;-0.761834;-0.401335;,
   0.718782;-0.539227;-0.438847;,
   0.660085;-0.695334;-0.284250;,
   -0.164879;-0.920764;-0.353566;,
   -0.112784;-0.820616;-0.560240;,
   -0.069717;-0.884945;-0.460448;,
   0.703806;-0.688870;-0.173537;,
   0.790379;-0.607239;-0.081010;,
   0.614485;-0.770817;-0.168077;,
   0.614485;-0.770817;-0.168077;,
   0.711567;-0.678973;-0.180743;,
   0.760103;-0.649260;-0.026556;,
   0.340196;0.079613;0.936978;,
   0.470430;0.473255;0.744799;,
   0.292329;0.365574;0.883685;,
   0.819039;-0.556605;-0.139162;,
   0.836342;-0.514498;-0.189274;,
   0.790115;-0.570270;-0.224745;,
   0.685168;0.408222;-0.603241;,
   0.361540;0.785049;-0.502978;,
   0.663182;0.416651;-0.621765;,
   0.615221;0.422387;-0.665652;,
   0.226169;0.595588;-0.770794;,
   0.361540;0.785049;-0.502978;,
   0.662336;0.720540;-0.205264;,
   0.481916;0.592449;-0.645570;,
   0.800362;0.342006;-0.492395;,
   0.491137;0.667358;-0.559837;,
   0.571521;0.648461;-0.502854;,
   0.433150;0.871600;-0.229555;,
   0.598245;0.780945;0.179523;,
   0.598245;0.780945;0.179523;,
   0.562862;0.822336;0.083364;,
   0.433150;0.871600;-0.229555;,
   0.536986;0.687642;-0.488665;,
   0.433150;0.871600;-0.229555;,
   0.571521;0.648461;-0.502854;,
   -0.505216;0.759699;0.409407;,
   -0.711358;0.440462;0.547689;,
   -0.449950;0.676719;0.582749;,
   -0.758781;0.369137;0.536646;,
   -0.553393;0.548869;0.626497;,
   -0.479357;0.500762;0.720732;,
   -0.726243;-0.491949;0.480165;,
   -0.783696;-0.433842;0.444525;,
   -0.754858;-0.414391;0.508400;,
   -0.671667;-0.375983;0.638358;,
   -0.408730;-0.262311;0.874147;,
   -0.754858;-0.414391;0.508400;,
   -0.766015;-0.629886;0.128313;,
   -0.847727;-0.507801;-0.153286;,
   -0.783696;-0.433842;0.444525;,
   -0.671667;-0.375983;0.638358;,
   -0.320300;-0.305925;0.896559;,
   -0.797617;-0.499236;-0.338483;,
   -0.726243;-0.491949;0.480165;,
   -0.889058;0.072862;0.451959;,
   -0.574545;-0.497279;0.650086;,
   -0.799896;0.588426;-0.117989;,
   -0.670206;0.711369;-0.211609;,
   -0.836135;0.146771;-0.528523;,
   -0.740372;-0.545157;-0.393259;,
   -0.635739;-0.722500;-0.271717;,
   -0.469496;-0.882384;-0.031170;,
   -0.836135;0.146771;-0.528523;,
   -0.585744;0.600855;-0.543945;,
   -0.915919;0.110753;-0.385780;,
   -0.677096;-0.688929;-0.258685;,
   -0.615787;0.755182;-0.224737;,
   -0.687457;-0.095804;-0.719879;,
   -0.972365;-0.129610;-0.194183;,
   -0.531071;-0.362727;-0.765763;,
   -0.972365;-0.129610;-0.194183;,
   -0.944898;-0.318508;0.075637;,
   -0.814198;-0.019092;-0.580273;,
   -0.892419;-0.018749;-0.450818;,
   -0.801493;0.588395;-0.106772;,
   -0.784811;0.266366;-0.559572;,
   -0.289167;0.826404;-0.483154;,
   -0.504067;0.861130;-0.066117;,
   -0.472651;0.724085;-0.502296;,
   -0.601488;0.739468;-0.302323;,
   -0.712854;0.163752;-0.681927;,
   -0.601604;0.603106;-0.523771;,
   -0.731902;0.680960;0.024758;,
   -0.841381;0.345012;0.415988;,
   -0.505216;0.759699;0.409407;,
   -0.565166;0.807453;0.169139;,
   -0.711358;0.440462;0.547689;,
   -0.758781;0.369137;0.536646;,
   -0.679238;0.727679;0.095492;,
   -0.514676;0.526480;0.676703;,
   -0.314166;0.941340;-0.123200;,
   -0.591335;0.798181;-0.115026;,
   -0.454207;0.886510;-0.088296;,
   -0.610888;0.543419;-0.575771;,
   -0.474306;0.421381;-0.772963;,
   -0.840459;0.142143;-0.522900;,
   -0.848549;-0.128016;-0.513397;,
   -0.840459;0.142143;-0.522900;,
   -0.529203;-0.295369;-0.795425;,
   -0.851852;-0.476832;-0.216748;,
   -0.746195;-0.077084;-0.661250;,
   -0.622530;-0.505877;-0.597114;,
   -0.486503;-0.638990;-0.595824;,
   -0.474306;0.421381;-0.772963;,
   -0.046643;0.244424;-0.968546;,
   -0.610888;0.543419;-0.575771;,
   0.117259;0.184488;-0.975815;,
   -0.486503;-0.638990;-0.595824;,
   0.484002;-0.687441;-0.541448;,
   0.842152;-0.217324;-0.493508;,
   0.668404;0.157847;-0.726856;,
   0.226169;0.595588;-0.770794;,
   -0.504067;0.861130;-0.066117;,
   -0.547764;0.540763;-0.638381;,
   -0.289167;0.826404;-0.483154;,
   -0.801493;0.588395;-0.106772;,
   0.294092;0.717395;-0.631549;,
   0.668404;0.157847;-0.726856;,
   0.806052;0.426379;-0.410464;,
   0.294092;0.717395;-0.631549;,
   0.916715;-0.398635;-0.026925;,
   0.879885;0.301661;-0.367154;,
   0.806052;0.426379;-0.410464;,
   0.685168;0.408222;-0.603241;,
   0.906499;0.226281;-0.356450;,
   0.663182;0.416651;-0.621765;,
   0.684465;0.605891;-0.405467;,
   0.361540;0.785049;-0.502978;,
   0.365910;0.860170;-0.355271;,
   0.553887;0.823448;-0.123056;,
   0.184271;0.835758;-0.517256;,
   0.662336;0.720540;-0.205264;,
   0.135775;0.830073;-0.540873;,
   -0.472651;0.724085;-0.502296;,
   -0.601604;0.603106;-0.523771;,
   -0.712854;0.163752;-0.681927;,
   -0.565166;0.807453;0.169139;,
   -0.731902;0.680960;0.024758;,
   0.135775;0.830073;-0.540873;,
   -0.505216;0.759699;0.409407;,
   -0.449950;0.676719;0.582749;,
   0.035523;0.870283;0.491269;,
   -0.026432;0.870251;0.491900;,
   -0.435503;0.674368;0.596293;,
   -0.308201;0.504313;0.806648;,
   -0.553393;0.548869;0.626497;,
   -0.711358;0.440462;0.547689;,
   -0.479357;0.500762;0.720732;,
   -0.514676;0.526480;0.676703;,
   -0.758781;0.369137;0.536646;,
   -0.479357;0.500762;0.720732;,
   -0.178764;0.203807;0.962552;,
   -0.308201;0.504313;0.806648;,
   0.504725;0.811461;0.294591;,
   -0.286959;0.940364;0.182673;,
   0.517090;0.280357;0.808714;,
   0.491137;0.667358;-0.559837;,
   0.598245;0.780945;0.179523;,
   0.266167;0.057954;0.962183;,
   0.374403;0.080725;0.923745;,
   0.389592;-0.249893;0.886438;,
   0.104635;0.408236;0.906860;,
   0.554170;0.178521;0.813035;,
   0.758644;-0.643238;0.103463;,
   0.780356;-0.182668;0.598062;,
   0.806905;-0.526313;0.268139;,
   0.626570;-0.538372;0.563529;,
   0.389592;-0.249893;0.886438;,
   0.496858;-0.540903;0.678643;,
   0.612332;-0.168882;0.772353;,
   0.995427;-0.038041;-0.087624;,
   0.836342;-0.514498;-0.189274;,
   0.773810;-0.370558;0.513716;,
   0.547238;-0.008218;0.836937;,
   0.790115;-0.570270;-0.224745;,
   0.957964;0.233432;-0.166779;,
   0.819039;-0.556605;-0.139162;,
   0.819039;-0.556605;-0.139162;,
   0.707127;0.218673;-0.672424;,
   0.679338;0.041831;-0.732632;,
   0.536986;0.687642;-0.488665;,
   0.562862;0.822336;0.083364;,
   0.470430;0.473255;0.744799;,
   0.533855;0.442174;0.720750;,
   0.546186;0.562663;0.620557;,
   0.598245;0.780945;0.179523;,
   0.870104;0.370468;-0.325074;,
   0.707127;0.218673;-0.672424;,
   0.957964;0.233432;-0.166779;,
   0.808710;0.372822;-0.454964;,
   0.885856;0.402650;-0.230506;,
   0.815815;0.438895;-0.376586;,
   0.707127;0.218673;-0.672424;,
   0.784965;0.476881;-0.395492;,
   0.481916;0.592449;-0.645570;,
   0.184271;0.835758;-0.517256;,
   0.491137;0.667358;-0.559837;,
   0.135775;0.830073;-0.540873;,
   0.496858;-0.540903;0.678643;,
   0.806905;-0.526313;0.268139;,
   0.632196;-0.736436;0.240812;,
   0.758644;-0.643238;0.103463;,
   0.780356;-0.182668;0.598062;,
   0.625039;-0.769374;-0.131869;,
   0.427637;-0.614552;0.662912;,
   0.427637;-0.614552;0.662912;,
   0.235972;-0.929845;0.282322;,
   -0.054566;-0.407167;0.911722;,
   0.096152;-0.409700;0.907139;,
   0.048214;-0.977328;0.206167;,
   -0.095222;-0.753356;0.650682;,
   -0.671667;-0.375983;0.638358;,
   -0.320300;-0.305925;0.896559;,
   -0.766015;-0.629886;0.128313;,
   -0.469496;-0.882384;-0.031170;,
   -0.847727;-0.507801;-0.153286;,
   -0.164879;-0.920764;-0.353566;,
   -0.635739;-0.722500;-0.271717;,
   -0.677096;-0.688929;-0.258685;,
   0.235972;-0.929845;0.282322;,
   -0.622530;-0.505877;-0.597114;,
   -0.531071;-0.362727;-0.765763;,
   0.625039;-0.769374;-0.131869;,
   0.758644;-0.643238;0.103463;,
   0.632196;-0.736436;0.240812;,
   -0.430207;-0.694458;0.576758;,
   0.496858;-0.540903;0.678643;,
   -0.009699;-0.811508;0.584260;,
   -0.851852;-0.476832;-0.216748;,
   -0.486503;-0.638990;-0.595824;,
   0.614485;-0.770817;-0.168077;,
   0.648495;-0.417482;0.636524;,
   0.760103;-0.649260;-0.026556;,
   0.486324;-0.864668;-0.125848;,
   0.484002;-0.687441;-0.541448;,
   0.784009;-0.511674;-0.351453;,
   0.710050;-0.679638;-0.184174;,
   0.606098;-0.783319;-0.138049;,
   -0.112784;-0.820616;-0.560240;,
   -0.069717;-0.884945;-0.460448;,
   0.508467;-0.761834;-0.401335;,
   0.703806;-0.688870;-0.173537;,
   0.588609;-0.694493;-0.413787;,
   0.609317;-0.791689;0.044288;,
   0.710050;-0.679638;-0.184174;,
   0.718782;-0.539227;-0.438847;,
   0.660085;-0.695334;-0.284250;,
   0.759111;-0.439767;-0.479954;,
   0.790379;-0.607239;-0.081010;,
   0.745530;-0.558564;-0.363582;,
   0.711567;-0.678973;-0.180743;,
   0.998790;-0.004913;0.048925;,
   0.950911;-0.235269;-0.201040;,
   0.916279;-0.397360;-0.050379;,
   0.952028;-0.296727;0.074810;,
   0.760103;-0.649260;-0.026556;,
   0.706615;0.695728;0.129063;,
   0.609317;-0.791689;0.044288;,
   0.606098;-0.783319;-0.138049;,
   0.486324;-0.864668;-0.125848;,
   0.710050;-0.679638;-0.184174;,
   0.784009;-0.511674;-0.351453;,
   0.842152;-0.217324;-0.493508;,
   0.484002;-0.687441;-0.541448;,
   0.588609;-0.694493;-0.413787;,
   0.932548;-0.241007;-0.268831;,
   0.668404;0.157847;-0.726856;,
   0.718782;-0.539227;-0.438847;,
   0.916715;-0.398635;-0.026925;,
   0.872490;-0.275348;-0.403664;,
   0.759111;-0.439767;-0.479954;,
   0.745530;-0.558564;-0.363582;,
   0.988859;-0.086612;0.121063;,
   0.806052;0.426379;-0.410464;,
   0.879885;0.301661;-0.367154;,
   0.906499;0.226281;-0.356450;,
   0.797770;0.427352;-0.425362;,
   0.797770;0.427352;-0.425362;,
   0.769327;0.509234;-0.385769;,
   0.784965;0.476881;-0.395492;,
   0.950911;-0.235269;-0.201040;,
   0.644084;0.621060;-0.446587;,
   0.895761;0.342983;-0.282799;,
   0.895761;0.342983;-0.282799;,
   0.885856;0.402650;-0.230506;,
   0.808710;0.372822;-0.454964;,
   0.707127;0.218673;-0.672424;,
   0.815815;0.438895;-0.376586;,
   0.800362;0.342006;-0.492395;,
   0.684465;0.605891;-0.405467;,
   0.553887;0.823448;-0.123056;,
   0.662336;0.720540;-0.205264;,
   0.365910;0.860170;-0.355271;,
   0.998790;-0.004913;0.048925;,
   0.880288;0.318871;0.351303;,
   0.998790;-0.004913;0.048925;,
   0.916279;-0.397360;-0.050379;,
   0.808710;0.372822;-0.454964;,
   0.870104;0.370468;-0.325074;,
   0.995427;-0.038041;-0.087624;,
   0.957964;0.233432;-0.166779;,
   0.952028;-0.296727;0.074810;,
   0.612332;-0.168882;0.772353;,
   0.648495;-0.417482;0.636524;,
   0.706615;0.695728;0.129063;,
   0.760103;-0.649260;-0.026556;,
   0.416508;0.198470;0.887204;,
   0.503350;-0.151634;0.850674;,
   0.292329;0.365574;0.883685;,
   0.340196;0.079613;0.936978;,
   -0.026432;0.870251;0.491900;,
   0.020083;0.023652;0.999519;,
   0.517090;0.280357;0.808714;,
   -0.286959;0.940364;0.182673;,
   -0.178764;0.203807;0.962552;,
   0.035523;0.870283;0.491269;,
   -0.308201;0.504313;0.806648;,
   0.416508;0.198470;0.887204;,
   0.546186;0.562663;0.620557;,
   0.503350;-0.151634;0.850674;,
   0.477736;-0.186021;0.858583;,
   0.598245;0.780945;0.179523;,
   0.517090;0.280357;0.808714;,
   0.340196;0.079613;0.936978;,
   0.504725;0.811461;0.294591;,
   0.546186;0.562663;0.620557;,
   0.416508;0.198470;0.887204;,
   0.533855;0.442174;0.720750;,
   0.470430;0.473255;0.744799;,
   0.292329;0.365574;0.883685;,
   0.266167;0.057954;0.962183;,
   0.340196;0.079613;0.936978;,
   0.020083;0.023652;0.999519;,
   0.389592;-0.249893;0.886438;,
   0.547238;-0.008218;0.836937;,
   0.773810;-0.370558;0.513716;,
   0.626570;-0.538372;0.563529;,
   0.374403;0.080725;0.923745;,
   -0.514676;0.526480;0.676703;,
   -0.178764;0.203807;0.962552;,
   0.037438;0.114831;0.992679;,
   0.104635;0.408236;0.906860;,
   0.554170;0.178521;0.813035;,
   -0.075465;0.198944;0.977101;,
   -0.633097;0.096279;0.768062;,
   -0.252745;-0.554087;0.793163;,
   -0.574545;-0.497279;0.650086;,
   -0.889058;0.072862;0.451959;,
   -0.065424;-0.340029;0.938136;,
   -0.076732;-0.863369;0.498704;,
   0.780356;-0.182668;0.598062;,
   0.427637;-0.614552;0.662912;,
   -0.054566;-0.407167;0.911722;,
   0.096152;-0.409700;0.907139;,
   -0.095222;-0.753356;0.650682;,
   -0.076732;-0.863369;0.498704;,
   0.707127;0.218673;-0.672424;,
   0.800362;0.342006;-0.492395;,
   0.679338;0.041831;-0.732632;,
   0.536986;0.687642;-0.488665;,
   0.481916;0.592449;-0.645570;,
   0.571521;0.648461;-0.502854;,
   -0.009699;-0.811508;0.584260;,
   0.496858;-0.540903;0.678643;,
   -0.430207;-0.694458;0.576758;,
   0.648495;-0.417482;0.636524;,
   0.612332;-0.168882;0.772353;,
   -0.746195;-0.077084;-0.661250;,
   -0.622530;-0.505877;-0.597114;,
   -0.531071;-0.362727;-0.765763;,
   -0.814198;-0.019092;-0.580273;,
   -0.848549;-0.128016;-0.513397;,
   -0.840459;0.142143;-0.522900;,
   -0.892419;-0.018749;-0.450818;,
   -0.944898;-0.318508;0.075637;,
   -0.840459;0.142143;-0.522900;,
   -0.547764;0.540763;-0.638381;,
   -0.610888;0.543419;-0.575771;,
   -0.784811;0.266366;-0.559572;,
   -0.289167;0.826404;-0.483154;,
   -0.076732;-0.863369;0.498704;,
   -0.252745;-0.554087;0.793163;,
   -0.574545;-0.497279;0.650086;,
   -0.408730;-0.262311;0.874147;,
   -0.754858;-0.414391;0.508400;,
   -0.726243;-0.491949;0.480165;,
   -0.615787;0.755182;-0.224737;,
   -0.585744;0.600855;-0.543945;,
   -0.601488;0.739468;-0.302323;,
   -0.670206;0.711369;-0.211609;,
   -0.314166;0.941340;-0.123200;,
   -0.836135;0.146771;-0.528523;,
   -0.454207;0.886510;-0.088296;,
   -0.314166;0.941340;-0.123200;,
   -0.889058;0.072862;0.451959;,
   -0.799896;0.588426;-0.117989;,
   -0.591335;0.798181;-0.115026;,
   -0.514676;0.526480;0.676703;,
   -0.633097;0.096279;0.768062;,
   -0.679238;0.727679;0.095492;;
   354;
   3;0,1,2;,
   3;3,4,5;,
   3;6,7,8;,
   3;9,10,11;,
   3;12,13,14;,
   3;15,16,17;,
   3;18,19,20;,
   3;21,22,23;,
   3;24,25,26;,
   3;27,28,29;,
   3;30,31,32;,
   3;33,34,35;,
   3;36,37,38;,
   3;39,40,41;,
   3;42,43,44;,
   3;45,42,46;,
   3;46,47,45;,
   3;48,49,50;,
   3;51,52,49;,
   3;52,51,53;,
   3;53,51,54;,
   3;55,56,57;,
   3;58,59,56;,
   3;60,59,58;,
   3;61,62,63;,
   3;62,64,65;,
   3;64,66,65;,
   3;67,68,69;,
   3;70,71,69;,
   3;72,73,70;,
   3;74,73,72;,
   3;75,74,72;,
   3;71,76,77;,
   3;75,78,74;,
   3;79,78,75;,
   3;80,79,81;,
   3;80,82,79;,
   3;82,78,79;,
   3;78,82,83;,
   3;84,78,83;,
   3;74,78,85;,
   3;86,74,85;,
   3;87,74,86;,
   3;88,86,85;,
   3;86,88,89;,
   3;90,86,89;,
   3;90,91,86;,
   3;90,89,92;,
   3;91,90,93;,
   3;93,94,91;,
   3;94,95,91;,
   3;93,90,96;,
   3;97,95,94;,
   3;98,95,97;,
   3;99,97,96;,
   3;90,99,96;,
   3;90,92,99;,
   3;92,100,99;,
   3;101,99,100;,
   3;101,100,102;,
   3;92,103,100;,
   3;103,92,104;,
   3;105,104,92;,
   3;104,105,106;,
   3;107,106,105;,
   3;107,105,108;,
   3;105,109,108;,
   3;109,110,111;,
   3;112,110,109;,
   3;109,105,112;,
   3;112,105,113;,
   3;105,114,113;,
   3;113,114,115;,
   3;114,105,116;,
   3;116,117,114;,
   3;117,116,118;,
   3;119,120,121;,
   3;122,123,120;,
   3;120,124,122;,
   3;124,125,122;,
   3;122,125,126;,
   3;126,125,127;,
   3;125,124,128;,
   3;129,130,124;,
   3;131,130,129;,
   3;130,132,124;,
   3;133,124,132;,
   3;132,134,133;,
   3;135,134,136;,
   3;136,134,132;,
   3;130,131,137;,
   3;132,130,137;,
   3;137,131,138;,
   3;131,139,138;,
   3;140,138,139;,
   3;138,140,141;,
   3;132,137,142;,
   3;142,143,132;,
   3;144,143,145;,
   3;144,146,143;,
   3;147,148,142;,
   3;147,142,149;,
   3;142,137,149;,
   3;147,149,150;,
   3;150,149,151;,
   3;151,152,150;,
   3;151,153,152;,
   3;153,154,152;,
   3;153,137,154;,
   3;154,137,138;,
   3;155,154,138;,
   3;156,157,155;,
   3;155,158,156;,
   3;155,138,158;,
   3;138,159,158;,
   3;160,159,161;,
   3;160,162,159;,
   3;160,163,162;,
   3;162,164,159;,
   3;162,165,166;,
   3;167,164,162;,
   3;162,166,167;,
   3;167,168,164;,
   3;167,166,169;,
   3;167,169,170;,
   3;171,169,166;,
   3;172,171,166;,
   3;170,171,173;,
   3;174,173,175;,
   3;176,174,177;,
   3;176,177,178;,
   3;168,179,164;,
   3;180,179,168;,
   3;179,180,181;,
   3;182,164,179;,
   3;183,182,179;,
   3;184,185,186;,
   3;185,187,188;,
   3;189,188,190;,
   3;191,188,189;,
   3;191,185,188;,
   3;191,192,185;,
   3;192,193,185;,
   3;191,194,192;,
   3;195,192,194;,
   3;195,196,192;,
   3;197,192,196;,
   3;197,198,192;,
   3;199,198,197;,
   3;200,197,196;,
   3;196,201,200;,
   3;200,201,202;,
   3;203,199,197;,
   3;204,205,201;,
   3;203,201,205;,
   3;206,203,205;,
   3;203,206,207;,
   3;208,199,209;,
   3;199,210,209;,
   3;203,210,199;,
   3;210,203,207;,
   3;207,211,210;,
   3;212,213,214;,
   3;215,213,212;,
   3;216,217,218;,
   3;219,217,216;,
   3;220,221,222;,
   3;222,221,223;,
   3;224,225,226;,
   3;225,227,226;,
   3;227,228,229;,
   3;229,228,230;,
   3;231,232,229;,
   3;231,233,232;,
   3;234,232,233;,
   3;234,235,232;,
   3;234,236,235;,
   3;237,236,238;,
   3;237,235,236;,
   3;239,235,237;,
   3;240,239,241;,
   3;239,242,235;,
   3;240,242,239;,
   3;242,240,243;,
   3;244,242,243;,
   3;245,235,242;,
   3;246,244,247;,
   3;244,246,242;,
   3;248,245,249;,
   3;245,250,249;,
   3;251,250,245;,
   3;250,251,252;,
   3;251,245,242;,
   3;253,251,242;,
   3;254,255,246;,
   3;255,242,246;,
   3;256,253,242;,
   3;253,256,257;,
   3;257,256,258;,
   3;259,242,255;,
   3;260,259,255;,
   3;260,261,259;,
   3;259,261,262;,
   3;263,242,259;,
   3;242,263,264;,
   3;256,242,265;,
   3;266,264,263;,
   3;264,266,265;,
   3;256,265,267;,
   3;266,263,268;,
   3;268,263,269;,
   3;270,268,269;,
   3;266,268,271;,
   3;266,272,265;,
   3;272,267,265;,
   3;271,273,272;,
   3;274,267,272;,
   3;275,272,273;,
   3;256,274,276;,
   3;272,275,277;,
   3;274,272,277;,
   3;277,275,278;,
   3;277,276,274;,
   3;276,277,279;,
   3;276,279,280;,
   3;281,276,280;,
   3;281,280,282;,
   3;283,284,285;,
   3;285,286,283;,
   3;286,287,288;,
   3;287,289,288;,
   3;286,288,290;,
   3;290,288,291;,
   3;291,288,292;,
   3;291,293,290;,
   3;143,294,291;,
   3;291,295,293;,
   3;295,296,293;,
   3;296,295,297;,
   3;298,291,294;,
   3;298,294,299;,
   3;298,299,300;,
   3;301,298,300;,
   3;291,302,295;,
   3;302,291,298;,
   3;295,303,304;,
   3;305,302,298;,
   3;305,298,301;,
   3;306,295,304;,
   3;302,305,307;,
   3;307,308,304;,
   3;309,306,304;,
   3;308,307,310;,
   3;307,305,310;,
   3;308,310,311;,
   3;310,312,311;,
   3;313,305,301;,
   3;312,313,314;,
   3;314,313,301;,
   3;314,301,315;,
   3;314,315,316;,
   3;314,316,317;,
   3;315,318,316;,
   3;319,306,320;,
   3;320,306,309;,
   3;321,320,322;,
   3;322,320,309;,
   3;309,323,324;,
   3;325,322,309;,
   3;309,324,325;,
   3;324,326,325;,
   3;322,325,327;,
   3;327,325,328;,
   3;329,327,328;,
   3;330,327,329;,
   3;331,330,329;,
   3;332,333,334;,
   3;333,335,334;,
   3;335,336,337;,
   3;335,338,336;,
   3;336,338,339;,
   3;340,337,336;,
   3;340,336,341;,
   3;342,340,341;,
   3;343,344,345;,
   3;345,344,346;,
   3;344,347,346;,
   3;348,346,347;,
   3;348,349,346;,
   3;350,348,347;,
   3;351,352,353;,
   3;353,352,354;,
   3;352,355,354;,
   3;356,354,357;,
   3;358,356,357;,
   3;354,356,359;,
   3;354,359,360;,
   3;359,361,360;,
   3;359,362,361;,
   3;358,363,356;,
   3;364,358,365;,
   3;363,358,366;,
   3;366,367,363;,
   3;366,368,367;,
   3;369,358,364;,
   3;370,369,364;,
   3;358,369,371;,
   3;369,370,371;,
   3;371,366,358;,
   3;372,370,373;,
   3;371,370,372;,
   3;374,366,371;,
   3;368,366,374;,
   3;371,375,374;,
   3;368,374,376;,
   3;377,376,378;,
   3;378,376,374;,
   3;379,378,374;,
   3;380,379,77;,
   3;379,374,77;,
   3;374,71,77;,
   3;374,381,71;,
   3;382,383,384;,
   3;384,383,385;,
   3;383,386,385;,
   3;386,387,385;,
   3;388,389,390;,
   3;389,388,391;,
   3;391,392,389;,
   3;393,394,395;,
   3;396,393,395;,
   3;396,397,393;,
   3;397,396,398;,
   3;398,396,399;,
   3;400,399,396;,
   3;401,399,402;,
   3;401,402,403;,
   3;402,399,404;,
   3;405,402,404;,
   3;406,407,408;,
   3;408,409,406;,
   3;410,409,408;,
   3;411,410,408;,
   3;412,413,414;,
   3;415,414,413;,
   3;416,414,415;,
   3;413,417,415;,
   3;418,419,415;,
   3;420,418,415;,
   3;415,421,420;,
   3;420,422,418;,
   3;420,423,422;,
   3;424,423,420;,
   3;422,423,425;;
  }

  MeshMaterialList {
   1;
   354;
   0,
   0,
   0,
   0,
   0,
   0,
   0,
   0,
   0,
   0,
   0,
   0,
   0,
   0,
   0,
   0,
   0,
   0,
   0,
   0,
   0,
   0,
   0,
   0,
   0,
   0,
   0,
   0,
   0,
   0,
   0,
   0,
   0,
   0,
   0,
   0,
   0,
   0,
   0,
   0,
   0,
   0,
   0,
   0,
   0,
   0,
   0,
   0,
   0,
   0,
   0,
   0,
   0,
   0,
   0,
   0,
   0,
   0,
   0,
   0,
   0,
   0,
   0,
   0,
   0,
   0,
   0,
   0,
   0,
   0,
   0,
   0,
   0,
   0,
   0,
   0,
   0,
   0,
   0,
   0,
   0,
   0,
   0,
   0,
   0,
   0,
   0,
   0,
   0,
   0,
   0,
   0,
   0,
   0,
   0,
   0,
   0,
   0,
   0,
   0,
   0,
   0,
   0,
   0,
   0,
   0,
   0,
   0,
   0,
   0,
   0,
   0,
   0,
   0,
   0,
   0,
   0,
   0,
   0,
   0,
   0,
   0,
   0,
   0,
   0,
   0,
   0,
   0,
   0,
   0,
   0,
   0,
   0,
   0,
   0,
   0,
   0,
   0,
   0,
   0,
   0,
   0,
   0,
   0,
   0,
   0,
   0,
   0,
   0,
   0,
   0,
   0,
   0,
   0,
   0,
   0,
   0,
   0,
   0,
   0,
   0,
   0,
   0,
   0,
   0,
   0,
   0,
   0,
   0,
   0,
   0,
   0,
   0,
   0,
   0,
   0,
   0,
   0,
   0,
   0,
   0,
   0,
   0,
   0,
   0,
   0,
   0,
   0,
   0,
   0,
   0,
   0,
   0,
   0,
   0,
   0,
   0,
   0,
   0,
   0,
   0,
   0,
   0,
   0,
   0,
   0,
   0,
   0,
   0,
   0,
   0,
   0,
   0,
   0,
   0,
   0,
   0,
   0,
   0,
   0,
   0,
   0,
   0,
   0,
   0,
   0,
   0,
   0,
   0,
   0,
   0,
   0,
   0,
   0,
   0,
   0,
   0,
   0,
   0,
   0,
   0,
   0,
   0,
   0,
   0,
   0,
   0,
   0,
   0,
   0,
   0,
   0,
   0,
   0,
   0,
   0,
   0,
   0,
   0,
   0,
   0,
   0,
   0,
   0,
   0,
   0,
   0,
   0,
   0,
   0,
   0,
   0,
   0,
   0,
   0,
   0,
   0,
   0,
   0,
   0,
   0,
   0,
   0,
   0,
   0,
   0,
   0,
   0,
   0,
   0,
   0,
   0,
   0,
   0,
   0,
   0,
   0,
   0,
   0,
   0,
   0,
   0,
   0,
   0,
   0,
   0,
   0,
   0,
   0,
   0,
   0,
   0,
   0,
   0,
   0,
   0,
   0,
   0,
   0,
   0,
   0,
   0,
   0,
   0,
   0,
   0,
   0,
   0,
   0,
   0,
   0,
   0,
   0,
   0,
   0,
   0,
   0,
   0,
   0,
   0,
   0,
   0,
   0,
   0,
   0,
   0,
   0,
   0,
   0,
   0,
   0,
   0,
   0,
   0;
   { MI_MountainRock }
  }

  MeshTextureCoords c1 {
   426;
   -0.382324;-0.360840;,
   -0.378662;-0.433350;,
   -0.364990;-0.402344;,
   0.207275;-0.744629;,
   0.177979;-0.882324;,
   0.289307;-0.770020;,
   -0.101685;-0.812012;,
   -0.134399;-0.797852;,
   -0.153076;-0.837402;,
   -0.774414;-0.875977;,
   -0.859375;-0.902344;,
   -0.830078;-0.957520;,
   -0.767090;-0.509766;,
   -0.739746;-0.469727;,
   -0.831543;-0.473877;,
   -1.001953;-0.638184;,
   -1.025391;-0.584961;,
   -1.035156;-0.633301;,
   -0.601074;-0.551270;,
   -0.595703;-0.524902;,
   -0.634277;-0.547852;,
   0.297607;-0.562500;,
   0.267822;-0.507324;,
   0.277832;-0.586914;,
   0.196045;-0.514648;,
   0.205200;-0.572266;,
   0.225342;-0.461426;,
   0.143066;-0.349609;,
   0.150879;-0.404053;,
   0.180542;-0.367188;,
   0.220093;-0.367188;,
   0.252197;-0.356201;,
   0.246338;-0.253662;,
   0.246338;-0.253662;,
   0.273682;-0.311768;,
   0.345703;-0.226318;,
   -0.930176;0.210693;,
   -0.822266;0.518555;,
   -0.943359;0.377441;,
   -0.905762;0.827148;,
   -0.803223;0.728516;,
   -0.837402;0.833008;,
   -0.101685;-0.812012;,
   -0.153076;-0.837402;,
   -0.123169;-0.858398;,
   -0.134399;-0.797852;,
   -0.150391;-0.700684;,
   -0.153076;-0.837402;,
   -0.830078;-0.957520;,
   -0.859375;-0.902344;,
   -0.863281;-1.034180;,
   -0.897949;-0.853027;,
   -0.882813;-0.886719;,
   -0.944824;-0.845703;,
   -0.998047;-0.795898;,
   -1.173828;0.631836;,
   -1.159180;0.702637;,
   -1.250977;0.746582;,
   -1.168945;0.805664;,
   -1.250977;0.746582;,
   -1.268555;0.866699;,
   -0.651855;-0.520508;,
   -0.639648;-0.490723;,
   -0.699707;-0.511719;,
   -0.630371;-0.470459;,
   -0.739746;-0.469727;,
   -0.783691;-0.432861;,
   -0.434814;-0.318848;,
   -0.395020;-0.321533;,
   -0.430176;-0.305420;,
   -0.286865;-0.180298;,
   -0.444336;-0.182739;,
   -0.430176;-0.305420;,
   -0.287598;-0.275146;,
   -0.270020;-0.306641;,
   -0.395020;-0.321533;,
   -0.286865;-0.180298;,
   -0.250977;-0.069519;,
   -0.382324;-0.360840;,
   -0.434814;-0.318848;,
   -0.484619;-0.324707;,
   -0.470703;-0.242188;,
   -0.415283;-0.372803;,
   -0.401611;-0.430420;,
   -0.378662;-0.433350;,
   -0.364990;-0.402344;,
   -0.185913;-0.383057;,
   -0.212280;-0.334961;,
   -0.378662;-0.433350;,
   -0.368408;-0.482178;,
   -0.272705;-0.525879;,
   -0.161987;-0.424072;,
   -0.353271;-0.541992;,
   -0.226318;-0.496338;,
   -0.229126;-0.524902;,
   -0.136719;-0.508789;,
   -0.229126;-0.524902;,
   -0.186157;-0.524902;,
   -0.186157;-0.538574;,
   -0.223755;-0.566895;,
   -0.318359;-0.593750;,
   -0.269287;-0.598145;,
   -0.274658;-0.619629;,
   -0.384033;-0.644043;,
   -0.447510;-0.693848;,
   -0.435303;-0.468750;,
   -0.460938;-0.641113;,
   -0.560547;-0.559082;,
   -0.601074;-0.551270;,
   -0.595703;-0.524902;,
   -0.651855;-0.520508;,
   -0.634277;-0.547852;,
   -0.639648;-0.490723;,
   -0.630371;-0.470459;,
   -0.527832;-0.355713;,
   -0.655762;-0.300293;,
   -0.466797;-0.417725;,
   -0.509277;-0.334229;,
   -0.455322;-0.384521;,
   -0.191284;-0.640625;,
   -0.140869;-0.615234;,
   -0.199219;-0.574219;,
   -0.173950;-0.557617;,
   -0.199219;-0.574219;,
   -0.115295;-0.581543;,
   -0.117798;-0.543945;,
   -0.150024;-0.534180;,
   -0.112976;-0.520020;,
   -0.113098;-0.572266;,
   -0.140869;-0.615234;,
   -0.128784;-0.617188;,
   -0.191284;-0.640625;,
   -0.066345;-0.640625;,
   -0.113098;-0.572266;,
   0.013092;-0.597656;,
   0.033142;-0.630859;,
   -0.017670;-0.668457;,
   -0.150391;-0.700684;,
   -0.384033;-0.644043;,
   -0.217041;-0.627441;,
   -0.274658;-0.619629;,
   -0.318359;-0.593750;,
   -0.035553;-0.729492;,
   -0.017670;-0.668457;,
   0.003706;-0.716309;,
   -0.035553;-0.729492;,
   0.008499;-0.694336;,
   -0.015518;-0.770508;,
   0.003706;-0.716309;,
   -0.101685;-0.812012;,
   -0.029251;-0.900391;,
   -0.123169;-0.858398;,
   -0.163818;-0.968262;,
   -0.153076;-0.837402;,
   -0.189087;-0.928223;,
   -0.271484;-1.056641;,
   -0.360596;-1.040039;,
   -0.270264;-1.120117;,
   -0.383789;-0.941895;,
   -0.447510;-0.693848;,
   -0.560547;-0.559082;,
   -0.460938;-0.641113;,
   -0.634277;-0.547852;,
   -0.601074;-0.551270;,
   -0.688477;-0.827637;,
   -0.651855;-0.520508;,
   -0.699707;-0.511719;,
   -0.827637;-0.570313;,
   -0.940430;-0.621582;,
   -0.767090;-0.509766;,
   -0.831543;-0.473877;,
   -0.739746;-0.469727;,
   -0.639648;-0.490723;,
   -0.783691;-0.432861;,
   -0.655762;-0.300293;,
   -0.630371;-0.470459;,
   -0.908203;-0.272217;,
   -0.960449;-0.089355;,
   -0.971680;-0.229126;,
   -0.963867;-0.718262;,
   -0.955566;-0.653320;,
   -0.973633;-0.655273;,
   -0.897949;-0.853027;,
   -0.998047;-0.795898;,
   -0.732422;0.392090;,
   -0.588867;0.505859;,
   -0.633301;0.575195;,
   -0.498779;0.404541;,
   -0.377197;0.433105;,
   -0.196045;0.533203;,
   -0.277100;0.385986;,
   -0.408203;0.707031;,
   -0.537109;0.735352;,
   -0.633301;0.575195;,
   -0.178955;0.779297;,
   -0.406006;0.811523;,
   -0.745117;0.842773;,
   -0.803223;0.728516;,
   -0.658691;0.647461;,
   -0.727051;0.591797;,
   -0.837402;0.833008;,
   -0.905273;0.946777;,
   -0.905762;0.827148;,
   -0.905762;0.827148;,
   -0.947754;1.005859;,
   -1.023438;0.980469;,
   -1.168945;0.805664;,
   -1.159180;0.702637;,
   -0.822266;0.518555;,
   -0.901367;0.534180;,
   -1.113281;0.590820;,
   -1.173828;0.631836;,
   0.785645;-0.607910;,
   0.855957;-0.639648;,
   0.859863;-0.551758;,
   0.681152;-0.761719;,
   0.097900;-1.101563;,
   -0.030350;-1.127930;,
   -0.056000;-1.310547;,
   0.073181;-0.896484;,
   -0.859375;-0.902344;,
   -0.774414;-0.875977;,
   -0.897949;-0.853027;,
   -0.688477;-0.827637;,
   -0.178955;0.779297;,
   -0.408203;0.707031;,
   -0.124634;0.640625;,
   -0.196045;0.533203;,
   -0.277100;0.385986;,
   -0.123657;0.429443;,
   -0.194702;0.317383;,
   -0.194702;0.317383;,
   -0.008423;0.141846;,
   -0.196289;0.183350;,
   -0.213135;0.004547;,
   -0.028885;-0.010384;,
   -0.204834;-0.040833;,
   -0.286865;-0.180298;,
   -0.250977;-0.069519;,
   -0.287598;-0.275146;,
   -0.212280;-0.334961;,
   -0.270020;-0.306641;,
   0.143066;-0.349609;,
   -0.185913;-0.383057;,
   -0.161987;-0.424072;,
   0.065247;0.016037;,
   -0.112976;-0.520020;,
   -0.136719;-0.508789;,
   0.257568;0.131470;,
   0.322754;0.099976;,
   0.289307;0.007866;,
   0.168579;-0.170044;,
   0.355957;-0.078369;,
   0.264160;-0.188110;,
   -0.117798;-0.543945;,
   -0.113098;-0.572266;,
   0.246338;-0.253662;,
   0.347900;-0.187622;,
   0.345703;-0.226318;,
   0.060211;-0.567871;,
   0.013092;-0.597656;,
   0.036011;-0.602051;,
   0.082642;-0.576660;,
   0.125122;-0.507813;,
   0.150879;-0.404053;,
   0.180542;-0.367188;,
   0.196045;-0.514648;,
   0.220093;-0.367188;,
   0.144409;-0.587402;,
   0.120972;-0.558594;,
   0.082642;-0.576660;,
   0.205200;-0.572266;,
   0.225342;-0.461426;,
   0.226196;-0.569824;,
   0.252197;-0.356201;,
   0.267822;-0.507324;,
   0.273682;-0.311768;,
   0.306396;-0.475830;,
   0.297607;-0.562500;,
   0.349609;-0.375977;,
   0.393311;-0.298340;,
   0.345703;-0.226318;,
   0.374268;-0.267578;,
   0.120972;-0.558594;,
   0.125122;-0.507813;,
   0.060211;-0.567871;,
   0.082642;-0.576660;,
   0.036011;-0.602051;,
   0.033142;-0.630859;,
   0.013092;-0.597656;,
   0.144409;-0.587402;,
   0.013176;-0.678711;,
   -0.017670;-0.668457;,
   0.205200;-0.572266;,
   0.008499;-0.694336;,
   0.277832;-0.586914;,
   0.226196;-0.569824;,
   0.267822;-0.507324;,
   0.038788;-0.731934;,
   0.003706;-0.716309;,
   -0.015518;-0.770508;,
   -0.029251;-0.900391;,
   0.207275;-0.744629;,
   0.207275;-0.744629;,
   0.289307;-0.770020;,
   0.073181;-0.896484;,
   0.297607;-0.562500;,
   0.177979;-0.882324;,
   0.270020;-0.966309;,
   0.463135;-0.753418;,
   0.097900;-1.101563;,
   0.106567;-1.168945;,
   -0.056000;-1.310547;,
   -0.030350;-1.127930;,
   -0.139038;-1.167969;,
   -0.163818;-0.968262;,
   -0.271484;-1.056641;,
   -0.270264;-1.120117;,
   -0.189087;-0.928223;,
   0.306396;-0.475830;,
   0.342041;-0.581055;,
   0.306396;-0.475830;,
   0.349609;-0.375977;,
   0.681152;-0.761719;,
   0.785645;-0.607910;,
   0.822754;-0.364014;,
   0.859863;-0.551758;,
   0.393311;-0.298340;,
   0.557129;-0.165527;,
   0.347900;-0.187622;,
   0.374268;-0.267578;,
   0.345703;-0.226318;,
   -1.058594;-0.682129;,
   -1.035156;-0.633301;,
   -1.098633;-0.643555;,
   -1.025391;-0.584961;,
   -0.940430;-0.621582;,
   -1.015625;-0.461426;,
   -0.973633;-0.655273;,
   -0.955566;-0.653320;,
   -0.930664;-0.507324;,
   -0.827637;-0.570313;,
   -0.831543;-0.473877;,
   -1.058594;-0.682129;,
   -1.026367;-0.771484;,
   -1.035156;-0.633301;,
   -1.001953;-0.638184;,
   -0.998047;-0.795898;,
   -0.973633;-0.655273;,
   -1.025391;-0.584961;,
   -0.963867;-0.718262;,
   -1.113281;0.590820;,
   -1.024414;0.448486;,
   -0.901367;0.534180;,
   -0.822266;0.518555;,
   -0.954102;0.397705;,
   -0.732422;0.392090;,
   -0.930176;0.210693;,
   -0.778809;0.000140;,
   -0.633301;0.575195;,
   -0.727051;0.591797;,
   -0.658691;0.647461;,
   -0.537109;0.735352;,
   -0.588867;0.505859;,
   -0.655762;-0.300293;,
   -0.960449;-0.089355;,
   -0.510254;0.221069;,
   -0.498779;0.404541;,
   -0.377197;0.433105;,
   -0.676758;-0.112061;,
   -0.498047;-0.293213;,
   -0.517090;-0.126587;,
   -0.470703;-0.242188;,
   -0.484619;-0.324707;,
   -0.493408;0.072021;,
   -0.494385;-0.042572;,
   -0.277100;0.385986;,
   -0.194702;0.317383;,
   -0.196289;0.183350;,
   -0.213135;0.004547;,
   -0.204834;-0.040833;,
   -0.494385;-0.042572;,
   -0.947754;1.005859;,
   -1.096680;1.043945;,
   -1.023438;0.980469;,
   -1.168945;0.805664;,
   -1.251953;0.919434;,
   -1.268555;0.866699;,
   0.264160;-0.188110;,
   0.355957;-0.078369;,
   0.168579;-0.170044;,
   0.347900;-0.187622;,
   0.557129;-0.165527;,
   -0.150024;-0.534180;,
   -0.112976;-0.520020;,
   -0.136719;-0.508789;,
   -0.186157;-0.538574;,
   -0.173950;-0.557617;,
   -0.199219;-0.574219;,
   -0.223755;-0.566895;,
   -0.186157;-0.524902;,
   -0.199219;-0.574219;,
   -0.217041;-0.627441;,
   -0.191284;-0.640625;,
   -0.269287;-0.598145;,
   -0.274658;-0.619629;,
   -0.494385;-0.042572;,
   -0.517090;-0.126587;,
   -0.470703;-0.242188;,
   -0.444336;-0.182739;,
   -0.430176;-0.305420;,
   -0.434814;-0.318848;,
   -0.353271;-0.541992;,
   -0.368408;-0.482178;,
   -0.435303;-0.468750;,
   -0.401611;-0.430420;,
   -0.466797;-0.417725;,
   -0.378662;-0.433350;,
   -0.455322;-0.384521;,
   -0.466797;-0.417725;,
   -0.484619;-0.324707;,
   -0.415283;-0.372803;,
   -0.509277;-0.334229;,
   -0.655762;-0.300293;,
   -0.498047;-0.293213;,
   -0.527832;-0.355713;;
  }

  MeshTextureCoords c2 {
   426;
   0.250000;0.168701;,
   0.262939;0.107544;,
   0.276367;0.131470;,
   0.340576;0.124756;,
   0.346924;0.165039;,
   0.333496;0.145264;,
   0.555664;0.103760;,
   0.557129;0.089539;,
   0.575195;0.082336;,
   0.087280;0.779785;,
   0.044128;0.792480;,
   0.043762;0.764648;,
   0.385742;0.104675;,
   0.401611;0.084229;,
   0.400879;0.113220;,
   0.136230;0.078674;,
   0.149780;0.097229;,
   0.135376;0.101624;,
   0.197144;0.092957;,
   0.203003;0.113709;,
   0.178467;0.085327;,
   0.015671;0.107117;,
   0.000499;0.118103;,
   0.006336;0.089722;,
   0.084045;0.135864;,
   0.070923;0.136963;,
   0.100891;0.101135;,
   0.231689;0.141846;,
   0.210693;0.113953;,
   0.235230;0.130005;,
   0.171753;0.147095;,
   0.162964;0.131226;,
   0.180908;0.098389;,
   0.583984;0.129761;,
   0.562988;0.161987;,
   0.565430;0.103577;,
   0.334961;0.124695;,
   0.346191;0.091370;,
   0.355713;0.108398;,
   0.202515;0.119690;,
   0.198242;0.146240;,
   0.182739;0.128418;,
   0.302979;0.201172;,
   0.271973;0.208618;,
   0.286133;0.188965;,
   0.282471;0.219360;,
   0.305420;0.288818;,
   0.270264;0.219116;,
   0.702637;0.555664;,
   0.687500;0.527344;,
   0.740723;0.566406;,
   0.657227;0.500977;,
   0.677734;0.513672;,
   0.672852;0.482178;,
   0.667480;0.464111;,
   0.007668;0.873047;,
   -0.008583;0.851563;,
   0.023132;0.835938;,
   -0.000658;0.819824;,
   0.034332;0.817383;,
   0.039581;0.805176;,
   0.490479;0.112671;,
   0.500977;0.097534;,
   0.489502;0.134155;,
   0.518555;0.098022;,
   0.512207;0.149658;,
   0.522461;0.133423;,
   0.424561;0.110291;,
   0.449219;0.110779;,
   0.431397;0.119080;,
   0.995117;0.362061;,
   0.464600;0.199463;,
   0.842285;0.330811;,
   0.963867;0.282959;,
   0.964844;0.250000;,
   0.854492;0.309570;,
   0.578613;0.172241;,
   0.583496;0.254150;,
   0.840820;0.274902;,
   0.828125;0.341309;,
   0.797363;0.373779;,
   0.842285;0.383545;,
   0.798828;0.290039;,
   0.788574;0.231445;,
   0.799805;0.209961;,
   0.825195;0.232300;,
   0.977051;0.150879;,
   0.994141;0.207031;,
   0.791504;0.196045;,
   0.784668;0.187744;,
   0.813965;0.092590;,
   0.977539;0.093994;,
   0.773926;0.150146;,
   0.869141;0.087585;,
   0.838379;0.064880;,
   0.925781;-0.013542;,
   0.839844;0.062805;,
   0.883789;0.030075;,
   0.861816;0.022552;,
   0.801270;0.028290;,
   0.737305;0.097229;,
   0.746094;0.045197;,
   0.727051;0.044434;,
   0.711426;0.125366;,
   0.693359;0.159180;,
   0.776367;0.237183;,
   0.699707;0.183350;,
   0.648438;0.253174;,
   0.625977;0.278809;,
   0.650391;0.291016;,
   0.633301;0.324463;,
   0.620117;0.299316;,
   0.655762;0.332520;,
   0.674805;0.333984;,
   0.773926;0.353271;,
   0.743164;0.381592;,
   0.773926;0.284424;,
   0.789551;0.366699;,
   0.793945;0.302734;,
   0.591309;0.180664;,
   0.303223;0.489990;,
   0.325195;0.590820;,
   0.090515;0.221191;,
   0.978516;0.100342;,
   0.227905;0.335693;,
   0.150146;0.189209;,
   0.132080;0.224731;,
   0.153076;0.202515;,
   0.148804;0.136230;,
   0.138184;0.340820;,
   0.146484;0.321045;,
   0.286377;0.564453;,
   0.167358;0.237915;,
   0.258057;0.319580;,
   0.263184;0.179077;,
   0.224609;0.143066;,
   0.169922;0.165039;,
   0.212402;0.561523;,
   0.303711;0.706543;,
   0.302979;0.584961;,
   0.322021;0.626953;,
   0.333984;0.693359;,
   0.112061;0.533203;,
   0.822754;0.860352;,
   0.649414;0.081360;,
   0.632813;0.107239;,
   0.379395;0.119019;,
   0.080017;0.556152;,
   0.092346;0.529785;,
   0.121399;0.607422;,
   0.059387;0.641113;,
   0.108765;0.630859;,
   0.066528;0.687988;,
   0.129028;0.622070;,
   0.091125;0.677734;,
   0.056213;0.748535;,
   0.087280;0.779785;,
   0.043762;0.764648;,
   0.140137;0.769531;,
   0.274902;0.739258;,
   0.321289;0.831543;,
   0.292969;0.763184;,
   0.284424;0.876953;,
   0.312012;0.856934;,
   0.140137;0.769531;,
   0.284180;0.901856;,
   0.257324;0.921387;,
   0.164429;0.951172;,
   0.088989;0.974609;,
   0.219971;0.947754;,
   0.201416;0.971680;,
   0.241211;0.946289;,
   0.268066;0.923828;,
   0.225342;0.967773;,
   0.271729;0.966309;,
   0.302246;0.917481;,
   0.225342;0.967773;,
   0.163330;0.977051;,
   0.201416;0.971680;,
   0.035156;0.922363;,
   0.070374;0.961426;,
   0.043396;0.947266;,
   0.034943;0.817871;,
   0.007668;0.873047;,
   0.813477;0.381348;,
   0.863281;0.398926;,
   0.849121;0.407715;,
   0.888672;0.382324;,
   0.927734;0.375977;,
   0.969238;0.413330;,
   0.962402;0.358643;,
   0.920410;0.454346;,
   0.889160;0.458984;,
   0.853027;0.413086;,
   0.947754;0.471680;,
   0.927734;0.479004;,
   0.824219;0.490723;,
   0.804688;0.456299;,
   0.855469;0.425049;,
   0.825684;0.401123;,
   0.790527;0.490723;,
   0.781738;0.536133;,
   0.779297;0.508301;,
   0.772949;0.500000;,
   0.774414;0.551758;,
   0.752930;0.558105;,
   0.681152;0.506836;,
   0.674805;0.466553;,
   0.790527;0.386230;,
   0.764160;0.394531;,
   0.692871;0.427002;,
   0.678223;0.444580;,
   -0.000898;0.125244;,
   0.012947;0.138306;,
   0.005650;0.144409;,
   0.026245;0.097290;,
   0.011497;0.145386;,
   0.025223;0.177002;,
   -0.002058;0.194214;,
   0.069885;0.095825;,
   0.049683;0.210083;,
   0.053009;0.251709;,
   0.025925;0.206787;,
   0.051239;0.302734;,
   0.709473;0.870117;,
   0.744629;0.894531;,
   0.693359;0.906250;,
   0.710938;0.934570;,
   0.713379;0.988281;,
   0.700684;0.949707;,
   0.697266;0.987793;,
   0.687500;0.991211;,
   0.629395;0.938477;,
   0.635254;0.992676;,
   0.553711;1.005859;,
   0.590332;0.938477;,
   0.522461;1.000000;,
   0.393311;0.967285;,
   0.498047;1.010742;,
   0.342285;0.891602;,
   0.375977;0.816895;,
   0.345459;0.863281;,
   0.645996;0.729980;,
   0.386475;0.767578;,
   0.389648;0.705078;,
   0.629395;0.938477;,
   0.436523;0.590820;,
   0.407471;0.599121;,
   0.700684;0.949707;,
   0.710938;0.934570;,
   0.693359;0.906250;,
   0.660156;0.833496;,
   0.709473;0.870117;,
   0.707520;0.845215;,
   0.433105;0.565918;,
   0.439453;0.526367;,
   0.701660;0.800781;,
   0.748047;0.858398;,
   0.755371;0.833984;,
   0.629395;0.559570;,
   0.589844;0.505371;,
   0.625977;0.530762;,
   0.647461;0.570801;,
   0.645996;0.635254;,
   0.654785;0.700195;,
   0.669922;0.719727;,
   0.693848;0.650391;,
   0.695313;0.727051;,
   0.677246;0.605957;,
   0.659668;0.605469;,
   0.658691;0.581543;,
   0.705078;0.633301;,
   0.701660;0.687012;,
   0.714355;0.644043;,
   0.706543;0.743652;,
   0.727539;0.683105;,
   0.711914;0.771973;,
   0.742676;0.705078;,
   0.743652;0.683594;,
   0.756836;0.753906;,
   0.755371;0.793945;,
   0.743164;0.817871;,
   0.770020;0.821289;,
   0.921875;0.748535;,
   0.936523;0.729004;,
   0.932129;0.795410;,
   0.922363;0.783691;,
   0.910156;0.824219;,
   0.881836;0.826172;,
   0.923340;0.848145;,
   0.906250;0.748047;,
   0.838867;0.826660;,
   0.835938;0.848633;,
   0.920410;0.720215;,
   0.828613;0.821289;,
   0.914063;0.685547;,
   0.921875;0.709473;,
   0.944336;0.669434;,
   0.803711;0.781250;,
   0.802246;0.809082;,
   0.765137;0.769043;,
   0.748047;0.682129;,
   0.838379;0.717773;,
   0.841797;0.716309;,
   0.841309;0.696777;,
   0.786621;0.671875;,
   0.918457;0.672852;,
   0.813965;0.676758;,
   0.828125;0.657715;,
   0.828125;0.657715;,
   0.786621;0.622070;,
   0.790527;0.604004;,
   0.774902;0.552246;,
   0.769043;0.590332;,
   0.740723;0.566406;,
   0.705566;0.634277;,
   0.690430;0.572266;,
   0.702637;0.555664;,
   0.694336;0.644531;,
   0.948731;0.646973;,
   0.911133;0.665527;,
   0.952637;0.635742;,
   0.963867;0.597656;,
   0.790527;0.604004;,
   0.787109;0.564941;,
   0.824219;0.490723;,
   0.781738;0.536133;,
   0.964844;0.556152;,
   0.927734;0.479004;,
   1.010742;0.491211;,
   0.968262;0.528809;,
   1.003906;0.515625;,
   0.329590;0.459229;,
   0.330811;0.446777;,
   0.356201;0.450195;,
   0.344238;0.409668;,
   0.279541;0.405762;,
   0.377197;0.334961;,
   0.280029;0.440430;,
   0.260986;0.423584;,
   0.308594;0.328613;,
   0.246948;0.332764;,
   0.263184;0.302490;,
   0.729980;0.390625;,
   0.692871;0.427002;,
   0.729492;0.367188;,
   0.705078;0.356445;,
   0.678223;0.444580;,
   0.676758;0.349854;,
   0.724609;0.355957;,
   0.656250;0.393799;,
   0.295166;0.487793;,
   0.329590;0.459229;,
   0.361084;0.497559;,
   0.385742;0.500488;,
   0.356201;0.450195;,
   0.406982;0.457275;,
   0.344238;0.409668;,
   0.377197;0.334961;,
   0.443848;0.506836;,
   0.418457;0.521973;,
   0.445801;0.531738;,
   0.462158;0.516602;,
   0.453125;0.487793;,
   0.354736;0.214600;,
   0.308594;0.328613;,
   0.469482;0.397217;,
   0.476563;0.459473;,
   0.512695;0.475342;,
   0.393311;0.280518;,
   0.411865;0.146973;,
   0.459473;0.243164;,
   0.444336;0.168457;,
   0.420654;0.135376;,
   0.469238;0.333496;,
   0.472412;0.279785;,
   0.544922;0.466553;,
   0.582031;0.441406;,
   0.576172;0.391357;,
   0.589355;0.313232;,
   0.597656;0.282227;,
   0.473145;0.251465;,
   0.678711;0.210938;,
   0.651855;0.182251;,
   0.682129;0.185913;,
   0.679199;0.116638;,
   0.638672;0.135010;,
   0.637207;0.113098;,
   0.308594;0.199829;,
   0.296875;0.124878;,
   0.360596;0.182739;,
   0.275146;0.173828;,
   0.274902;0.106201;,
   0.034943;0.493164;,
   0.048309;0.524414;,
   0.015472;0.535156;,
   0.003189;0.463379;,
   0.021118;0.462402;,
   0.019470;0.440186;,
   0.006763;0.394775;,
   -0.003857;0.484375;,
   0.021027;0.405762;,
   0.046478;0.330566;,
   0.065247;0.324951;,
   -0.005299;0.332031;,
   0.024734;0.310547;,
   0.609863;0.358154;,
   0.601074;0.328613;,
   0.612793;0.246582;,
   0.624512;0.277588;,
   0.653320;0.197266;,
   0.626953;0.207886;,
   0.069397;0.290771;,
   0.099243;0.327393;,
   0.084412;0.375488;,
   0.128906;0.369873;,
   0.091614;0.421631;,
   0.141113;0.349121;,
   0.109497;0.439453;,
   0.104431;0.428467;,
   0.114746;0.508789;,
   0.153442;0.427246;,
   0.097961;0.501953;,
   0.032898;0.535156;,
   0.082275;0.528320;,
   0.085022;0.488770;;
  }
 }
}