xof 0303txt 0032
template ColorRGBA {
 <35ff44e0-6c7c-11cf-8f52-0040333594a3>
 FLOAT red;
 FLOAT green;
 FLOAT blue;
 FLOAT alpha;
}

template ColorRGB {
 <d3e16e81-7835-11cf-8f52-0040333594a3>
 FLOAT red;
 FLOAT green;
 FLOAT blue;
}

template Material {
 <3d82ab4d-62da-11cf-ab39-0020af71e433>
 ColorRGBA faceColor;
 FLOAT power;
 ColorRGB specularColor;
 ColorRGB emissiveColor;
 [...]
}

template TextureFilename {
 <a42790e1-7810-11cf-8f52-0040333594a3>
 STRING filename;
}

template Frame {
 <3d82ab46-62da-11cf-ab39-0020af71e433>
 [...]
}

template Matrix4x4 {
 <f6f23f45-7686-11cf-8f52-0040333594a3>
 array FLOAT matrix[16];
}

template FrameTransformMatrix {
 <f6f23f41-7686-11cf-8f52-0040333594a3>
 Matrix4x4 frameMatrix;
}

template Vector {
 <3d82ab5e-62da-11cf-ab39-0020af71e433>
 FLOAT x;
 FLOAT y;
 FLOAT z;
}

template MeshFace {
 <3d82ab5f-62da-11cf-ab39-0020af71e433>
 DWORD nFaceVertexIndices;
 array DWORD faceVertexIndices[nFaceVertexIndices];
}

template Mesh {
 <3d82ab44-62da-11cf-ab39-0020af71e433>
 DWORD nVertices;
 array Vector vertices[nVertices];
 DWORD nFaces;
 array MeshFace faces[nFaces];
 [...]
}

template MeshNormals {
 <f6f23f43-7686-11cf-8f52-0040333594a3>
 DWORD nNormals;
 array Vector normals[nNormals];
 DWORD nFaceNormals;
 array MeshFace faceNormals[nFaceNormals];
}

template MeshMaterialList {
 <f6f23f42-7686-11cf-8f52-0040333594a3>
 DWORD nMaterials;
 DWORD nFaceIndexes;
 array DWORD faceIndexes[nFaceIndexes];
 [Material <3d82ab4d-62da-11cf-ab39-0020af71e433>]
}

template Coords2d {
 <f6f23f44-7686-11cf-8f52-0040333594a3>
 FLOAT u;
 FLOAT v;
}

template MeshTextureCoords {
 <f6f23f40-7686-11cf-8f52-0040333594a3>
 DWORD nTextureCoords;
 array Coords2d textureCoords[nTextureCoords];
}


Material MI_MountainRock {
 1.000000;1.000000;1.000000;1.000000;;
 10.000000;
 0.000000;0.000000;0.000000;;
 0.000000;0.000000;0.000000;;

 TextureFilename {
  "tree_mud_diffuse.tga";
 }
}

Frame SM_Peeble_01 {
 

 FrameTransformMatrix {
  1.000000,0.000000,0.000000,0.000000,0.000000,1.000000,0.000000,0.000000,0.000000,0.000000,1.000000,0.000000,0.000000,0.000000,0.000000,1.000000;;
 }

 Mesh SM_Peeble_01 {
  466;
  -1.638353;3.064539;10.011242;,
  -2.405083;2.378296;9.865477;,
  -2.914783;1.877648;11.065979;,
  -4.582144;-2.721264;6.568612;,
  -2.709860;-3.778107;8.242622;,
  -4.233450;-2.444920;8.680874;,
  -7.836331;-2.064629;2.611567;,
  -6.821802;-2.240849;4.419985;,
  -7.821198;-1.775020;3.705360;,
  7.026465;6.846054;-0.852257;,
  7.716456;6.019032;-0.393177;,
  7.522526;3.305791;-0.145922;,
  -3.405892;6.411880;-5.020401;,
  -3.802216;5.403194;-5.693001;,
  -3.154305;6.276215;-3.325802;,
  1.646653;7.386774;-4.979996;,
  2.284662;7.785287;-2.009781;,
  2.210491;7.905630;-4.192184;,
  7.716456;6.019032;-0.393177;,
  9.199385;0.657150;0.731813;,
  7.522526;3.305791;-0.145922;,
  2.962234;0.768150;-5.505524;,
  3.139202;2.016521;-5.886284;,
  3.297371;1.272419;-6.050865;,
  4.492174;1.259659;10.188018;,
  3.240038;1.653841;10.530464;,
  3.831909;0.812401;10.170372;,
  -0.282135;6.012360;9.858700;,
  1.347019;7.160614;10.383186;,
  -0.983059;7.422308;9.731403;,
  -1.776589;5.962634;-4.559532;,
  -0.324728;6.327957;-3.062683;,
  -0.325968;6.539791;-4.104019;,
  4.440582;-4.071079;12.564681;,
  5.046949;-3.866974;11.114798;,
  4.937876;-3.546932;11.614128;,
  6.153318;8.210472;-1.273335;,
  6.962470;8.868973;0.233997;,
  7.223446;7.452370;-0.536709;,
  -2.128830;7.766718;7.880822;,
  -1.222920;7.794530;7.390999;,
  -3.469215;7.185843;7.477406;,
  3.812454;-4.048258;4.592926;,
  4.184734;-3.578018;4.223160;,
  4.578677;-3.249809;5.542389;,
  -3.030287;-1.791765;12.146736;,
  -1.927582;-1.966427;11.893814;,
  -0.968816;-2.462549;12.449982;,
  8.736694;0.611210;0.368505;,
  7.522526;3.305791;-0.145922;,
  9.199385;0.657150;0.731813;,
  1.347019;7.160614;10.383186;,
  1.574780;8.944248;10.532494;,
  0.686474;8.864998;9.053970;,
  5.046949;-3.866974;11.114798;,
  6.643898;-2.962765;10.968437;,
  4.937876;-3.546932;11.614128;,
  1.003309;-4.162739;11.964600;,
  1.588948;-4.239704;8.172130;,
  2.221546;-3.641355;7.870125;,
  3.129539;-4.362883;5.917328;,
  2.929211;-5.034445;4.834835;,
  3.059547;-5.031278;3.699055;,
  -7.920078;4.500778;-2.491177;,
  -7.278297;5.105373;-3.146576;,
  -8.578447;4.192898;-2.332771;,
  -1.459988;6.363849;10.277018;,
  -2.287689;3.673412;9.689293;,
  -0.942173;4.067506;10.167099;,
  10.027123;-2.799385;5.904186;,
  8.145826;-3.258076;8.465405;,
  10.274206;-2.858200;4.439064;,
  7.432279;-3.096565;2.420193;,
  9.809157;-2.692963;2.439762;,
  4.578677;-3.249809;5.542389;,
  6.657169;-3.005047;1.979279;,
  5.046949;-3.866974;11.114798;,
  8.145826;-3.258076;8.465405;,
  6.643898;-2.962765;10.968437;,
  4.440582;-4.071079;12.564681;,
  1.003309;-4.162739;11.964600;,
  2.221546;-3.641355;7.870125;,
  2.103966;-4.975814;7.192376;,
  1.588948;-4.239704;8.172130;,
  -2.367142;-3.873241;6.949146;,
  0.238277;-4.820608;6.956948;,
  3.129539;-4.362883;5.917328;,
  2.101879;-5.359136;5.233421;,
  2.929211;-5.034445;4.834835;,
  3.812454;-4.048258;4.592926;,
  3.059547;-5.031278;3.699055;,
  4.184734;-3.578018;4.223160;,
  4.319660;-4.409948;1.104849;,
  4.879114;-3.335320;2.162792;,
  6.023354;3.580700;-6.147388;,
  6.384624;0.337151;-6.229046;,
  5.916660;2.531811;-6.370140;,
  6.590042;-2.526375;-6.228691;,
  7.319150;-3.546146;-2.257728;,
  7.102997;-1.549393;-0.703841;,
  6.999340;-3.326222;-0.992991;,
  6.968402;1.444277;-0.553750;,
  6.365584;-0.271845;0.488006;,
  7.522526;3.305791;-0.145922;,
  6.203249;5.007168;-4.536209;,
  6.023354;3.580700;-6.147388;,
  7.026465;6.846054;-0.852257;,
  5.532957;8.271927;-4.219726;,
  6.153318;8.210472;-1.273335;,
  7.223446;7.452370;-0.536709;,
  7.716456;6.019032;-0.393177;,
  6.962470;8.868973;0.233997;,
  6.508063;9.162506;2.691494;,
  9.199385;0.657150;0.731813;,
  7.192822;8.915050;4.369017;,
  10.274206;-2.858200;4.439064;,
  9.809157;-2.692963;2.439762;,
  9.412144;-1.496483;1.178371;,
  8.695718;-2.830246;1.266502;,
  8.361142;-1.302788;0.665527;,
  10.027123;-2.799385;5.904186;,
  6.643898;-2.962765;10.968437;,
  8.145826;-3.258076;8.465405;,
  6.967066;-1.567490;10.284127;,
  6.223770;0.953678;10.168907;,
  4.676086;4.869900;10.609688;,
  5.275200;2.852119;10.705181;,
  5.647650;9.491971;6.199880;,
  3.078999;6.768064;10.961222;,
  3.556839;8.202866;10.176230;,
  3.520485;9.012614;10.298419;,
  5.098507;9.799211;7.259350;,
  3.338371;9.914929;10.086992;,
  -7.445185;0.660316;4.653425;,
  -6.364086;-0.217327;5.434893;,
  -5.713562;-1.068214;8.010128;,
  -7.013017;0.091618;7.705649;,
  -3.644951;6.947586;6.342866;,
  -3.209961;7.635334;5.932903;,
  -4.044413;7.020103;4.329004;,
  -3.469215;7.185843;7.477406;,
  5.950943;-3.093750;-0.343023;,
  6.006104;-2.758492;0.391587;,
  5.563919;-2.791470;1.026112;,
  6.365584;-0.271845;0.488006;,
  -8.504637;-1.125465;2.561593;,
  -7.681832;-1.174492;-0.176011;,
  -7.836331;-2.064629;2.611567;,
  -7.622986;-2.143467;0.875649;,
  -6.978120;4.814770;0.338158;,
  -8.608931;4.043102;0.662092;,
  -7.940430;4.492958;1.283346;,
  -7.147882;4.416859;-0.655232;,
  1.208466;5.504276;10.697388;,
  1.934666;5.331323;10.693783;,
  2.401672;5.971461;11.031412;,
  3.723584;3.835390;10.905268;,
  3.398628;3.432476;10.519256;,
  5.275200;2.852119;10.705181;,
  -4.320451;7.807602;0.967926;,
  -4.492930;8.463072;-2.063225;,
  -4.939325;7.788671;-1.102596;,
  -2.586508;9.419536;0.912445;,
  1.368233;10.709017;3.117329;,
  2.403137;10.040090;8.122033;,
  3.219010;11.106304;5.559696;,
  -3.316923;8.985449;1.579987;,
  -3.179075;8.348728;3.589264;,
  3.726116;10.604273;5.261036;,
  2.403137;10.040090;8.122033;,
  5.098507;9.799211;7.259350;,
  5.647650;9.491971;6.199880;,
  3.243920;10.124603;8.704166;,
  3.338371;9.914929;10.086992;,
  -3.209961;7.635334;5.932903;,
  -3.810999;7.478138;3.273014;,
  0.686474;8.864998;9.053970;,
  3.243920;10.124603;8.704166;,
  3.338371;9.914929;10.086992;,
  3.520485;9.012614;10.298419;,
  -4.044413;7.020103;4.329004;,
  1.574780;8.944248;10.532494;,
  3.556839;8.202866;10.176230;,
  3.078999;6.768064;10.961222;,
  -1.222920;7.794530;7.390999;,
  -3.469215;7.185843;7.477406;,
  1.347019;7.160614;10.383186;,
  -0.983059;7.422308;9.731403;,
  -2.128830;7.766718;7.880822;,
  -6.742614;6.230686;8.708179;,
  -3.644951;6.947586;6.342866;,
  -5.499239;6.517997;5.375653;,
  -7.408346;6.476627;6.119382;,
  -1.459988;6.363849;10.277018;,
  -0.282135;6.012360;9.858700;,
  -6.414778;3.368500;8.428503;,
  -5.292807;5.817658;3.526085;,
  -5.634848;5.768261;4.260647;,
  -4.786209;7.008070;0.815540;,
  -5.437694;6.585640;-0.282684;,
  -5.713562;-1.068214;8.010128;,
  -7.013017;0.091618;7.705649;,
  -5.362271;0.518578;8.317713;,
  -4.927148;-0.130802;8.730606;,
  -4.767975;2.267757;8.742222;,
  -2.287689;3.673412;9.689293;,
  -0.942173;4.067506;10.167099;,
  -2.405083;2.378296;9.865477;,
  -2.914783;1.877648;11.065979;,
  -1.638353;3.064539;10.011242;,
  -3.151009;1.509893;12.813348;,
  -4.773075;1.514004;10.733021;,
  -4.932280;0.225563;12.100773;,
  -0.857822;2.226269;13.453141;,
  1.208466;5.504276;10.697388;,
  2.401672;5.971461;11.031412;,
  3.723584;3.835390;10.905268;,
  5.275200;2.852119;10.705181;,
  4.676086;4.869900;10.609688;,
  3.240038;1.653841;10.530464;,
  2.021950;0.854720;13.812339;,
  2.835121;2.959957;10.463510;,
  1.934666;5.331323;10.693783;,
  3.398628;3.432476;10.519256;,
  5.395691;1.681133;10.466003;,
  6.223770;0.953678;10.168907;,
  4.492174;1.259659;10.188018;,
  5.146673;0.535887;10.173137;,
  6.967066;-1.567490;10.284127;,
  3.831909;0.812401;10.170372;,
  4.937876;-3.546932;11.614128;,
  6.643898;-2.962765;10.968437;,
  3.518454;-2.331122;13.447640;,
  4.440582;-4.071079;12.564681;,
  4.492174;1.259659;10.188018;,
  5.395691;1.681133;10.466003;,
  2.835121;2.959957;10.463510;,
  5.146673;0.535887;10.173137;,
  6.223770;0.953678;10.168907;,
  -0.968816;-2.462549;12.449982;,
  -0.741600;-2.879389;11.474296;,
  -0.283096;-4.121850;11.581215;,
  -0.973917;-4.048038;10.915169;,
  -1.937967;-3.157421;9.818726;,
  -6.742614;6.230686;8.708179;,
  -7.013017;0.091618;7.705649;,
  -6.414778;3.368500;8.428503;,
  -7.408346;6.476627;6.119382;,
  -7.445185;0.660316;4.653425;,
  -8.153572;5.444164;3.387564;,
  -8.790758;4.908333;3.248392;,
  -7.821198;-1.775020;3.705360;,
  -8.504637;-1.125465;2.561593;,
  -7.836331;-2.064629;2.611567;,
  -8.852837;3.643143;2.144173;,
  -7.681832;-1.174492;-0.176011;,
  -7.821198;-1.775020;3.705360;,
  -6.364086;-0.217327;5.434893;,
  -6.821802;-2.240849;4.419985;,
  -9.438584;3.948791;0.883362;,
  -8.694765;3.953422;1.765127;,
  -4.233450;-2.444920;8.680874;,
  -4.582144;-2.721264;6.568612;,
  -5.713562;-1.068214;8.010128;,
  -8.578447;4.192898;-2.332771;,
  -8.447414;1.008816;-4.305691;,
  -7.679009;-2.055031;-3.163004;,
  -7.622986;-2.143467;0.875649;,
  -7.780136;-0.920132;-5.789722;,
  -7.199181;0.065350;-5.943604;,
  -2.709860;-3.778107;8.242622;,
  -5.076158;-0.988819;10.950866;,
  -4.927148;-0.130802;8.730606;,
  -5.362271;0.518578;8.317713;,
  -4.773075;1.514004;10.733021;,
  -4.767975;2.267757;8.742222;,
  -4.932280;0.225563;12.100773;,
  -6.978120;4.814770;0.338158;,
  -7.940430;4.492958;1.283346;,
  -7.172218;4.449417;2.275499;,
  -8.694765;3.953422;1.765127;,
  -8.608931;4.043102;0.662092;,
  -9.438584;3.948791;0.883362;,
  -7.147882;4.416859;-0.655232;,
  -8.578447;4.192898;-2.332771;,
  -7.920078;4.500778;-2.491177;,
  -6.414723;4.908398;-1.731846;,
  -8.447414;1.008816;-4.305691;,
  -8.578447;4.192898;-2.332771;,
  -7.199181;0.065350;-5.943604;,
  -7.278297;5.105373;-3.146576;,
  -3.802216;5.403194;-5.693001;,
  -4.635563;5.211658;-3.214813;,
  -5.998489;5.988953;-1.789662;,
  -5.459164;6.514141;-1.904770;,
  -3.154305;6.276215;-3.325802;,
  -4.492930;8.463072;-2.063225;,
  1.368233;10.709017;3.117329;,
  -3.405892;6.411880;-5.020401;,
  -3.101479;6.244772;-5.618118;,
  3.219010;11.106304;5.559696;,
  3.726116;10.604273;5.261036;,
  5.647650;9.491971;6.199880;,
  -1.776589;5.962634;-4.559532;,
  -1.699518;5.936794;-5.207245;,
  0.749608;6.838533;-0.969338;,
  -0.325968;6.539791;-4.104019;,
  -0.324728;6.327957;-3.062683;,
  0.682922;7.377606;-4.951874;,
  1.531124;7.351551;-1.256241;,
  0.801301;7.124512;-3.646217;,
  2.305207;8.015553;-1.190277;,
  3.376659;7.624147;1.298676;,
  4.246981;8.328892;-0.851368;,
  2.284662;7.785287;-2.009781;,
  1.559506;7.679535;-2.206516;,
  1.646653;7.386774;-4.979996;,
  4.008953;7.612786;0.905090;,
  4.073010;8.049423;2.371277;,
  4.422374;8.507887;3.055672;,
  6.508063;9.162506;2.691494;,
  7.192822;8.915050;4.369017;,
  6.962470;8.868973;0.233997;,
  4.912292;8.628635;0.724522;,
  5.352106;8.282570;-0.245102;,
  6.153318;8.210472;-1.273335;,
  2.210491;7.905630;-4.192184;,
  4.094272;8.513428;-4.770340;,
  6.203249;5.007168;-4.536209;,
  5.532957;8.271927;-4.219726;,
  -0.852894;4.773251;-5.580414;,
  1.276123;3.764086;-5.507103;,
  2.781670;2.803299;-5.849350;,
  6.023354;3.580700;-6.147388;,
  4.786614;2.993759;-6.248612;,
  5.352106;8.282570;-0.245102;,
  4.008953;7.612786;0.905090;,
  4.073010;8.049423;2.371277;,
  4.912292;8.628635;0.724522;,
  6.508063;9.162506;2.691494;,
  1.531124;7.351551;-1.256241;,
  2.305207;8.015553;-1.190277;,
  1.559506;7.679535;-2.206516;,
  0.801301;7.124512;-3.646217;,
  0.682922;7.377606;-4.951874;,
  -0.325968;6.539791;-4.104019;,
  -0.324728;6.327957;-3.062683;,
  4.094272;8.513428;-4.770340;,
  2.210491;7.905630;-4.192184;,
  2.284662;7.785287;-2.009781;,
  4.246981;8.328892;-0.851368;,
  5.532957;8.271927;-4.219726;,
  6.153318;8.210472;-1.273335;,
  5.352106;8.282570;-0.245102;,
  4.008953;7.612786;0.905090;,
  3.376659;7.624147;1.298676;,
  0.749608;6.838533;-0.969338;,
  2.305207;8.015553;-1.190277;,
  4.319660;-4.409948;1.104849;,
  5.563919;-2.791470;1.026112;,
  4.879114;-3.335320;2.162792;,
  5.950943;-3.093750;-0.343023;,
  6.249294;-3.713379;-0.921697;,
  7.102997;-1.549393;-0.703841;,
  6.365584;-0.271845;0.488006;,
  6.999340;-3.326222;-0.992991;,
  7.319150;-3.546146;-2.257728;,
  1.003309;-4.162739;11.964600;,
  -0.968816;-2.462549;12.449982;,
  -0.283096;-4.121850;11.581215;,
  4.440582;-4.071079;12.564681;,
  -0.857822;2.226269;13.453141;,
  3.518454;-2.331122;13.447640;,
  2.021950;0.854720;13.812339;,
  -3.030287;-1.791765;12.146736;,
  -4.932280;0.225563;12.100773;,
  -3.151009;1.509893;12.813348;,
  -5.076158;-0.988819;10.950866;,
  -3.101479;6.244772;-5.618118;,
  -1.699518;5.936794;-5.207245;,
  -3.802216;5.403194;-5.693001;,
  -0.852894;4.773251;-5.580414;,
  2.962234;0.768150;-5.505524;,
  1.276123;3.764086;-5.507103;,
  -7.199181;0.065350;-5.943604;,
  -7.780136;-0.920132;-5.789722;,
  -7.679009;-2.055031;-3.163004;,
  -7.622986;-2.143467;0.875649;,
  -7.836331;-2.064629;2.611567;,
  -6.821802;-2.240849;4.419985;,
  2.781670;2.803299;-5.849350;,
  -4.582144;-2.721264;6.568612;,
  3.139202;2.016521;-5.886284;,
  4.786614;2.993759;-6.248612;,
  3.297371;1.272419;-6.050865;,
  6.023354;3.580700;-6.147388;,
  5.916660;2.531811;-6.370140;,
  6.384624;0.337151;-6.229046;,
  6.590042;-2.526375;-6.228691;,
  7.319150;-3.546146;-2.257728;,
  6.249294;-3.713379;-0.921697;,
  4.319660;-4.409948;1.104849;,
  3.059547;-5.031278;3.699055;,
  2.929211;-5.034445;4.834835;,
  2.101879;-5.359136;5.233421;,
  0.238277;-4.820608;6.956948;,
  2.103966;-4.975814;7.192376;,
  -2.367142;-3.873241;6.949146;,
  -2.709860;-3.778107;8.242622;,
  1.588948;-4.239704;8.172130;,
  -1.219781;-4.014191;9.701824;,
  -0.973917;-4.048038;10.915169;,
  -0.283096;-4.121850;11.581215;,
  1.003309;-4.162739;11.964600;,
  -6.414723;4.908398;-1.731846;,
  -7.278297;5.105373;-3.146576;,
  -7.920078;4.500778;-2.491177;,
  -5.998489;5.988953;-1.789662;,
  -5.437694;6.585640;-0.282684;,
  -7.147882;4.416859;-0.655232;,
  -6.978120;4.814770;0.338158;,
  -7.172218;4.449417;2.275499;,
  -5.292807;5.817658;3.526085;,
  -5.459164;6.514141;-1.904770;,
  -4.492930;8.463072;-2.063225;,
  -4.635563;5.211658;-3.214813;,
  -4.939325;7.788671;-1.102596;,
  -4.786209;7.008070;0.815540;,
  -4.320451;7.807602;0.967926;,
  -3.810999;7.478138;3.273014;,
  -3.316923;8.985449;1.579987;,
  -3.179075;8.348728;3.589264;,
  -2.586508;9.419536;0.912445;,
  -7.172218;4.449417;2.275499;,
  -8.694765;3.953422;1.765127;,
  -8.852837;3.643143;2.144173;,
  -5.292807;5.817658;3.526085;,
  -8.153572;5.444164;3.387564;,
  -8.790758;4.908333;3.248392;,
  -5.634848;5.768261;4.260647;,
  -5.499239;6.517997;5.375653;,
  -7.408346;6.476627;6.119382;,
  -3.644951;6.947586;6.342866;,
  -1.937967;-3.157421;9.818726;,
  -1.219781;-4.014191;9.701824;,
  -0.973917;-4.048038;10.915169;,
  -2.709860;-3.778107;8.242622;,
  -1.927582;-1.966427;11.893814;,
  -5.076158;-0.988819;10.950866;,
  -3.030287;-1.791765;12.146736;,
  -0.741600;-2.879389;11.474296;,
  -0.968816;-2.462549;12.449982;,
  7.522526;3.305791;-0.145922;,
  8.736694;0.611210;0.368505;,
  6.365584;-0.271845;0.488006;,
  6.006104;-2.758492;0.391587;,
  9.412144;-1.496483;1.178371;,
  9.199385;0.657150;0.731813;,
  8.361142;-1.302788;0.665527;,
  8.695718;-2.830246;1.266502;,
  6.657169;-3.005047;1.979279;,
  5.563919;-2.791470;1.026112;,
  4.879114;-3.335320;2.162792;,
  8.695718;-2.830246;1.266502;,
  9.809157;-2.692963;2.439762;,
  7.432279;-3.096565;2.420193;;
  386;
  3;0,1,2;,
  3;3,4,5;,
  3;6,7,8;,
  3;9,10,11;,
  3;12,13,14;,
  3;15,16,17;,
  3;18,19,20;,
  3;21,22,23;,
  3;24,25,26;,
  3;27,28,29;,
  3;30,31,32;,
  3;33,34,35;,
  3;36,37,38;,
  3;39,40,41;,
  3;42,43,44;,
  3;45,46,47;,
  3;48,49,50;,
  3;51,52,53;,
  3;54,55,56;,
  3;57,58,59;,
  3;60,61,62;,
  3;63,64,65;,
  3;66,67,68;,
  3;69,70,71;,
  3;72,73,71;,
  3;71,74,72;,
  3;72,74,75;,
  3;71,76,74;,
  3;76,71,77;,
  3;78,76,77;,
  3;79,80,76;,
  3;80,81,76;,
  3;76,81,74;,
  3;81,82,74;,
  3;81,83,82;,
  3;83,84,85;,
  3;82,83,85;,
  3;82,86,74;,
  3;82,87,86;,
  3;87,88,86;,
  3;74,86,89;,
  3;86,90,89;,
  3;91,89,90;,
  3;74,91,75;,
  3;91,90,92;,
  3;91,93,75;,
  3;92,93,91;,
  3;94,95,96;,
  3;97,95,98;,
  3;99,100,98;,
  3;99,98,101;,
  3;98,95,101;,
  3;99,101,102;,
  3;101,103,102;,
  3;101,95,104;,
  3;103,101,104;,
  3;104,95,105;,
  3;106,103,104;,
  3;104,107,108;,
  3;104,108,106;,
  3;106,108,109;,
  3;110,106,109;,
  3;110,109,111;,
  3;112,110,111;,
  3;113,110,112;,
  3;114,113,112;,
  3;114,115,113;,
  3;113,115,116;,
  3;113,116,117;,
  3;116,118,117;,
  3;118,119,117;,
  3;115,114,120;,
  3;120,121,122;,
  3;120,123,121;,
  3;123,120,114;,
  3;123,114,124;,
  3;125,124,114;,
  3;126,124,125;,
  3;127,125,114;,
  3;128,125,129;,
  3;129,125,127;,
  3;129,127,130;,
  3;127,131,130;,
  3;131,132,130;,
  3;133,134,135;,
  3;135,136,133;,
  3;137,138,139;,
  3;137,140,138;,
  3;141,142,143;,
  3;142,141,144;,
  3;145,146,147;,
  3;147,146,148;,
  3;149,150,151;,
  3;150,149,152;,
  3;153,154,155;,
  3;155,154,156;,
  3;157,156,154;,
  3;157,158,156;,
  3;159,160,161;,
  3;159,162,160;,
  3;162,163,160;,
  3;163,162,164;,
  3;163,164,165;,
  3;166,167,162;,
  3;168,165,169;,
  3;168,169,170;,
  3;171,168,170;,
  3;170,169,172;,
  3;170,172,173;,
  3;167,174,162;,
  3;174,167,175;,
  3;176,164,162;,
  3;176,162,174;,
  3;164,176,177;,
  3;178,177,176;,
  3;178,176,179;,
  3;174,175,180;,
  3;179,176,181;,
  3;179,181,182;,
  3;181,183,182;,
  3;184,176,174;,
  3;174,185,184;,
  3;186,183,181;,
  3;184,187,176;,
  3;186,176,187;,
  3;184,188,187;,
  3;188,185,189;,
  3;188,189,187;,
  3;185,190,189;,
  3;190,191,192;,
  3;192,189,190;,
  3;189,193,187;,
  3;187,193,194;,
  3;195,193,189;,
  3;190,196,197;,
  3;190,180,196;,
  3;175,196,180;,
  3;198,196,175;,
  3;196,198,199;,
  3;200,195,201;,
  3;195,200,202;,
  3;202,203,195;,
  3;203,204,195;,
  3;193,195,204;,
  3;204,205,193;,
  3;206,194,193;,
  3;207,205,204;,
  3;207,206,205;,
  3;207,204,208;,
  3;207,209,206;,
  3;210,208,204;,
  3;204,211,210;,
  3;210,211,212;,
  3;213,208,210;,
  3;209,208,213;,
  3;209,213,206;,
  3;206,214,194;,
  3;206,213,214;,
  3;194,214,186;,
  3;214,183,186;,
  3;214,215,183;,
  3;215,216,183;,
  3;217,183,216;,
  3;218,183,217;,
  3;213,219,214;,
  3;213,220,219;,
  3;219,221,214;,
  3;214,221,222;,
  3;222,221,223;,
  3;217,223,221;,
  3;221,224,217;,
  3;224,225,217;,
  3;221,219,226;,
  3;227,228,225;,
  3;226,229,227;,
  3;228,227,230;,
  3;229,230,227;,
  3;231,228,230;,
  3;219,230,229;,
  3;220,230,219;,
  3;232,230,220;,
  3;233,230,232;,
  3;234,235,236;,
  3;237,235,234;,
  3;235,237,238;,
  3;239,240,241;,
  3;240,242,241;,
  3;242,240,243;,
  3;244,245,246;,
  3;247,245,244;,
  3;248,245,247;,
  3;249,248,247;,
  3;249,250,248;,
  3;250,251,248;,
  3;252,251,250;,
  3;252,253,251;,
  3;250,254,252;,
  3;254,255,252;,
  3;248,256,257;,
  3;256,258,257;,
  3;259,254,260;,
  3;259,255,254;,
  3;257,258,261;,
  3;261,258,262;,
  3;263,257,261;,
  3;264,265,259;,
  3;259,265,255;,
  3;255,266,267;,
  3;265,266,255;,
  3;268,266,265;,
  3;265,269,268;,
  3;261,270,271;,
  3;263,261,271;,
  3;263,272,273;,
  3;271,272,263;,
  3;274,272,271;,
  3;272,274,275;,
  3;271,276,274;,
  3;277,278,279;,
  3;279,278,280;,
  3;278,281,280;,
  3;281,282,280;,
  3;283,282,281;,
  3;284,282,283;,
  3;285,284,283;,
  3;283,286,285;,
  3;287,288,289;,
  3;290,289,288;,
  3;290,291,289;,
  3;290,292,291;,
  3;290,293,292;,
  3;292,293,294;,
  3;295,291,292;,
  3;292,296,295;,
  3;297,295,296;,
  3;291,298,299;,
  3;300,301,297;,
  3;301,302,297;,
  3;303,299,298;,
  3;304,299,303;,
  3;305,298,295;,
  3;298,305,303;,
  3;295,297,305;,
  3;304,303,306;,
  3;303,305,307;,
  3;308,304,306;,
  3;309,307,305;,
  3;309,310,307;,
  3;305,311,309;,
  3;297,312,305;,
  3;311,313,314;,
  3;314,315,311;,
  3;316,315,314;,
  3;316,308,315;,
  3;304,308,316;,
  3;317,312,318;,
  3;312,297,318;,
  3;318,297,319;,
  3;302,319,297;,
  3;319,320,318;,
  3;319,302,320;,
  3;320,302,321;,
  3;322,323,320;,
  3;324,323,322;,
  3;325,324,322;,
  3;316,326,327;,
  3;327,328,316;,
  3;329,328,327;,
  3;328,304,316;,
  3;328,330,304;,
  3;331,330,328;,
  3;328,332,331;,
  3;332,328,333;,
  3;333,334,332;,
  3;335,336,337;,
  3;335,337,338;,
  3;339,338,337;,
  3;340,341,342;,
  3;340,342,343;,
  3;343,342,344;,
  3;343,344,345;,
  3;343,345,346;,
  3;347,348,349;,
  3;347,349,350;,
  3;351,347,350;,
  3;352,351,350;,
  3;353,352,350;,
  3;350,354,353;,
  3;350,355,354;,
  3;350,356,355;,
  3;350,357,356;,
  3;358,359,360;,
  3;359,358,361;,
  3;358,362,361;,
  3;361,363,364;,
  3;361,362,363;,
  3;362,365,363;,
  3;365,362,366;,
  3;367,368,369;,
  3;367,370,368;,
  3;368,370,371;,
  3;371,370,372;,
  3;372,373,371;,
  3;374,368,371;,
  3;371,375,374;,
  3;376,375,371;,
  3;377,374,375;,
  3;378,379,380;,
  3;379,381,380;,
  3;381,382,380;,
  3;383,382,381;,
  3;380,382,384;,
  3;382,385,384;,
  3;386,385,382;,
  3;386,382,387;,
  3;387,382,388;,
  3;382,389,388;,
  3;383,390,382;,
  3;391,389,382;,
  3;390,392,382;,
  3;393,392,390;,
  3;393,394,392;,
  3;395,396,393;,
  3;396,394,393;,
  3;396,397,394;,
  3;382,394,397;,
  3;382,397,398;,
  3;382,398,399;,
  3;382,399,400;,
  3;400,401,382;,
  3;382,401,402;,
  3;403,404,402;,
  3;404,382,402;,
  3;405,404,406;,
  3;382,404,405;,
  3;407,382,405;,
  3;391,382,407;,
  3;391,407,408;,
  3;407,409,408;,
  3;408,409,410;,
  3;409,411,410;,
  3;409,412,411;,
  3;413,412,409;,
  3;414,415,416;,
  3;414,417,415;,
  3;414,418,417;,
  3;419,418,414;,
  3;420,418,419;,
  3;420,421,418;,
  3;418,421,422;,
  3;418,423,417;,
  3;423,424,425;,
  3;426,424,423;,
  3;418,426,423;,
  3;427,426,418;,
  3;428,426,427;,
  3;429,428,427;,
  3;430,428,429;,
  3;429,431,430;,
  3;428,430,432;,
  3;433,434,435;,
  3;433,435,436;,
  3;435,437,436;,
  3;435,438,437;,
  3;436,437,439;,
  3;437,440,439;,
  3;437,441,440;,
  3;439,440,442;,
  3;443,444,445;,
  3;444,443,446;,
  3;447,446,443;,
  3;448,446,447;,
  3;447,449,448;,
  3;447,443,450;,
  3;447,450,451;,
  3;452,453,454;,
  3;453,455,454;,
  3;456,453,457;,
  3;458,453,456;,
  3;455,453,458;,
  3;459,455,458;,
  3;460,455,459;,
  3;460,461,455;,
  3;460,462,461;,
  3;463,464,460;,
  3;464,465,460;;

  MeshNormals {
   466;
   -0.644066;0.599942;0.474604;,
   -0.567957;0.698106;0.435974;,
   -0.469839;0.871496;0.140519;,
   -0.416246;-0.908988;0.021918;,
   -0.490007;-0.835824;0.247571;,
   -0.636072;-0.739954;0.218817;,
   -0.573442;-0.818829;0.026137;,
   -0.486952;-0.832403;0.264543;,
   -0.741035;-0.466396;0.483055;,
   0.657654;0.057009;-0.751160;,
   0.680854;0.019185;-0.732168;,
   0.517320;-0.087459;-0.851312;,
   -0.637258;0.767449;-0.070180;,
   -0.647391;0.487447;-0.585901;,
   -0.700704;0.690627;-0.179019;,
   -0.455479;0.745454;-0.486658;,
   -0.389876;0.920144;-0.036493;,
   -0.481372;0.874248;-0.063012;,
   0.680854;0.019185;-0.732168;,
   0.697136;0.039018;-0.715877;,
   0.517320;-0.087459;-0.851312;,
   -0.596120;-0.362291;-0.716509;,
   -0.624325;-0.051255;-0.779481;,
   -0.567768;-0.188953;-0.801209;,
   0.020499;-0.181556;0.983167;,
   0.405171;0.033100;0.913642;,
   0.370394;0.018153;0.928697;,
   -0.152739;0.077887;0.985193;,
   -0.511373;0.078814;0.855737;,
   -0.268497;0.385794;0.882651;,
   -0.163181;0.986078;-0.031967;,
   -0.379031;0.922365;0.074685;,
   -0.474871;0.862437;0.175214;,
   0.571251;-0.544404;0.614245;,
   0.575303;-0.746149;0.335096;,
   0.761529;-0.233262;0.604700;,
   0.420124;0.823764;-0.380669;,
   0.639661;0.704710;-0.306951;,
   0.770002;0.344246;-0.537207;,
   -0.208721;0.971246;-0.114527;,
   -0.508982;0.844757;0.165295;,
   -0.506107;0.845160;-0.171929;,
   0.739619;-0.672672;0.021809;,
   0.665253;-0.746094;0.027969;,
   0.539491;-0.841943;-0.008979;,
   -0.328872;-0.937555;0.113290;,
   -0.352002;-0.935267;-0.037014;,
   -0.609063;-0.758770;0.230892;,
   0.444311;-0.009625;-0.895821;,
   0.517320;-0.087459;-0.851312;,
   0.697136;0.039018;-0.715877;,
   -0.511373;0.078814;0.855737;,
   -0.530606;0.517344;0.671426;,
   -0.707189;0.492291;0.507477;,
   0.575303;-0.746149;0.335096;,
   0.601288;-0.327081;0.729021;,
   0.761529;-0.233262;0.604700;,
   0.712474;-0.690649;0.124038;,
   0.320319;-0.897581;0.302893;,
   0.581987;-0.783745;0.216876;,
   0.778603;-0.611564;0.140595;,
   0.627715;-0.755127;0.189096;,
   0.539771;-0.839450;-0.063010;,
   -0.350863;0.865217;0.358183;,
   -0.414778;0.776163;0.474900;,
   -0.690468;0.717285;-0.093571;,
   -0.147487;0.068362;0.986699;,
   -0.328884;-0.039224;0.943555;,
   -0.450286;0.205270;0.868969;,
   0.836044;-0.462616;0.294988;,
   0.507072;-0.826468;0.244598;,
   0.819634;-0.572536;-0.020063;,
   0.098686;-0.961343;-0.257061;,
   0.498465;-0.839265;-0.217180;,
   0.539491;-0.841943;-0.008979;,
   0.055671;-0.988813;-0.138380;,
   0.575303;-0.746149;0.335096;,
   0.507072;-0.826468;0.244598;,
   0.601288;-0.327081;0.729021;,
   0.571251;-0.544404;0.614245;,
   -0.063193;-0.951287;0.301762;,
   0.581987;-0.783745;0.216876;,
   0.207683;-0.896540;0.391260;,
   0.320319;-0.897581;0.302893;,
   -0.323106;-0.918769;0.226860;,
   -0.329584;-0.926216;0.183026;,
   0.778603;-0.611564;0.140595;,
   0.109416;-0.993982;-0.005289;,
   0.627715;-0.755127;0.189096;,
   0.739619;-0.672672;0.021809;,
   0.539771;-0.839450;-0.063010;,
   0.665253;-0.746094;0.027969;,
   0.489281;-0.871774;0.024770;,
   0.517904;-0.854699;-0.035569;,
   0.437881;0.361737;-0.823047;,
   0.577514;0.004599;-0.816368;,
   0.319503;0.072933;-0.944774;,
   0.378452;-0.635648;-0.672849;,
   0.505477;-0.862110;-0.035500;,
   0.843598;-0.149828;0.515650;,
   0.739339;-0.368421;0.563598;,
   0.992936;-0.117280;-0.018006;,
   0.977617;-0.201280;0.061248;,
   0.517320;-0.087459;-0.851312;,
   0.624637;0.297790;-0.721907;,
   0.437881;0.361737;-0.823047;,
   0.657654;0.057009;-0.751160;,
   0.751021;0.214721;-0.624389;,
   0.420124;0.823764;-0.380669;,
   0.770002;0.344246;-0.537207;,
   0.680854;0.019185;-0.732168;,
   0.639661;0.704710;-0.306951;,
   0.171531;0.981962;-0.079542;,
   0.697136;0.039018;-0.715877;,
   0.703178;0.706320;0.081562;,
   0.819634;-0.572536;-0.020063;,
   0.498465;-0.839265;-0.217180;,
   0.652620;-0.177068;-0.736705;,
   0.346502;-0.755184;-0.556447;,
   0.340816;-0.245769;-0.907437;,
   0.836044;-0.462616;0.294988;,
   0.601288;-0.327081;0.729021;,
   0.507072;-0.826468;0.244598;,
   0.568961;0.245916;0.784735;,
   0.363183;-0.001595;0.931717;,
   0.605084;0.234252;0.760920;,
   0.241445;-0.172934;0.954881;,
   0.606000;0.791397;0.080344;,
   0.252532;0.230261;0.939791;,
   0.549475;0.190222;0.813568;,
   0.446041;0.166860;0.879321;,
   0.723363;0.595669;0.349176;,
   0.262112;0.782332;0.565026;,
   -0.840241;-0.492699;0.226370;,
   -0.770917;-0.580195;0.262794;,
   -0.722708;-0.559166;0.406235;,
   -0.805671;-0.376760;0.457107;,
   -0.403935;0.892518;-0.200620;,
   -0.664600;0.721107;0.195735;,
   -0.758595;0.631612;0.159998;,
   -0.506107;0.845160;-0.171929;,
   0.847920;-0.373799;0.375907;,
   0.533882;-0.800928;-0.271081;,
   0.479796;-0.866139;0.139995;,
   0.977617;-0.201280;0.061248;,
   -0.915202;-0.401217;-0.037817;,
   -0.957224;-0.271822;-0.099174;,
   -0.573442;-0.818829;0.026137;,
   -0.818136;-0.574468;-0.025300;,
   -0.483578;0.874698;-0.032478;,
   -0.321833;0.946392;-0.027678;,
   -0.410250;0.911714;0.021759;,
   -0.513184;0.850846;-0.112709;,
   -0.154326;-0.054517;0.986515;,
   -0.118405;-0.228556;0.966303;,
   -0.229784;-0.029173;0.972804;,
   -0.113713;-0.243549;0.963199;,
   -0.215611;-0.274885;0.936990;,
   0.241445;-0.172934;0.954881;,
   -0.758171;0.619507;0.203440;,
   -0.518384;0.739185;-0.429981;,
   -0.797799;0.592241;0.112993;,
   -0.531956;0.839047;-0.114113;,
   0.024424;0.966057;-0.257173;,
   -0.119333;0.971004;0.207149;,
   0.345873;0.937774;-0.030846;,
   -0.539440;0.829353;0.145530;,
   -0.704124;0.670565;0.233561;,
   0.600452;0.784525;-0.154852;,
   -0.119333;0.971004;0.207149;,
   0.723363;0.595669;0.349176;,
   0.606000;0.791397;0.080344;,
   -0.127238;0.984401;0.121513;,
   0.262112;0.782332;0.565026;,
   -0.664600;0.721107;0.195735;,
   -0.792163;0.579241;0.192244;,
   -0.707189;0.492291;0.507477;,
   -0.127238;0.984401;0.121513;,
   0.262112;0.782332;0.565026;,
   0.446041;0.166860;0.879321;,
   -0.758595;0.631612;0.159998;,
   -0.530606;0.517344;0.671426;,
   0.549475;0.190222;0.813568;,
   0.252532;0.230261;0.939791;,
   -0.508982;0.844757;0.165295;,
   -0.506107;0.845160;-0.171929;,
   -0.511373;0.078814;0.855737;,
   -0.268497;0.385794;0.882651;,
   -0.208721;0.971246;-0.114527;,
   -0.727840;0.381941;0.569535;,
   -0.403935;0.892518;-0.200620;,
   -0.035750;0.928474;-0.369673;,
   -0.546027;0.837617;-0.015892;,
   -0.147487;0.068362;0.986699;,
   -0.152739;0.077887;0.985193;,
   -0.335481;-0.125579;0.933639;,
   -0.507979;0.861322;-0.009023;,
   -0.204673;0.946465;-0.249626;,
   -0.788182;0.577551;0.212613;,
   -0.769269;0.626013;0.127801;,
   -0.722708;-0.559166;0.406235;,
   -0.805671;-0.376760;0.457107;,
   -0.655708;-0.125240;0.744555;,
   -0.810171;0.036691;0.585044;,
   -0.789049;0.151564;0.595340;,
   -0.328884;-0.039224;0.943555;,
   -0.450286;0.205270;0.868969;,
   -0.567957;0.698106;0.435974;,
   -0.469839;0.871496;0.140519;,
   -0.644066;0.599942;0.474604;,
   -0.380420;0.413659;0.827144;,
   -0.837246;0.502930;0.214664;,
   -0.823011;0.149089;0.548111;,
   -0.178029;0.377947;0.908549;,
   -0.154326;-0.054517;0.986515;,
   -0.229784;-0.029173;0.972804;,
   -0.113713;-0.243549;0.963199;,
   0.241445;-0.172934;0.954881;,
   0.605084;0.234252;0.760920;,
   0.405171;0.033100;0.913642;,
   0.279219;0.303382;0.911041;,
   0.023978;-0.126310;0.991701;,
   -0.118405;-0.228556;0.966303;,
   -0.215611;-0.274885;0.936990;,
   0.014989;-0.225528;0.974122;,
   0.363183;-0.001595;0.931717;,
   0.020499;-0.181556;0.983167;,
   0.017323;-0.021613;0.999616;,
   0.568961;0.245916;0.784735;,
   0.370394;0.018153;0.928697;,
   0.761529;-0.233262;0.604700;,
   0.601288;-0.327081;0.729021;,
   0.236060;-0.224330;0.945490;,
   0.571251;-0.544404;0.614245;,
   0.020499;-0.181556;0.983167;,
   0.014989;-0.225528;0.974122;,
   0.023978;-0.126310;0.991701;,
   0.017323;-0.021613;0.999616;,
   0.363183;-0.001595;0.931717;,
   -0.609063;-0.758770;0.230892;,
   -0.744340;-0.572054;0.344545;,
   -0.460422;-0.717638;0.522501;,
   -0.630667;-0.714670;0.302499;,
   -0.681831;-0.470860;0.559819;,
   -0.727840;0.381941;0.569535;,
   -0.805671;-0.376760;0.457107;,
   -0.335481;-0.125579;0.933639;,
   -0.546027;0.837617;-0.015892;,
   -0.840241;-0.492699;0.226370;,
   -0.758595;0.648946;-0.058338;,
   -0.810071;0.583119;0.061292;,
   -0.741035;-0.466396;0.483055;,
   -0.915202;-0.401217;-0.037817;,
   -0.573442;-0.818829;0.026137;,
   -0.836067;0.548382;0.016397;,
   -0.957224;-0.271822;-0.099174;,
   -0.741035;-0.466396;0.483055;,
   -0.770917;-0.580195;0.262794;,
   -0.486952;-0.832403;0.264543;,
   -0.784927;0.595430;0.171329;,
   -0.436583;0.829698;0.347844;,
   -0.636072;-0.739954;0.218817;,
   -0.416246;-0.908988;0.021918;,
   -0.722708;-0.559166;0.406235;,
   -0.690468;0.717285;-0.093571;,
   -0.877898;0.134585;-0.459545;,
   -0.540263;-0.832762;-0.120931;,
   -0.818136;-0.574468;-0.025300;,
   -0.518480;-0.485208;-0.704097;,
   -0.447317;0.203831;-0.870839;,
   -0.490007;-0.835824;0.247571;,
   -0.730116;-0.551028;0.404102;,
   -0.810171;0.036691;0.585044;,
   -0.655708;-0.125240;0.744555;,
   -0.837246;0.502930;0.214664;,
   -0.789049;0.151564;0.595340;,
   -0.823011;0.149089;0.548111;,
   -0.483578;0.874698;-0.032478;,
   -0.410250;0.911714;0.021759;,
   -0.473105;0.880409;0.032438;,
   -0.436583;0.829698;0.347844;,
   -0.321833;0.946392;-0.027678;,
   -0.784927;0.595430;0.171329;,
   -0.513184;0.850846;-0.112709;,
   -0.690468;0.717285;-0.093571;,
   -0.350863;0.865217;0.358183;,
   -0.599969;0.772655;0.207466;,
   -0.877898;0.134585;-0.459545;,
   -0.690468;0.717285;-0.093571;,
   -0.447317;0.203831;-0.870839;,
   -0.461168;0.640848;-0.613709;,
   -0.647391;0.487447;-0.585901;,
   -0.520129;0.635432;-0.570695;,
   -0.681999;0.681649;-0.265013;,
   -0.705733;0.454521;-0.543462;,
   -0.700704;0.690627;-0.179019;,
   -0.518384;0.739185;-0.429981;,
   0.024424;0.966057;-0.257173;,
   -0.637258;0.767449;-0.070180;,
   0.051905;0.528369;-0.847427;,
   0.345873;0.937774;-0.030846;,
   0.600452;0.784525;-0.154852;,
   0.606000;0.791397;0.080344;,
   -0.163181;0.986078;-0.031967;,
   0.062482;0.669367;-0.740300;,
   -0.215381;0.976010;-0.031863;,
   -0.474871;0.862437;0.175214;,
   -0.379031;0.922365;0.074685;,
   -0.424371;0.854730;-0.298908;,
   -0.651692;0.758274;0.017824;,
   -0.617291;0.774080;0.140539;,
   -0.401841;0.855174;0.327415;,
   0.033711;0.985271;-0.167646;,
   -0.124669;0.991045;-0.047831;,
   -0.389876;0.920144;-0.036493;,
   -0.461747;0.886589;0.027370;,
   -0.455479;0.745454;-0.486658;,
   -0.208212;0.977457;-0.035007;,
   -0.176907;0.916137;-0.359717;,
   0.081607;0.878528;-0.470668;,
   0.171531;0.981962;-0.079542;,
   0.703178;0.706320;0.081562;,
   0.639661;0.704710;-0.306951;,
   -0.579270;0.750567;-0.317954;,
   -0.390448;0.897511;-0.205000;,
   0.420124;0.823764;-0.380669;,
   -0.481372;0.874248;-0.063012;,
   0.028789;0.783605;-0.620592;,
   0.624637;0.297790;-0.721907;,
   0.751021;0.214721;-0.624389;,
   0.093325;0.227823;-0.969220;,
   0.050921;0.133863;-0.989691;,
   -0.168874;0.200295;-0.965072;,
   0.437881;0.361737;-0.823047;,
   -0.172425;0.330343;-0.927978;,
   -0.390448;0.897511;-0.205000;,
   -0.208212;0.977457;-0.035007;,
   -0.176907;0.916137;-0.359717;,
   -0.579270;0.750567;-0.317954;,
   0.171531;0.981962;-0.079542;,
   -0.651692;0.758274;0.017824;,
   -0.401841;0.855174;0.327415;,
   -0.461747;0.886589;0.027370;,
   -0.617291;0.774080;0.140539;,
   -0.424371;0.854730;-0.298908;,
   -0.474871;0.862437;0.175214;,
   -0.379031;0.922365;0.074685;,
   0.028789;0.783605;-0.620592;,
   -0.481372;0.874248;-0.063012;,
   -0.389876;0.920144;-0.036493;,
   -0.124669;0.991045;-0.047831;,
   0.127184;0.991370;0.031791;,
   0.420124;0.823764;-0.380669;,
   -0.390448;0.897511;-0.205000;,
   -0.208212;0.977457;-0.035007;,
   0.033711;0.985271;-0.167646;,
   -0.215381;0.976010;-0.031863;,
   -0.401841;0.855174;0.327415;,
   0.489281;-0.871774;0.024770;,
   0.479796;-0.866139;0.139995;,
   0.517904;-0.854699;-0.035569;,
   0.847920;-0.373799;0.375907;,
   0.186160;-0.972087;0.142798;,
   0.843598;-0.149828;0.515650;,
   0.977617;-0.201280;0.061248;,
   0.739339;-0.368421;0.563598;,
   0.505477;-0.862110;-0.035500;,
   -0.063193;-0.951287;0.301762;,
   -0.609063;-0.758770;0.230892;,
   -0.460422;-0.717638;0.522501;,
   0.571251;-0.544404;0.614245;,
   -0.178029;0.377947;0.908549;,
   0.236060;-0.224330;0.945490;,
   0.279219;0.303382;0.911041;,
   -0.328872;-0.937555;0.113290;,
   -0.823011;0.149089;0.548111;,
   -0.380420;0.413659;0.827144;,
   -0.730116;-0.551028;0.404102;,
   0.051905;0.528369;-0.847427;,
   0.062482;0.669367;-0.740300;,
   -0.647391;0.487447;-0.585901;,
   0.093325;0.227823;-0.969220;,
   -0.596120;-0.362291;-0.716509;,
   0.050921;0.133863;-0.989691;,
   -0.447317;0.203831;-0.870839;,
   -0.518480;-0.485208;-0.704097;,
   -0.540263;-0.832762;-0.120931;,
   -0.818136;-0.574468;-0.025300;,
   -0.573442;-0.818829;0.026137;,
   -0.486952;-0.832403;0.264543;,
   -0.168874;0.200295;-0.965072;,
   -0.416246;-0.908988;0.021918;,
   -0.624325;-0.051255;-0.779481;,
   -0.172425;0.330343;-0.927978;,
   -0.567768;-0.188953;-0.801209;,
   0.437881;0.361737;-0.823047;,
   0.319503;0.072933;-0.944774;,
   0.577514;0.004599;-0.816368;,
   0.378452;-0.635648;-0.672849;,
   0.505477;-0.862110;-0.035500;,
   0.186160;-0.972087;0.142798;,
   0.489281;-0.871774;0.024770;,
   0.539771;-0.839450;-0.063010;,
   0.627715;-0.755127;0.189096;,
   0.109416;-0.993982;-0.005289;,
   -0.329584;-0.926216;0.183026;,
   0.207683;-0.896540;0.391260;,
   -0.323106;-0.918769;0.226860;,
   -0.490007;-0.835824;0.247571;,
   0.320319;-0.897581;0.302893;,
   -0.438692;-0.886652;0.146278;,
   -0.630667;-0.714670;0.302499;,
   -0.460422;-0.717638;0.522501;,
   -0.063193;-0.951287;0.301762;,
   -0.599969;0.772655;0.207466;,
   -0.414778;0.776163;0.474900;,
   -0.350863;0.865217;0.358183;,
   -0.681999;0.681649;-0.265013;,
   -0.769269;0.626013;0.127801;,
   -0.513184;0.850846;-0.112709;,
   -0.483578;0.874698;-0.032478;,
   -0.473105;0.880409;0.032438;,
   -0.507979;0.861322;-0.009023;,
   -0.705733;0.454521;-0.543462;,
   -0.518384;0.739185;-0.429981;,
   -0.520129;0.635432;-0.570695;,
   -0.797799;0.592241;0.112993;,
   -0.788182;0.577551;0.212613;,
   -0.758171;0.619507;0.203440;,
   -0.792163;0.579241;0.192244;,
   -0.539440;0.829353;0.145530;,
   -0.704124;0.670565;0.233561;,
   -0.531956;0.839047;-0.114113;,
   -0.473105;0.880409;0.032438;,
   -0.436583;0.829698;0.347844;,
   -0.836067;0.548382;0.016397;,
   -0.507979;0.861322;-0.009023;,
   -0.758595;0.648946;-0.058338;,
   -0.810071;0.583119;0.061292;,
   -0.204673;0.946465;-0.249626;,
   -0.035750;0.928474;-0.369673;,
   -0.546027;0.837617;-0.015892;,
   -0.403935;0.892518;-0.200620;,
   -0.681831;-0.470860;0.559819;,
   -0.438692;-0.886652;0.146278;,
   -0.630667;-0.714670;0.302499;,
   -0.490007;-0.835824;0.247571;,
   -0.352002;-0.935267;-0.037014;,
   -0.730116;-0.551028;0.404102;,
   -0.328872;-0.937555;0.113290;,
   -0.744340;-0.572054;0.344545;,
   -0.609063;-0.758770;0.230892;,
   0.517320;-0.087459;-0.851312;,
   0.444311;-0.009625;-0.895821;,
   0.977617;-0.201280;0.061248;,
   0.533882;-0.800928;-0.271081;,
   0.652620;-0.177068;-0.736705;,
   0.697136;0.039018;-0.715877;,
   0.340816;-0.245769;-0.907437;,
   0.346502;-0.755184;-0.556447;,
   0.055671;-0.988813;-0.138380;,
   0.479796;-0.866139;0.139995;,
   0.517904;-0.854699;-0.035569;,
   0.346502;-0.755184;-0.556447;,
   0.498465;-0.839265;-0.217180;,
   0.098686;-0.961343;-0.257061;;
   386;
   3;0,1,2;,
   3;3,4,5;,
   3;6,7,8;,
   3;9,10,11;,
   3;12,13,14;,
   3;15,16,17;,
   3;18,19,20;,
   3;21,22,23;,
   3;24,25,26;,
   3;27,28,29;,
   3;30,31,32;,
   3;33,34,35;,
   3;36,37,38;,
   3;39,40,41;,
   3;42,43,44;,
   3;45,46,47;,
   3;48,49,50;,
   3;51,52,53;,
   3;54,55,56;,
   3;57,58,59;,
   3;60,61,62;,
   3;63,64,65;,
   3;66,67,68;,
   3;69,70,71;,
   3;72,73,71;,
   3;71,74,72;,
   3;72,74,75;,
   3;71,76,74;,
   3;76,71,77;,
   3;78,76,77;,
   3;79,80,76;,
   3;80,81,76;,
   3;76,81,74;,
   3;81,82,74;,
   3;81,83,82;,
   3;83,84,85;,
   3;82,83,85;,
   3;82,86,74;,
   3;82,87,86;,
   3;87,88,86;,
   3;74,86,89;,
   3;86,90,89;,
   3;91,89,90;,
   3;74,91,75;,
   3;91,90,92;,
   3;91,93,75;,
   3;92,93,91;,
   3;94,95,96;,
   3;97,95,98;,
   3;99,100,98;,
   3;99,98,101;,
   3;98,95,101;,
   3;99,101,102;,
   3;101,103,102;,
   3;101,95,104;,
   3;103,101,104;,
   3;104,95,105;,
   3;106,103,104;,
   3;104,107,108;,
   3;104,108,106;,
   3;106,108,109;,
   3;110,106,109;,
   3;110,109,111;,
   3;112,110,111;,
   3;113,110,112;,
   3;114,113,112;,
   3;114,115,113;,
   3;113,115,116;,
   3;113,116,117;,
   3;116,118,117;,
   3;118,119,117;,
   3;115,114,120;,
   3;120,121,122;,
   3;120,123,121;,
   3;123,120,114;,
   3;123,114,124;,
   3;125,124,114;,
   3;126,124,125;,
   3;127,125,114;,
   3;128,125,129;,
   3;129,125,127;,
   3;129,127,130;,
   3;127,131,130;,
   3;131,132,130;,
   3;133,134,135;,
   3;135,136,133;,
   3;137,138,139;,
   3;137,140,138;,
   3;141,142,143;,
   3;142,141,144;,
   3;145,146,147;,
   3;147,146,148;,
   3;149,150,151;,
   3;150,149,152;,
   3;153,154,155;,
   3;155,154,156;,
   3;157,156,154;,
   3;157,158,156;,
   3;159,160,161;,
   3;159,162,160;,
   3;162,163,160;,
   3;163,162,164;,
   3;163,164,165;,
   3;166,167,162;,
   3;168,165,169;,
   3;168,169,170;,
   3;171,168,170;,
   3;170,169,172;,
   3;170,172,173;,
   3;167,174,162;,
   3;174,167,175;,
   3;176,164,162;,
   3;176,162,174;,
   3;164,176,177;,
   3;178,177,176;,
   3;178,176,179;,
   3;174,175,180;,
   3;179,176,181;,
   3;179,181,182;,
   3;181,183,182;,
   3;184,176,174;,
   3;174,185,184;,
   3;186,183,181;,
   3;184,187,176;,
   3;186,176,187;,
   3;184,188,187;,
   3;188,185,189;,
   3;188,189,187;,
   3;185,190,189;,
   3;190,191,192;,
   3;192,189,190;,
   3;189,193,187;,
   3;187,193,194;,
   3;195,193,189;,
   3;190,196,197;,
   3;190,180,196;,
   3;175,196,180;,
   3;198,196,175;,
   3;196,198,199;,
   3;200,195,201;,
   3;195,200,202;,
   3;202,203,195;,
   3;203,204,195;,
   3;193,195,204;,
   3;204,205,193;,
   3;206,194,193;,
   3;207,205,204;,
   3;207,206,205;,
   3;207,204,208;,
   3;207,209,206;,
   3;210,208,204;,
   3;204,211,210;,
   3;210,211,212;,
   3;213,208,210;,
   3;209,208,213;,
   3;209,213,206;,
   3;206,214,194;,
   3;206,213,214;,
   3;194,214,186;,
   3;214,183,186;,
   3;214,215,183;,
   3;215,216,183;,
   3;217,183,216;,
   3;218,183,217;,
   3;213,219,214;,
   3;213,220,219;,
   3;219,221,214;,
   3;214,221,222;,
   3;222,221,223;,
   3;217,223,221;,
   3;221,224,217;,
   3;224,225,217;,
   3;221,219,226;,
   3;227,228,225;,
   3;226,229,227;,
   3;228,227,230;,
   3;229,230,227;,
   3;231,228,230;,
   3;219,230,229;,
   3;220,230,219;,
   3;232,230,220;,
   3;233,230,232;,
   3;234,235,236;,
   3;237,235,234;,
   3;235,237,238;,
   3;239,240,241;,
   3;240,242,241;,
   3;242,240,243;,
   3;244,245,246;,
   3;247,245,244;,
   3;248,245,247;,
   3;249,248,247;,
   3;249,250,248;,
   3;250,251,248;,
   3;252,251,250;,
   3;252,253,251;,
   3;250,254,252;,
   3;254,255,252;,
   3;248,256,257;,
   3;256,258,257;,
   3;259,254,260;,
   3;259,255,254;,
   3;257,258,261;,
   3;261,258,262;,
   3;263,257,261;,
   3;264,265,259;,
   3;259,265,255;,
   3;255,266,267;,
   3;265,266,255;,
   3;268,266,265;,
   3;265,269,268;,
   3;261,270,271;,
   3;263,261,271;,
   3;263,272,273;,
   3;271,272,263;,
   3;274,272,271;,
   3;272,274,275;,
   3;271,276,274;,
   3;277,278,279;,
   3;279,278,280;,
   3;278,281,280;,
   3;281,282,280;,
   3;283,282,281;,
   3;284,282,283;,
   3;285,284,283;,
   3;283,286,285;,
   3;287,288,289;,
   3;290,289,288;,
   3;290,291,289;,
   3;290,292,291;,
   3;290,293,292;,
   3;292,293,294;,
   3;295,291,292;,
   3;292,296,295;,
   3;297,295,296;,
   3;291,298,299;,
   3;300,301,297;,
   3;301,302,297;,
   3;303,299,298;,
   3;304,299,303;,
   3;305,298,295;,
   3;298,305,303;,
   3;295,297,305;,
   3;304,303,306;,
   3;303,305,307;,
   3;308,304,306;,
   3;309,307,305;,
   3;309,310,307;,
   3;305,311,309;,
   3;297,312,305;,
   3;311,313,314;,
   3;314,315,311;,
   3;316,315,314;,
   3;316,308,315;,
   3;304,308,316;,
   3;317,312,318;,
   3;312,297,318;,
   3;318,297,319;,
   3;302,319,297;,
   3;319,320,318;,
   3;319,302,320;,
   3;320,302,321;,
   3;322,323,320;,
   3;324,323,322;,
   3;325,324,322;,
   3;316,326,327;,
   3;327,328,316;,
   3;329,328,327;,
   3;328,304,316;,
   3;328,330,304;,
   3;331,330,328;,
   3;328,332,331;,
   3;332,328,333;,
   3;333,334,332;,
   3;335,336,337;,
   3;335,337,338;,
   3;339,338,337;,
   3;340,341,342;,
   3;340,342,343;,
   3;343,342,344;,
   3;343,344,345;,
   3;343,345,346;,
   3;347,348,349;,
   3;347,349,350;,
   3;351,347,350;,
   3;352,351,350;,
   3;353,352,350;,
   3;350,354,353;,
   3;350,355,354;,
   3;350,356,355;,
   3;350,357,356;,
   3;358,359,360;,
   3;359,358,361;,
   3;358,362,361;,
   3;361,363,364;,
   3;361,362,363;,
   3;362,365,363;,
   3;365,362,366;,
   3;367,368,369;,
   3;367,370,368;,
   3;368,370,371;,
   3;371,370,372;,
   3;372,373,371;,
   3;374,368,371;,
   3;371,375,374;,
   3;376,375,371;,
   3;377,374,375;,
   3;378,379,380;,
   3;379,381,380;,
   3;381,382,380;,
   3;383,382,381;,
   3;380,382,384;,
   3;382,385,384;,
   3;386,385,382;,
   3;386,382,387;,
   3;387,382,388;,
   3;382,389,388;,
   3;383,390,382;,
   3;391,389,382;,
   3;390,392,382;,
   3;393,392,390;,
   3;393,394,392;,
   3;395,396,393;,
   3;396,394,393;,
   3;396,397,394;,
   3;382,394,397;,
   3;382,397,398;,
   3;382,398,399;,
   3;382,399,400;,
   3;400,401,382;,
   3;382,401,402;,
   3;403,404,402;,
   3;404,382,402;,
   3;405,404,406;,
   3;382,404,405;,
   3;407,382,405;,
   3;391,382,407;,
   3;391,407,408;,
   3;407,409,408;,
   3;408,409,410;,
   3;409,411,410;,
   3;409,412,411;,
   3;413,412,409;,
   3;414,415,416;,
   3;414,417,415;,
   3;414,418,417;,
   3;419,418,414;,
   3;420,418,419;,
   3;420,421,418;,
   3;418,421,422;,
   3;418,423,417;,
   3;423,424,425;,
   3;426,424,423;,
   3;418,426,423;,
   3;427,426,418;,
   3;428,426,427;,
   3;429,428,427;,
   3;430,428,429;,
   3;429,431,430;,
   3;428,430,432;,
   3;433,434,435;,
   3;433,435,436;,
   3;435,437,436;,
   3;435,438,437;,
   3;436,437,439;,
   3;437,440,439;,
   3;437,441,440;,
   3;439,440,442;,
   3;443,444,445;,
   3;444,443,446;,
   3;447,446,443;,
   3;448,446,447;,
   3;447,449,448;,
   3;447,443,450;,
   3;447,450,451;,
   3;452,453,454;,
   3;453,455,454;,
   3;456,453,457;,
   3;458,453,456;,
   3;455,453,458;,
   3;459,455,458;,
   3;460,455,459;,
   3;460,461,455;,
   3;460,462,461;,
   3;463,464,460;,
   3;464,465,460;;
  }

  MeshMaterialList {
   1;
   386;
   0,
   0,
   0,
   0,
   0,
   0,
   0,
   0,
   0,
   0,
   0,
   0,
   0,
   0,
   0,
   0,
   0,
   0,
   0,
   0,
   0,
   0,
   0,
   0,
   0,
   0,
   0,
   0,
   0,
   0,
   0,
   0,
   0,
   0,
   0,
   0,
   0,
   0,
   0,
   0,
   0,
   0,
   0,
   0,
   0,
   0,
   0,
   0,
   0,
   0,
   0,
   0,
   0,
   0,
   0,
   0,
   0,
   0,
   0,
   0,
   0,
   0,
   0,
   0,
   0,
   0,
   0,
   0,
   0,
   0,
   0,
   0,
   0,
   0,
   0,
   0,
   0,
   0,
   0,
   0,
   0,
   0,
   0,
   0,
   0,
   0,
   0,
   0,
   0,
   0,
   0,
   0,
   0,
   0,
   0,
   0,
   0,
   0,
   0,
   0,
   0,
   0,
   0,
   0,
   0,
   0,
   0,
   0,
   0,
   0,
   0,
   0,
   0,
   0,
   0,
   0,
   0,
   0,
   0,
   0,
   0,
   0,
   0,
   0,
   0,
   0,
   0,
   0,
   0,
   0,
   0,
   0,
   0,
   0,
   0,
   0,
   0,
   0,
   0,
   0,
   0,
   0,
   0,
   0,
   0,
   0,
   0,
   0,
   0,
   0,
   0,
   0,
   0,
   0,
   0,
   0,
   0,
   0,
   0,
   0,
   0,
   0,
   0,
   0,
   0,
   0,
   0,
   0,
   0,
   0,
   0,
   0,
   0,
   0,
   0,
   0,
   0,
   0,
   0,
   0,
   0,
   0,
   0,
   0,
   0,
   0,
   0,
   0,
   0,
   0,
   0,
   0,
   0,
   0,
   0,
   0,
   0,
   0,
   0,
   0,
   0,
   0,
   0,
   0,
   0,
   0,
   0,
   0,
   0,
   0,
   0,
   0,
   0,
   0,
   0,
   0,
   0,
   0,
   0,
   0,
   0,
   0,
   0,
   0,
   0,
   0,
   0,
   0,
   0,
   0,
   0,
   0,
   0,
   0,
   0,
   0,
   0,
   0,
   0,
   0,
   0,
   0,
   0,
   0,
   0,
   0,
   0,
   0,
   0,
   0,
   0,
   0,
   0,
   0,
   0,
   0,
   0,
   0,
   0,
   0,
   0,
   0,
   0,
   0,
   0,
   0,
   0,
   0,
   0,
   0,
   0,
   0,
   0,
   0,
   0,
   0,
   0,
   0,
   0,
   0,
   0,
   0,
   0,
   0,
   0,
   0,
   0,
   0,
   0,
   0,
   0,
   0,
   0,
   0,
   0,
   0,
   0,
   0,
   0,
   0,
   0,
   0,
   0,
   0,
   0,
   0,
   0,
   0,
   0,
   0,
   0,
   0,
   0,
   0,
   0,
   0,
   0,
   0,
   0,
   0,
   0,
   0,
   0,
   0,
   0,
   0,
   0,
   0,
   0,
   0,
   0,
   0,
   0,
   0,
   0,
   0,
   0,
   0,
   0,
   0,
   0,
   0,
   0,
   0,
   0,
   0,
   0,
   0,
   0,
   0,
   0,
   0,
   0,
   0,
   0,
   0,
   0,
   0,
   0,
   0,
   0,
   0,
   0,
   0,
   0,
   0,
   0,
   0,
   0,
   0,
   0,
   0,
   0,
   0,
   0,
   0,
   0,
   0,
   0,
   0,
   0,
   0,
   0,
   0,
   0,
   0;
   { MI_MountainRock }
  }

  MeshTextureCoords c1 {
   466;
   0.119934;0.761230;,
   0.124878;0.747070;,
   0.142334;0.747559;,
   0.223389;0.618652;,
   0.268799;0.685547;,
   0.216553;0.675293;,
   -0.190063;0.340332;,
   -0.216064;0.310791;,
   -0.192749;0.318848;,
   -0.693359;0.411621;,
   -0.674805;0.396484;,
   -0.618164;0.404541;,
   -0.194214;0.673340;,
   -0.197754;0.652832;,
   -0.170898;0.691406;,
   -0.275635;0.761719;,
   -0.224609;0.813477;,
   -0.268799;0.789063;,
   -0.674805;0.396484;,
   -0.572266;0.361572;,
   -0.618164;0.404541;,
   -0.389160;0.600586;,
   -0.390625;0.640137;,
   -0.401855;0.620117;,
   0.164429;0.868652;,
   0.160522;0.853027;,
   0.170288;0.862305;,
   0.086121;0.801270;,
   0.079956;0.835449;,
   0.060120;0.798828;,
   -0.213867;0.699707;,
   -0.207520;0.746582;,
   -0.227295;0.733398;,
   0.242065;0.850098;,
   0.236694;0.876953;,
   0.231079;0.868164;,
   -0.727539;0.421631;,
   -0.733887;0.386719;,
   -0.704590;0.401367;,
   0.029404;0.779297;,
   0.020142;0.793457;,
   0.025391;0.753906;,
   -0.418945;0.318115;,
   -0.430176;0.322266;,
   -0.434082;0.297852;,
   0.202637;0.745605;,
   0.215820;0.754883;,
   0.219849;0.773438;,
   -0.569824;0.371094;,
   -0.618164;0.404541;,
   -0.572266;0.361572;,
   0.079956;0.835449;,
   0.060913;0.854004;,
   0.040436;0.838867;,
   0.236694;0.876953;,
   0.217285;0.897461;,
   0.231079;0.868164;,
   -0.361816;0.202393;,
   -0.373047;0.263428;,
   -0.389648;0.263916;,
   -0.402832;0.298340;,
   -0.396729;0.318604;,
   -0.401367;0.337402;,
   -0.099915;0.616699;,
   -0.121948;0.623535;,
   -0.092773;0.604980;,
   0.075989;0.785156;,
   0.108215;0.754395;,
   0.111450;0.776855;,
   -0.522949;0.271484;,
   -0.515137;0.213379;,
   -0.523926;0.293701;,
   -0.492676;0.338135;,
   -0.525391;0.325195;,
   -0.434082;0.297852;,
   -0.483154;0.351318;,
   -0.425781;0.207031;,
   -0.480225;0.239014;,
   -0.452881;0.204956;,
   -0.413330;0.185669;,
   -0.361816;0.202393;,
   -0.389648;0.263916;,
   -0.380615;0.283447;,
   -0.373047;0.263428;,
   -0.307129;0.282715;,
   -0.353027;0.286865;,
   -0.402832;0.298340;,
   -0.383057;0.312988;,
   -0.396729;0.318604;,
   -0.418945;0.318115;,
   -0.401367;0.337402;,
   -0.430176;0.322266;,
   -0.428955;0.384521;,
   -0.449707;0.358398;,
   -0.486328;0.731445;,
   -0.513672;0.580566;,
   -0.486328;0.678711;,
   -0.471191;0.529785;,
   -0.475342;0.456787;,
   -0.514648;0.428711;,
   -0.480469;0.435547;,
   -0.574707;0.429688;,
   -0.541992;0.403320;,
   -0.618164;0.404541;,
   -0.673828;0.520020;,
   -0.625977;0.589844;,
   -0.693359;0.411621;,
   -0.764160;0.488281;,
   -0.727539;0.421631;,
   -0.704590;0.401367;,
   -0.674805;0.396484;,
   -0.733887;0.386719;,
   -0.737793;0.343018;,
   -0.572266;0.361572;,
   -0.739746;0.304932;,
   -0.523926;0.293701;,
   -0.525391;0.325195;,
   -0.539551;0.347168;,
   -0.518555;0.346924;,
   -0.536621;0.364746;,
   -0.522949;0.271484;,
   -0.527344;0.158447;,
   -0.515137;0.213379;,
   -0.553223;0.175781;,
   -0.602051;0.175537;,
   -0.682129;0.164429;,
   -0.642090;0.162964;,
   -0.760254;0.259766;,
   -0.727051;0.151489;,
   -0.749512;0.168579;,
   -0.765137;0.169922;,
   -0.770508;0.238403;,
   -0.783203;0.174072;,
   0.074829;0.568848;,
   0.122742;0.585449;,
   0.164917;0.651367;,
   0.124023;0.639648;,
   0.008240;0.744141;,
   -0.001600;0.755859;,
   -0.022263;0.729492;,
   0.025391;0.753906;,
   -0.475830;0.410889;,
   -0.484131;0.392334;,
   -0.472656;0.379150;,
   -0.541992;0.403320;,
   0.019302;0.525391;,
   -0.039490;0.506836;,
   0.027557;0.502441;,
   -0.012146;0.490723;,
   -0.064941;0.646973;,
   -0.048523;0.618164;,
   -0.042694;0.634277;,
   -0.079834;0.635742;,
   0.107300;0.823730;,
   0.112305;0.834961;,
   0.104675;0.845215;,
   0.132813;0.858887;,
   0.138916;0.854004;,
   0.144775;0.876465;,
   -0.077820;0.716309;,
   -0.125610;0.707520;,
   -0.109070;0.699219;,
   -0.089600;0.752441;,
   -0.082825;0.841797;,
   0.019287;0.880371;,
   -0.045959;0.900879;,
   -0.075806;0.743652;,
   -0.043213;0.751465;,
   -0.062683;0.910156;,
   -0.000138;0.957031;,
   -0.059143;0.970215;,
   -0.084656;0.967285;,
   -0.009819;0.975586;,
   0.001269;1.000977;,
   -0.001600;0.755859;,
   -0.041290;0.731934;,
   0.040436;0.838867;,
   0.034668;0.891113;,
   0.059326;0.885742;,
   0.072327;0.879395;,
   -0.022263;0.729492;,
   0.060913;0.854004;,
   0.082458;0.874023;,
   0.096741;0.856934;,
   0.020142;0.793457;,
   0.025391;0.753906;,
   0.079956;0.835449;,
   0.060120;0.798828;,
   0.029404;0.779297;,
   0.049286;0.710449;,
   0.008240;0.744141;,
   0.004368;0.708008;,
   0.024048;0.687012;,
   0.075989;0.785156;,
   0.086121;0.801270;,
   0.086975;0.688477;,
   -0.026398;0.696777;,
   -0.012932;0.694824;,
   -0.075134;0.701172;,
   -0.089661;0.683105;,
   0.164917;0.651367;,
   0.124023;0.639648;,
   0.141113;0.676270;,
   0.155518;0.682129;,
   0.115662;0.706055;,
   0.108215;0.754395;,
   0.111450;0.776855;,
   0.124878;0.747070;,
   0.142334;0.747559;,
   0.119934;0.761230;,
   0.162354;0.754883;,
   0.151611;0.724121;,
   0.171143;0.730957;,
   0.159668;0.784180;,
   0.107300;0.823730;,
   0.104675;0.845215;,
   0.132813;0.858887;,
   0.144775;0.876465;,
   0.122009;0.871094;,
   0.160522;0.853027;,
   0.179321;0.816406;,
   0.144897;0.847656;,
   0.112305;0.834961;,
   0.138916;0.854004;,
   0.158569;0.878906;,
   0.167114;0.889160;,
   0.164429;0.868652;,
   0.171753;0.876953;,
   0.196777;0.898926;,
   0.170288;0.862305;,
   0.231079;0.868164;,
   0.217285;0.897461;,
   0.216553;0.835449;,
   0.242065;0.850098;,
   0.164429;0.868652;,
   0.158569;0.878906;,
   0.144897;0.847656;,
   0.171753;0.876953;,
   0.167114;0.889160;,
   0.219849;0.773438;,
   0.236328;0.767578;,
   0.250732;0.782715;,
   0.260010;0.767090;,
   0.252197;0.730957;,
   0.049286;0.710449;,
   0.124023;0.639648;,
   0.086975;0.688477;,
   0.024048;0.687012;,
   0.074829;0.568848;,
   -0.002850;0.650879;,
   -0.002058;0.638184;,
   0.053040;0.510742;,
   0.019302;0.525391;,
   0.027557;0.502441;,
   -0.015808;0.614258;,
   -0.039490;0.506836;,
   0.144775;0.495361;,
   0.122742;0.585449;,
   0.175781;0.531738;,
   -0.040466;0.606445;,
   -0.026901;0.620117;,
   0.216553;0.675293;,
   0.223389;0.618652;,
   0.164917;0.651367;,
   -0.092773;0.604980;,
   -0.124573;0.547363;,
   -0.099976;0.485352;,
   -0.012146;0.490723;,
   -0.155762;0.507813;,
   -0.163208;0.531250;,
   0.268799;0.685547;,
   0.182007;0.714355;,
   0.155518;0.682129;,
   0.141113;0.676270;,
   0.151611;0.724121;,
   0.115662;0.706055;,
   0.171143;0.730957;,
   -0.064941;0.646973;,
   -0.042694;0.634277;,
   -0.030548;0.651367;,
   -0.026901;0.620117;,
   -0.048523;0.618164;,
   -0.040466;0.606445;,
   -0.079834;0.635742;,
   -0.100037;0.604004;,
   -0.106445;0.615234;,
   -0.102173;0.644043;,
   -0.124573;0.547363;,
   -0.092773;0.604980;,
   -0.163208;0.531250;,
   -0.121948;0.623535;,
   -0.197754;0.652832;,
   -0.151245;0.659668;,
   -0.112183;0.661621;,
   -0.118408;0.674805;,
   -0.170898;0.691406;,
   -0.125610;0.707520;,
   -0.082825;0.841797;,
   -0.194214;0.673340;,
   -0.203735;0.669922;,
   -0.045959;0.900879;,
   -0.062683;0.910156;,
   -0.084656;0.967285;,
   -0.213867;0.699707;,
   -0.226196;0.688965;,
   -0.182129;0.789551;,
   -0.227295;0.733398;,
   -0.207520;0.746582;,
   -0.258301;0.746582;,
   -0.198486;0.803223;,
   -0.234375;0.762695;,
   -0.208740;0.822754;,
   -0.163818;0.863770;,
   -0.218994;0.867188;,
   -0.224609;0.813477;,
   -0.219727;0.796875;,
   -0.275635;0.761719;,
   -0.177002;0.872559;,
   -0.149170;0.888672;,
   -0.135132;0.904297;,
   -0.160645;0.947266;,
   -0.136230;0.976563;,
   -0.213623;0.938477;,
   -0.188354;0.900391;,
   -0.213135;0.897461;,
   -0.241211;0.910156;,
   -0.268799;0.789063;,
   -0.305664;0.825684;,
   -0.421387;0.799316;,
   -0.325684;0.858398;,
   -0.258789;0.668945;,
   -0.318359;0.667969;,
   -0.374268;0.660645;,
   -0.486328;0.731445;,
   -0.439209;0.688965;,
   -0.213135;0.897461;,
   -0.177002;0.872559;,
   -0.149170;0.888672;,
   -0.188354;0.900391;,
   -0.160645;0.947266;,
   -0.198486;0.803223;,
   -0.208740;0.822754;,
   -0.219727;0.796875;,
   -0.234375;0.762695;,
   -0.258301;0.746582;,
   -0.227295;0.733398;,
   -0.207520;0.746582;,
   -0.305664;0.825684;,
   -0.268799;0.789063;,
   -0.224609;0.813477;,
   -0.218994;0.867188;,
   -0.325684;0.858398;,
   -0.241211;0.910156;,
   -0.213135;0.897461;,
   -0.177002;0.872559;,
   -0.163818;0.863770;,
   -0.182129;0.789551;,
   -0.208740;0.822754;,
   -0.428955;0.384521;,
   -0.472656;0.379150;,
   -0.449707;0.358398;,
   -0.475830;0.410889;,
   -0.467041;0.429443;,
   -0.514648;0.428711;,
   -0.541992;0.403320;,
   -0.480469;0.435547;,
   -0.475342;0.456787;,
   0.247925;0.802246;,
   0.219849;0.773438;,
   0.250732;0.782715;,
   0.242065;0.850098;,
   0.159668;0.784180;,
   0.216553;0.835449;,
   0.179321;0.816406;,
   0.202637;0.745605;,
   0.171143;0.730957;,
   0.162354;0.754883;,
   0.182007;0.714355;,
   -0.203735;0.669922;,
   -0.226196;0.688965;,
   -0.197754;0.652832;,
   -0.258789;0.668945;,
   -0.389160;0.600586;,
   -0.318359;0.667969;,
   -0.163208;0.531250;,
   -0.155762;0.507813;,
   -0.171387;0.450684;,
   -0.187744;0.373535;,
   -0.190063;0.340332;,
   -0.216064;0.310791;,
   -0.374268;0.660645;,
   -0.265625;0.282471;,
   -0.390625;0.640137;,
   -0.439209;0.688965;,
   -0.401855;0.620117;,
   -0.486328;0.731445;,
   -0.486328;0.678711;,
   -0.513672;0.580566;,
   -0.471191;0.529785;,
   -0.475342;0.456787;,
   -0.467041;0.429443;,
   -0.428955;0.384521;,
   -0.401367;0.337402;,
   -0.396729;0.318604;,
   -0.383057;0.312988;,
   -0.353027;0.286865;,
   -0.380615;0.283447;,
   -0.307129;0.282715;,
   -0.302246;0.261475;,
   -0.373047;0.263428;,
   -0.326904;0.238403;,
   -0.330322;0.218994;,
   -0.341309;0.208252;,
   -0.361816;0.202393;,
   -0.102173;0.644043;,
   -0.121948;0.623535;,
   -0.106445;0.615234;,
   -0.112183;0.661621;,
   -0.089661;0.683105;,
   -0.079834;0.635742;,
   -0.064941;0.646973;,
   -0.030548;0.651367;,
   -0.026398;0.696777;,
   -0.118408;0.674805;,
   -0.125610;0.707520;,
   -0.151245;0.659668;,
   -0.109070;0.699219;,
   -0.075134;0.701172;,
   -0.077820;0.716309;,
   -0.041290;0.731934;,
   -0.075806;0.743652;,
   -0.043213;0.751465;,
   -0.089600;0.752441;,
   -0.030548;0.651367;,
   -0.026901;0.620117;,
   -0.015808;0.614258;,
   -0.026398;0.696777;,
   -0.002850;0.650879;,
   -0.002058;0.638184;,
   -0.012932;0.694824;,
   0.004368;0.708008;,
   0.024048;0.687012;,
   0.008240;0.744141;,
   0.252197;0.730957;,
   0.275146;0.744141;,
   0.260010;0.767090;,
   0.268799;0.685547;,
   0.215820;0.754883;,
   0.182007;0.714355;,
   0.202637;0.745605;,
   0.236328;0.767578;,
   0.219849;0.773438;,
   -0.618164;0.404541;,
   -0.569824;0.371094;,
   -0.541992;0.403320;,
   -0.484131;0.392334;,
   -0.539551;0.347168;,
   -0.572266;0.361572;,
   -0.536621;0.364746;,
   -0.518555;0.346924;,
   -0.483154;0.351318;,
   -0.472656;0.379150;,
   -0.449707;0.358398;,
   -0.518555;0.346924;,
   -0.525391;0.325195;,
   -0.492676;0.338135;;
  }

  MeshTextureCoords c2 {
   466;
   0.082520;0.063599;,
   0.097595;0.081238;,
   0.088318;0.095825;,
   0.610352;0.630859;,
   0.570801;0.581543;,
   0.607422;0.598145;,
   0.820313;0.251953;,
   0.787109;0.222290;,
   0.806641;0.228516;,
   0.234619;0.256104;,
   0.219238;0.233398;,
   0.226929;0.204346;,
   0.338867;0.101563;,
   0.334473;0.131592;,
   0.309082;0.074890;,
   0.214966;0.147217;,
   0.172363;0.088806;,
   0.209839;0.123474;,
   0.297607;0.072021;,
   0.333984;0.144409;,
   0.297363;0.110229;,
   0.526855;0.098755;,
   0.512207;0.071045;,
   0.526367;0.080872;,
   0.989746;0.101074;,
   0.980957;0.069336;,
   0.999023;0.085510;,
   0.584473;0.078003;,
   0.564941;0.104004;,
   0.564941;0.059692;,
   0.440430;0.048828;,
   0.460205;0.080383;,
   0.439941;0.082520;,
   0.678223;0.064880;,
   0.695801;0.093445;,
   0.683105;0.090088;,
   0.369873;0.351563;,
   0.384277;0.312744;,
   0.393066;0.350098;,
   0.225098;0.188477;,
   0.230225;0.165283;,
   0.243652;0.219605;,
   0.290771;0.081238;,
   0.277832;0.078247;,
   0.294434;0.049408;,
   0.152344;0.069702;,
   0.152832;0.097290;,
   0.135254;0.119934;,
   0.505859;0.066833;,
   0.486816;0.093384;,
   0.498535;0.056427;,
   0.248047;0.125732;,
   0.219238;0.093628;,
   0.242310;0.072876;,
   0.501465;0.336914;,
   0.485840;0.375000;,
   0.489014;0.332764;,
   0.939941;0.076965;,
   0.998535;0.142212;,
   0.992188;0.157104;,
   0.438232;0.055481;,
   0.430908;0.085938;,
   0.412598;0.104675;,
   0.172852;0.113953;,
   0.157715;0.092712;,
   0.187622;0.121399;,
   0.500977;0.083923;,
   0.515625;0.143311;,
   0.486816;0.125122;,
   0.553711;0.468750;,
   0.525879;0.417725;,
   0.577148;0.478272;,
   0.618164;0.413818;,
   0.605957;0.471191;,
   0.578613;0.337402;,
   0.625000;0.395752;,
   0.501465;0.336914;,
   0.525879;0.417725;,
   0.485840;0.375000;,
   0.483887;0.319092;,
   0.501953;0.236816;,
   0.554199;0.275146;,
   0.586426;0.275146;,
   0.560547;0.259766;,
   0.582031;0.165771;,
   0.591797;0.230225;,
   0.594238;0.302490;,
   0.623047;0.280029;,
   0.622070;0.300781;,
   0.607910;0.321777;,
   0.639160;0.306396;,
   0.604980;0.331055;,
   0.666504;0.342285;,
   0.631348;0.352539;,
   0.618652;0.630859;,
   0.667969;0.688477;,
   0.631348;0.653320;,
   0.712891;0.738770;,
   0.793945;0.688477;,
   0.787598;0.627441;,
   0.810547;0.664063;,
   0.743652;0.572266;,
   0.786621;0.586426;,
   0.723145;0.529785;,
   0.622559;0.578125;,
   0.618652;0.630859;,
   0.654785;0.481934;,
   0.562988;0.516602;,
   0.625977;0.466797;,
   0.650391;0.465332;,
   0.675781;0.487061;,
   0.641113;0.427979;,
   0.676270;0.383057;,
   0.778320;0.559570;,
   0.707520;0.357178;,
   0.894531;0.556641;,
   0.858887;0.588379;,
   0.819336;0.589355;,
   0.840820;0.613281;,
   0.807129;0.597168;,
   0.916992;0.531738;,
   0.999023;0.457764;,
   0.964356;0.501465;,
   0.966797;0.443848;,
   0.924805;0.402832;,
   0.870117;0.330078;,
   0.903320;0.362549;,
   0.727051;0.320068;,
   0.842773;0.289551;,
   0.810059;0.281006;,
   0.799805;0.264648;,
   0.739258;0.298096;,
   0.781738;0.252686;,
   0.542969;0.233398;,
   0.520020;0.211060;,
   0.510254;0.150513;,
   0.540039;0.176758;,
   0.962891;0.091248;,
   0.979492;0.084961;,
   0.997070;0.124695;,
   0.947754;0.067566;,
   0.626953;0.083191;,
   0.610352;0.075806;,
   0.602051;0.064392;,
   0.576172;0.108948;,
   0.691406;0.732422;,
   0.667480;0.779297;,
   0.675781;0.714844;,
   0.666992;0.744141;,
   0.111267;0.054749;,
   0.122375;0.094360;,
   0.104004;0.079956;,
   0.133423;0.056213;,
   0.531250;0.121460;,
   0.532715;0.139282;,
   0.516113;0.149292;,
   0.549805;0.184082;,
   0.562988;0.177490;,
   0.565430;0.223389;,
   0.243286;0.585449;,
   0.241577;0.520508;,
   0.252686;0.548828;,
   0.205933;0.558594;,
   0.123352;0.579590;,
   0.109863;0.680176;,
   0.087341;0.617676;,
   0.223267;0.577148;,
   0.223755;0.623535;,
   0.074890;0.621094;,
   0.109863;0.680176;,
   0.047485;0.671387;,
   0.044098;0.658691;,
   0.092346;0.689941;,
   0.092896;0.717773;,
   0.228638;0.677246;,
   0.236328;0.632324;,
   0.149048;0.714844;,
   0.092346;0.689941;,
   0.092896;0.717773;,
   0.088379;0.737305;,
   0.243286;0.658691;,
   0.132324;0.740723;,
   0.086487;0.748535;,
   0.097351;0.786133;,
   0.187256;0.702148;,
   0.237183;0.711914;,
   0.135376;0.768066;,
   0.186401;0.750000;,
   0.208618;0.710449;,
   0.312012;0.747070;,
   0.238525;0.695801;,
   0.277588;0.684082;,
   0.321777;0.696289;,
   0.197144;0.776855;,
   0.169556;0.776855;,
   0.301270;0.790527;,
   0.268311;0.663574;,
   0.277588;0.677246;,
   0.252686;0.595703;,
   0.264404;0.583008;,
   0.280273;0.858887;,
   0.309814;0.833008;,
   0.274658;0.837891;,
   0.265137;0.856445;,
   0.263916;0.816406;,
   0.211792;0.811523;,
   0.182983;0.814453;,
   0.213501;0.836426;,
   0.226929;0.865723;,
   0.197266;0.828125;,
   0.235474;0.902344;,
   0.267334;0.864258;,
   0.272461;0.910156;,
   0.186157;0.903809;,
   0.137451;0.801270;,
   0.111877;0.800293;,
   0.079834;0.835449;,
   0.043701;0.850098;,
   0.058960;0.813477;,
   0.087708;0.865234;,
   0.121033;0.936035;,
   0.097961;0.841797;,
   0.120972;0.805176;,
   0.085938;0.835449;,
   0.039337;0.865723;,
   0.019440;0.873535;,
   0.058563;0.867188;,
   0.043152;0.879883;,
   0.000499;0.918945;,
   0.072876;0.873535;,
   0.046722;0.974121;,
   0.007755;0.954102;,
   0.083557;0.984863;,
   0.059296;0.999023;,
   0.985840;0.166870;,
   0.972656;0.187744;,
   0.957520;0.124084;,
   0.996582;0.183594;,
   0.987305;0.209473;,
   0.059601;0.057343;,
   0.068787;0.080505;,
   0.047363;0.099609;,
   0.059906;0.111145;,
   0.092346;0.116028;,
   0.849121;0.000499;,
   0.770020;0.126465;,
   0.809082;0.054993;,
   0.895508;0.041168;,
   0.822266;0.162476;,
   0.924316;0.106995;,
   0.918945;0.120300;,
   0.806641;0.228516;,
   0.835938;0.237793;,
   0.820313;0.251953;,
   0.917481;0.161255;,
   0.879395;0.282715;,
   0.806641;0.228516;,
   0.801758;0.168457;,
   0.787109;0.222290;,
   0.942871;0.178467;,
   0.928223;0.161865;,
   0.712402;0.148315;,
   0.742676;0.189453;,
   0.746094;0.138794;,
   0.998535;0.226074;,
   0.980957;0.315186;,
   0.914063;0.348389;,
   0.847168;0.281982;,
   0.974609;0.372559;,
   0.991699;0.356445;,
   0.697754;0.175659;,
   0.699219;0.086548;,
   0.748535;0.108276;,
   0.765625;0.104736;,
   0.741211;0.045227;,
   0.785156;0.065308;,
   0.699219;0.045441;,
   0.157959;0.159546;,
   0.181152;0.180786;,
   0.166016;0.199829;,
   0.198486;0.197754;,
   0.194336;0.176880;,
   0.213379;0.181641;,
   0.159302;0.148560;,
   0.187622;0.121399;,
   0.172852;0.113953;,
   0.141113;0.121826;,
   0.056549;0.563965;,
   0.046295;0.475098;,
   0.088867;0.605469;,
   0.076172;0.469482;,
   0.159058;0.498779;,
   0.135376;0.462647;,
   0.101135;0.428223;,
   0.112915;0.419678;,
   0.167725;0.442139;,
   0.132935;0.385498;,
   0.250977;0.245117;,
   0.165405;0.468750;,
   0.173706;0.481201;,
   0.287109;0.192749;,
   0.299561;0.205444;,
   0.339600;0.199463;,
   0.201416;0.465088;,
   0.204590;0.476318;,
   0.249634;0.383545;,
   0.232422;0.443848;,
   0.230469;0.430176;,
   0.255859;0.440918;,
   0.267090;0.377441;,
   0.256104;0.423340;,
   0.283691;0.362793;,
   0.302979;0.325439;,
   0.326172;0.346924;,
   0.285156;0.380615;,
   0.269531;0.387451;,
   0.277588;0.438965;,
   0.317871;0.330566;,
   0.315918;0.298096;,
   0.321777;0.277832;,
   0.368652;0.267334;,
   0.380615;0.242065;,
   0.384277;0.312744;,
   0.337646;0.313721;,
   0.349854;0.334961;,
   0.369873;0.351563;,
   0.288086;0.415283;,
   0.330811;0.409912;,
   0.381104;0.462891;,
   0.362061;0.401367;,
   0.225464;0.500977;,
   0.273926;0.512695;,
   0.309326;0.531738;,
   0.381836;0.515625;,
   0.354980;0.530273;,
   0.055389;0.131836;,
   0.027374;0.127563;,
   0.010262;0.095093;,
   0.045380;0.110535;,
   0.021347;0.063599;,
   0.527832;0.080750;,
   0.536621;0.066040;,
   0.548340;0.090820;,
   0.563477;0.126587;,
   0.588867;0.144287;,
   0.562988;0.147217;,
   0.542969;0.133423;,
   0.584473;0.157593;,
   0.601563;0.111145;,
   0.639160;0.108093;,
   0.651367;0.152710;,
   0.584473;0.191650;,
   0.641113;0.197754;,
   0.662598;0.178223;,
   0.690430;0.143677;,
   0.696289;0.127319;,
   0.669434;0.069397;,
   0.648926;0.106506;,
   0.409668;0.117981;,
   0.387451;0.074707;,
   0.400391;0.079895;,
   0.371582;0.115173;,
   0.363037;0.135132;,
   0.346436;0.091187;,
   0.372803;0.055969;,
   0.346436;0.127686;,
   0.336426;0.151978;,
   0.501953;0.236816;,
   0.471436;0.185791;,
   0.510254;0.206299;,
   0.483887;0.319092;,
   0.379395;0.181030;,
   0.444092;0.292725;,
   0.389893;0.251953;,
   0.469482;0.135498;,
   0.441650;0.087097;,
   0.405762;0.127441;,
   0.479492;0.087524;,
   0.561035;0.996582;,
   0.525879;0.985352;,
   0.575684;0.984375;,
   0.509277;0.969238;,
   0.419922;0.896973;,
   0.460693;0.949219;,
   0.645508;0.901856;,
   0.658203;0.882813;,
   0.660156;0.816895;,
   0.666992;0.744141;,
   0.675781;0.714844;,
   0.656738;0.679199;,
   0.425293;0.937500;,
   0.610352;0.630859;,
   0.416260;0.924316;,
   0.379639;0.945801;,
   0.411621;0.914551;,
   0.352783;0.953125;,
   0.353760;0.939453;,
   0.341309;0.899414;,
   0.333740;0.850586;,
   0.324707;0.762695;,
   0.351318;0.736816;,
   0.397949;0.690918;,
   0.430908;0.635742;,
   0.436279;0.615723;,
   0.455322;0.604004;,
   0.500977;0.584473;,
   0.459717;0.575684;,
   0.560547;0.602539;,
   0.570801;0.581543;,
   0.474121;0.571289;,
   0.540039;0.550781;,
   0.537109;0.528320;,
   0.522949;0.514648;,
   0.495117;0.506348;,
   0.085205;0.389160;,
   0.112000;0.411377;,
   0.092468;0.412598;,
   0.102600;0.370117;,
   0.086914;0.332764;,
   0.060669;0.381348;,
   0.050537;0.357422;,
   0.013527;0.331787;,
   0.012932;0.282227;,
   0.112183;0.361328;,
   0.144287;0.327393;,
   0.112610;0.404541;,
   0.118591;0.324219;,
   0.075073;0.305420;,
   0.084656;0.287598;,
   0.041656;0.253662;,
   0.092224;0.254150;,
   0.049530;0.231445;,
   0.109253;0.255859;,
   0.039215;0.233398;,
   0.006699;0.254150;,
   0.002682;0.253662;,
   0.073303;0.199829;,
   0.013939;0.199463;,
   0.000499;0.212769;,
   0.068176;0.173096;,
   0.068176;0.140869;,
   0.023895;0.133545;,
   0.107239;0.112671;,
   0.302246;0.173096;,
   0.316406;0.191895;,
   0.297852;0.195068;,
   0.338379;0.158569;,
   0.250977;0.167358;,
   0.256348;0.091797;,
   0.246582;0.139771;,
   0.269531;0.198242;,
   0.248413;0.190063;,
   0.155396;0.339844;,
   0.130981;0.299561;,
   0.177490;0.285156;,
   0.188721;0.244751;,
   0.115417;0.249146;,
   0.121399;0.293457;,
   0.138062;0.262451;,
   0.130249;0.225586;,
   0.177246;0.211914;,
   0.199951;0.233276;,
   0.217041;0.204590;,
   0.119263;0.226807;,
   0.107910;0.206177;,
   0.160645;0.201904;;
  }
 }
}