xof 0303txt 0032
template ColorRGBA {
 <35ff44e0-6c7c-11cf-8f52-0040333594a3>
 FLOAT red;
 FLOAT green;
 FLOAT blue;
 FLOAT alpha;
}

template ColorRGB {
 <d3e16e81-7835-11cf-8f52-0040333594a3>
 FLOAT red;
 FLOAT green;
 FLOAT blue;
}

template Material {
 <3d82ab4d-62da-11cf-ab39-0020af71e433>
 ColorRGBA faceColor;
 FLOAT power;
 ColorRGB specularColor;
 ColorRGB emissiveColor;
 [...]
}

template TextureFilename {
 <a42790e1-7810-11cf-8f52-0040333594a3>
 STRING filename;
}

template Frame {
 <3d82ab46-62da-11cf-ab39-0020af71e433>
 [...]
}

template Matrix4x4 {
 <f6f23f45-7686-11cf-8f52-0040333594a3>
 array FLOAT matrix[16];
}

template FrameTransformMatrix {
 <f6f23f41-7686-11cf-8f52-0040333594a3>
 Matrix4x4 frameMatrix;
}

template Vector {
 <3d82ab5e-62da-11cf-ab39-0020af71e433>
 FLOAT x;
 FLOAT y;
 FLOAT z;
}

template MeshFace {
 <3d82ab5f-62da-11cf-ab39-0020af71e433>
 DWORD nFaceVertexIndices;
 array DWORD faceVertexIndices[nFaceVertexIndices];
}

template Mesh {
 <3d82ab44-62da-11cf-ab39-0020af71e433>
 DWORD nVertices;
 array Vector vertices[nVertices];
 DWORD nFaces;
 array MeshFace faces[nFaces];
 [...]
}

template MeshMaterialList {
 <f6f23f42-7686-11cf-8f52-0040333594a3>
 DWORD nMaterials;
 DWORD nFaceIndexes;
 array DWORD faceIndexes[nFaceIndexes];
 [Material <3d82ab4d-62da-11cf-ab39-0020af71e433>]
}

template VertexElement {
 <f752461c-1e23-48f6-b9f8-8350850f336f>
 DWORD Type;
 DWORD Method;
 DWORD Usage;
 DWORD UsageIndex;
}

template DeclData {
 <bf22e553-292c-4781-9fea-62bd554bdd93>
 DWORD nElements;
 array VertexElement Elements[nElements];
 DWORD nDWords;
 array DWORD data[nDWords];
}


Material MI_HOS_Debris01 {
 1.000000;1.000000;1.000000;1.000000;;
 10.000000;
 0.000000;0.000000;0.000000;;
 0.000000;0.000000;0.000000;;

 TextureFilename {
  "T_Concrete05_D.tga";
 }
}

Frame SM_DebrisConcrete03 {
 

 FrameTransformMatrix {
  1.000000,0.000000,0.000000,0.000000,0.000000,1.000000,0.000000,0.000000,0.000000,0.000000,1.000000,0.000000,0.000000,0.000000,0.000000,1.000000;;
 }

 Mesh SM_DebrisConcrete03 {
  400;
  -88.400378;0.447166;-32.516579;,
  -87.847277;1.315969;-31.822003;,
  -88.923488;1.336888;-34.763485;,
  -76.873094;0.447166;-30.311510;,
  -77.737165;1.232183;-31.050806;,
  -82.659302;1.749759;-31.747274;,
  -68.568051;0.472833;-50.836099;,
  -67.851226;1.314430;-50.410483;,
  -69.942874;1.314430;-52.145744;,
  -62.103021;0.472833;-51.006358;,
  -62.991373;1.314406;-51.069011;,
  -65.057248;1.820753;-50.993216;,
  3.928779;-0.260845;-56.378528;,
  4.419598;1.143070;-56.433344;,
  7.059397;1.214429;-56.055334;,
  3.957792;1.214429;-52.087920;,
  -18.916722;0.053458;-87.191085;,
  -18.988525;1.074077;-89.941830;,
  -25.059582;1.074086;-86.677734;,
  -15.641454;1.074077;-90.782592;,
  -73.831757;0.163970;-42.267891;,
  -73.688806;1.834900;-42.066758;,
  -71.231917;1.834909;-43.161728;,
  -74.843565;1.834909;-41.706528;,
  42.031754;0.727810;-10.963058;,
  48.175245;0.727845;-6.491047;,
  42.473670;-0.572121;-11.409694;,
  49.217936;-0.572121;-6.776986;,
  -15.939550;-0.000000;111.024346;,
  -15.926317;1.370283;111.719462;,
  -9.938646;1.370296;120.996250;,
  -20.455261;1.370296;107.821210;,
  -40.613923;-0.437297;-28.537162;,
  -39.938454;1.649013;-28.401549;,
  -30.411635;1.649036;-27.133283;,
  -43.908003;1.649013;-25.937680;,
  22.918731;0.322550;-17.749210;,
  21.617843;0.998128;-17.663067;,
  21.769187;0.998134;-15.045330;,
  21.988270;0.998128;-18.741341;,
  -61.709222;0.472833;-52.006906;,
  -62.991373;1.314406;-51.069011;,
  -62.103021;0.472833;-51.006358;,
  -62.126189;0.472833;-52.726454;,
  -63.022592;0.472833;-53.657117;,
  -64.805542;1.314406;-53.724742;,
  -64.173248;0.472833;-54.587987;,
  -65.594579;0.472833;-54.436512;,
  -65.057248;1.820753;-50.993216;,
  -67.494400;0.885246;-54.304589;,
  -68.084045;0.472833;-54.868646;,
  -69.583021;0.472833;-53.898682;,
  -70.974394;0.472833;-53.484214;,
  -69.942874;1.314430;-52.145744;,
  -70.785299;0.472833;-51.929389;,
  -68.568051;0.472833;-50.836099;,
  -67.851226;1.314430;-50.410483;,
  -68.307219;0.472833;-50.029504;,
  -66.707642;0.472833;-49.580822;,
  -65.078035;0.472833;-49.619328;,
  -63.766374;0.472833;-49.930349;,
  -62.550758;0.472833;-50.139542;,
  1.948963;-0.010513;-51.815040;,
  3.957792;1.214429;-52.087920;,
  3.928779;-0.260845;-56.378528;,
  4.607233;1.214416;-49.840762;,
  2.675508;-0.010487;-48.950339;,
  4.956604;-0.010500;-45.953706;,
  9.253055;2.007367;-50.297152;,
  4.419598;1.143070;-56.433344;,
  6.660512;1.214416;-46.451024;,
  7.059397;1.214429;-56.055334;,
  7.759628;-0.010513;-43.859414;,
  5.033876;-0.010500;-57.004909;,
  9.734762;1.214443;-44.320445;,
  10.343400;-0.010500;-42.777005;,
  14.280446;-0.010500;-43.667811;,
  9.207115;0.440740;-56.315942;,
  10.175052;-0.010500;-56.598938;,
  9.493165;2.007380;-46.075088;,
  13.510534;0.440727;-55.530912;,
  13.579578;-0.010513;-55.785677;,
  15.678798;1.214429;-52.278656;,
  17.503843;1.214416;-54.669939;,
  18.392536;-0.010513;-55.595405;,
  21.841936;-0.010513;-54.092006;,
  14.004293;1.214443;-47.956218;,
  18.424579;1.214416;-52.523866;,
  13.071276;1.214429;-44.412845;,
  15.364304;1.214429;-46.204947;,
  18.014309;-0.010500;-45.245469;,
  17.467648;1.214429;-47.632611;,
  19.613955;-0.010513;-46.573181;,
  21.413318;-0.010500;-48.334822;,
  19.200574;1.214416;-51.043056;,
  22.992600;-0.010500;-49.859155;,
  49.217936;-0.572121;-6.776986;,
  48.175245;0.727845;-6.491047;,
  49.886614;-0.572121;-2.118134;,
  48.389254;0.727845;-2.163380;,
  48.566250;-0.572121;2.013615;,
  42.065866;1.988464;-6.849892;,
  42.031754;0.727810;-10.963058;,
  47.067542;0.727845;1.532719;,
  42.452758;-0.572121;2.229939;,
  42.463110;0.727845;1.153462;,
  38.277638;1.988464;-2.796566;,
  34.375978;0.727845;6.169819;,
  35.330886;-0.572121;6.755772;,
  34.833926;2.826401;-6.551456;,
  30.293978;0.727845;11.526127;,
  30.615699;-0.572121;12.590413;,
  23.934688;-0.572121;16.881909;,
  30.549613;1.341816;-1.875553;,
  33.162656;1.988464;-9.200702;,
  37.793770;0.727845;-13.814667;,
  42.473670;-0.572121;-11.409694;,
  38.307046;-0.572121;-14.627456;,
  32.449898;-0.572121;-13.032306;,
  32.257997;0.727845;-11.939178;,
  28.065162;-0.572121;-9.871437;,
  28.470336;0.727845;-8.887001;,
  23.084072;0.727845;-4.986706;,
  22.000270;-0.572121;-5.699234;,
  26.201784;1.955785;2.020321;,
  20.959331;0.727828;-0.850815;,
  19.577237;-0.572121;-1.288090;,
  28.294061;1.955785;6.722550;,
  17.946926;0.727828;1.601555;,
  16.530426;-0.572121;1.599934;,
  22.881882;0.727845;14.576250;,
  19.138755;-0.572121;18.449162;,
  22.590310;1.955785;7.892838;,
  18.833306;0.727845;12.705226;,
  16.113555;-0.572121;16.632019;,
  16.363907;0.727828;5.607162;,
  12.696070;-0.572121;5.981823;,
  13.609981;-0.572121;10.427990;,
  16.757282;0.727845;9.447712;,
  -27.076672;0.820076;-3.872066;,
  -25.854366;-0.723016;-3.603300;,
  -33.444726;-1.161343;-6.961102;,
  -32.787734;0.591606;-5.933298;,
  -36.961488;-1.175215;-7.947497;,
  -41.249907;0.521931;-5.221060;,
  -42.146957;-1.178273;-6.238052;,
  -45.638474;-1.170548;-3.595959;,
  -44.511616;0.541234;-3.477944;,
  -45.186451;-1.142071;1.833269;,
  -39.562874;2.956180;-4.991615;,
  -44.208042;0.639173;1.827528;,
  -43.724144;-1.132627;4.111933;,
  -44.164298;2.984684;-1.645380;,
  -35.240394;4.227019;-4.630814;,
  -43.542301;3.026274;1.018049;,
  -42.671280;0.667723;3.077976;,
  -40.396454;-1.116539;4.889261;,
  -36.793350;4.307982;1.842455;,
  -29.492243;3.126513;-3.119991;,
  -39.853757;0.693795;3.603344;,
  -31.154554;3.117113;-0.375540;,
  -31.157613;0.721262;6.205356;,
  -30.873418;-1.108398;7.145377;,
  -33.575091;1.619308;4.096806;,
  -26.991498;-1.093885;3.152290;,
  -28.569290;0.777623;-0.083162;,
  -75.237702;0.447166;-30.864810;,
  -77.737165;1.232183;-31.050806;,
  -76.873094;0.447166;-30.311510;,
  -75.447955;0.447166;-31.834931;,
  -77.014733;0.447166;-33.213824;,
  -79.369760;0.447166;-30.073469;,
  -82.659302;1.749759;-31.747274;,
  -82.256486;0.447166;-30.230470;,
  -84.967795;0.447166;-30.177430;,
  -80.224109;1.274727;-34.057181;,
  -79.282022;0.447166;-34.839107;,
  -81.649530;0.447166;-35.804099;,
  -87.847277;1.315969;-31.822003;,
  -86.924966;0.447166;-30.687670;,
  -88.351744;0.447166;-31.722995;,
  -88.400378;0.447166;-32.516579;,
  -88.923488;1.336888;-34.763485;,
  -89.552435;0.447166;-35.207834;,
  -88.751405;0.447166;-37.047939;,
  -84.891955;0.957349;-36.854035;,
  -86.804717;0.447166;-37.555875;,
  -84.961114;0.447166;-37.602051;,
  -14.735050;0.053459;-89.616518;,
  -15.641454;1.074077;-90.782592;,
  -18.916722;0.053458;-87.191085;,
  -14.397238;1.074077;-94.368742;,
  -12.450836;0.053458;-95.140333;,
  -12.862629;0.053459;-98.719635;,
  -24.408974;0.053458;-85.281190;,
  -25.059582;1.074086;-86.677734;,
  -15.284914;1.074086;-97.713574;,
  -15.076251;0.053452;-101.190880;,
  -27.783149;0.516611;-86.616774;,
  -28.851654;0.053458;-86.231994;,
  -17.412018;1.074068;-100.828064;,
  -16.375936;0.053454;-103.287078;,
  -18.169346;0.053454;-103.352941;,
  -29.657296;0.516649;-88.366733;,
  -29.779158;0.053454;-88.133562;,
  -18.223278;1.645392;-97.301376;,
  -29.857504;1.074068;-91.201446;,
  -30.875312;0.053459;-90.360550;,
  -30.371629;0.053459;-93.840544;,
  -27.695613;1.074086;-93.115981;,
  -28.821706;1.074077;-93.772109;,
  -28.128147;1.074086;-95.064986;,
  -29.592202;0.053447;-96.461702;,
  -26.584774;0.053451;-97.396909;,
  -22.083037;1.074086;-99.628659;,
  -22.893669;0.053458;-100.331354;,
  -20.859600;0.053456;-101.796384;,
  -20.236741;1.074086;-100.685549;,
  -21.828030;1.074086;-97.505997;,
  -18.739370;1.074086;-101.739187;,
  -21.976757;1.645392;-91.377734;,
  -18.988525;1.074077;-89.941830;,
  -75.424698;0.163970;-42.466080;,
  -74.843565;1.834909;-41.706528;,
  -73.831757;0.163970;-42.267891;,
  -75.688173;1.834900;-40.621549;,
  -76.863795;0.163970;-40.959350;,
  -77.479994;0.163970;-39.155030;,
  -71.482118;0.163970;-44.305770;,
  -71.231917;1.834909;-43.161728;,
  -76.262445;1.834900;-38.919530;,
  -77.556224;0.163970;-37.578483;,
  -69.694406;1.267589;-43.456454;,
  -68.853408;0.163970;-43.721539;,
  -76.247923;1.834919;-37.339894;,
  -77.859731;0.163970;-36.204298;,
  -76.551206;0.163970;-35.239878;,
  -68.765818;1.267580;-41.739600;,
  -68.022765;0.163970;-42.224883;,
  -74.913466;2.416353;-38.287850;,
  -68.584058;1.834900;-39.324646;,
  -68.202234;0.163970;-39.174371;,
  -69.088320;0.163970;-37.145446;,
  -70.687654;1.834909;-38.671472;,
  -69.867059;1.834900;-37.758304;,
  -70.604262;1.834900;-36.651878;,
  -70.238189;0.163970;-36.541062;,
  -71.485178;0.748997;-34.746598;,
  -73.421363;1.834909;-35.519142;,
  -73.531866;0.163970;-34.304688;,
  -75.000589;0.163970;-34.266189;,
  -74.572006;1.834909;-35.878848;,
  -73.350451;1.834919;-37.331555;,
  -75.919859;1.834909;-36.108902;,
  -72.726950;2.416344;-40.174419;,
  -73.688806;1.834900;-42.066758;,
  -19.956834;-0.000000;104.781722;,
  -20.455261;1.370296;107.821210;,
  -15.939550;-0.000000;111.024346;,
  -22.853741;1.370283;107.759322;,
  -22.813256;-0.000000;104.447213;,
  -34.778064;-0.000000;106.061075;,
  -7.183895;-0.000000;118.155622;,
  -9.938646;1.370296;120.996250;,
  -34.081043;1.370283;108.359846;,
  -36.446774;-0.000000;108.816371;,
  -7.475534;0.577469;130.138150;,
  -5.963838;-0.000000;134.272282;,
  -34.261789;1.370310;113.037722;,
  -37.769226;-0.000000;111.598989;,
  -31.451741;-0.000000;122.908877;,
  -8.344930;0.577454;137.741670;,
  -7.385366;-0.000000;140.048435;,
  -31.176938;2.182862;115.093082;,
  -12.386050;1.370283;143.136102;,
  -11.962764;-0.000000;144.876314;,
  -18.947994;-0.000000;150.009766;,
  -18.954358;1.370296;141.131366;,
  -19.887998;1.370283;146.078656;,
  -23.826523;1.370283;145.665216;,
  -24.485787;-0.000000;149.514918;,
  -29.270973;-0.000000;146.043123;,
  -27.539235;1.370296;133.831066;,
  -29.462749;-0.000000;136.377997;,
  -31.555466;-0.000000;131.684506;,
  -28.259926;1.370296;129.126618;,
  -24.280541;1.370310;129.596160;,
  -29.386819;1.370296;123.052147;,
  -17.102896;2.182848;121.800051;,
  -15.926317;1.370283;111.719462;,
  -46.949555;-0.437297;-27.163750;,
  -43.908003;1.649013;-25.937680;,
  -40.613923;-0.437297;-28.537162;,
  -46.016982;1.649013;-23.279984;,
  -50.365901;-0.437297;-24.040906;,
  -53.027066;-0.437297;-19.696426;,
  -32.188064;-0.437297;-30.508326;,
  -30.411635;1.649036;-27.133283;,
  -47.931939;1.649014;-19.861038;,
  -51.892502;-0.437297;-15.629310;,
  -23.653122;0.822311;-26.316811;,
  -21.549882;-0.437297;-28.509914;,
  -43.330237;1.649036;-17.122410;,
  -49.736755;-0.437297;-12.189415;,
  -38.557891;-0.437297;-11.251629;,
  -19.537758;1.399348;-26.060419;,
  -19.096832;-0.437297;-26.286384;,
  -38.527741;3.022843;-19.600536;,
  -16.619240;1.649036;-20.198304;,
  -13.901178;-0.437297;-21.429440;,
  -15.195587;-0.437297;-11.926918;,
  -21.298958;1.648990;-18.903008;,
  -16.877098;1.649013;-14.912054;,
  -18.778648;1.648990;-11.985424;,
  -17.263664;-0.437297;-6.006714;,
  -21.489349;-0.437297;-6.571545;,
  -25.556213;1.649013;-12.475071;,
  -23.803605;-0.437297;-8.266278;,
  -29.363501;-0.437297;-8.127548;,
  -31.081850;1.649014;-13.624197;,
  -29.699302;1.649014;-17.448192;,
  -37.645965;1.649014;-14.311027;,
  -33.139283;3.022843;-23.392490;,
  -39.938454;1.649013;-28.401549;,
  22.754310;0.322550;-19.169453;,
  21.988270;0.998128;-18.741341;,
  22.918731;0.322550;-17.749210;,
  21.269562;0.998128;-19.582270;,
  21.731568;0.322550;-20.568282;,
  20.386842;0.322550;-21.188461;,
  22.815293;0.322550;-15.044205;,
  21.769187;0.998134;-15.045330;,
  19.965416;0.998134;-20.166493;,
  18.807938;0.322546;-21.231976;,
  21.166816;0.629124;-13.403560;,
  21.067162;0.322550;-12.535544;,
  18.277488;0.998122;-20.136805;,
  17.422256;0.322546;-21.450506;,
  16.844778;0.322546;-20.791784;,
  19.713509;0.629149;-12.285200;,
  19.770187;0.322546;-12.112488;,
  19.032837;1.376298;-18.963744;,
  18.272994;0.998122;-12.519614;,
  18.411720;0.322550;-11.662031;,
  16.906670;0.322550;-12.633508;,
  17.858917;0.998134;-14.249371;,
  17.264763;0.998128;-13.673237;,
  16.555970;0.998134;-14.703003;,
  15.562294;0.322543;-13.983523;,
  15.453605;0.322544;-16.372778;,
  16.572243;0.998134;-18.183125;,
  15.615320;0.322550;-18.451221;,
  16.018349;0.322548;-19.795238;,
  17.161378;0.998134;-19.166637;,
  17.682861;0.998134;-17.624158;,
  17.381096;0.998134;-20.132162;,
  20.158371;1.376298;-16.841051;,
  21.617843;0.998128;-17.663067;,
  -76.717370;1.058096;-52.846710;,
  -74.739654;-1.392208;-54.473030;,
  -80.994317;-1.392210;-56.197331;,
  -72.835539;-1.392213;-49.574538;,
  -81.136320;-0.232499;-54.513350;,
  -87.041203;-1.392208;-53.189053;,
  -77.941146;1.505183;-49.775475;,
  -86.008262;-0.232540;-52.032954;,
  -78.805677;0.272492;-43.507904;,
  -77.747770;-1.392208;-42.288115;,
  -82.877837;2.382732;-51.389104;,
  -87.912173;1.819134;-48.218048;,
  -91.493920;-1.392208;-48.221779;,
  -82.315821;3.087490;-47.009658;,
  -87.145818;1.819176;-44.090813;,
  -90.186048;-1.392207;-41.890909;,
  -85.078112;-1.392208;-39.184752;,
  -80.249082;2.580172;-44.575683;,
  -83.261741;0.836256;-42.476493;,
  -37.321181;-0.024260;66.701005;,
  -41.857632;-0.024260;61.273024;,
  -42.833261;1.106520;63.161709;,
  -46.320157;-0.024260;63.428365;,
  -40.432717;1.399736;67.731341;,
  -37.404934;-0.024261;73.233107;,
  -44.963558;1.188570;66.191117;,
  -39.210211;1.515228;73.357626;,
  -46.452195;-0.024260;79.616499;,
  -42.104141;2.307016;66.675187;,
  -42.213830;2.570974;70.890906;,
  -40.837293;2.307003;72.863763;,
  -47.007018;2.570974;72.581395;,
  -50.525770;1.515228;68.493357;,
  -52.109546;-0.024260;67.744493;,
  -49.090682;2.307003;69.771635;,
  -53.317366;1.077069;70.390944;,
  -55.861901;-0.024260;70.411821;,
  -50.435126;2.204393;74.506624;,
  -46.374093;2.307016;76.309082;,
  -51.394656;1.077069;77.570227;,
  -53.071603;-0.024260;78.699494;,
  -46.850086;1.515214;78.529574;;
  524;
  3;0,1,2;,
  3;3,4,5;,
  3;6,7,8;,
  3;9,10,11;,
  3;12,13,14;,
  3;15,13,12;,
  3;16,17,18;,
  3;19,17,16;,
  3;20,21,22;,
  3;23,21,20;,
  3;24,25,26;,
  3;25,27,26;,
  3;28,29,30;,
  3;31,29,28;,
  3;32,33,34;,
  3;35,33,32;,
  3;36,37,38;,
  3;39,37,36;,
  3;40,41,42;,
  3;43,41,40;,
  3;43,44,41;,
  3;44,45,41;,
  3;46,45,44;,
  3;46,47,45;,
  3;45,48,41;,
  3;49,45,47;,
  3;50,49,47;,
  3;49,50,51;,
  3;52,49,51;,
  3;49,52,45;,
  3;53,45,52;,
  3;48,45,53;,
  3;54,53,52;,
  3;54,55,53;,
  3;53,56,48;,
  3;57,56,55;,
  3;58,56,57;,
  3;58,59,56;,
  3;59,48,56;,
  3;59,60,48;,
  3;60,61,48;,
  3;61,42,48;,
  3;62,63,64;,
  3;65,63,62;,
  3;66,65,62;,
  3;66,67,65;,
  3;65,68,63;,
  3;68,69,63;,
  3;67,70,65;,
  3;71,69,68;,
  3;67,72,70;,
  3;73,64,71;,
  3;72,74,70;,
  3;72,75,74;,
  3;75,76,74;,
  3;73,71,77;,
  3;78,73,77;,
  3;70,74,79;,
  3;65,70,79;,
  3;79,68,65;,
  3;78,77,80;,
  3;81,78,80;,
  3;71,82,77;,
  3;80,77,82;,
  3;68,82,71;,
  3;80,83,81;,
  3;83,80,82;,
  3;83,84,81;,
  3;84,83,85;,
  3;82,68,86;,
  3;68,79,86;,
  3;87,83,82;,
  3;83,87,85;,
  3;79,88,86;,
  3;79,74,88;,
  3;76,88,74;,
  3;89,88,76;,
  3;88,89,86;,
  3;90,89,76;,
  3;86,89,91;,
  3;91,89,90;,
  3;86,91,82;,
  3;82,91,87;,
  3;92,91,90;,
  3;92,93,91;,
  3;87,91,94;,
  3;93,94,91;,
  3;85,87,94;,
  3;95,94,93;,
  3;95,85,94;,
  3;96,97,98;,
  3;97,99,98;,
  3;98,99,100;,
  3;97,101,99;,
  3;97,102,101;,
  3;99,103,100;,
  3;100,103,104;,
  3;105,103,99;,
  3;103,105,104;,
  3;106,105,99;,
  3;101,106,99;,
  3;105,107,104;,
  3;107,105,106;,
  3;107,108,104;,
  3;101,109,106;,
  3;107,110,108;,
  3;110,111,108;,
  3;111,110,112;,
  3;106,109,113;,
  3;113,107,106;,
  3;109,101,114;,
  3;113,109,114;,
  3;101,102,115;,
  3;114,101,115;,
  3;115,102,116;,
  3;117,115,116;,
  3;115,117,118;,
  3;119,115,118;,
  3;119,114,115;,
  3;119,118,120;,
  3;114,119,121;,
  3;121,119,120;,
  3;113,114,121;,
  3;122,121,120;,
  3;113,121,122;,
  3;123,122,120;,
  3;124,113,122;,
  3;107,113,124;,
  3;125,122,123;,
  3;122,125,124;,
  3;126,125,123;,
  3;127,107,124;,
  3;110,107,127;,
  3;128,125,126;,
  3;128,124,125;,
  3;129,128,126;,
  3;110,127,130;,
  3;110,130,112;,
  3;130,131,112;,
  3;127,124,132;,
  3;132,130,127;,
  3;132,124,128;,
  3;130,133,131;,
  3;133,130,132;,
  3;133,134,131;,
  3;135,132,128;,
  3;135,128,129;,
  3;136,135,129;,
  3;135,136,137;,
  3;138,133,132;,
  3;135,138,132;,
  3;133,138,134;,
  3;138,135,137;,
  3;138,137,134;,
  3;139,140,141;,
  3;142,139,141;,
  3;141,143,142;,
  3;142,143,144;,
  3;143,145,144;,
  3;145,146,144;,
  3;146,147,144;,
  3;146,148,147;,
  3;144,149,142;,
  3;144,147,149;,
  3;148,150,147;,
  3;148,151,150;,
  3;147,152,149;,
  3;147,150,152;,
  3;149,153,142;,
  3;153,149,152;,
  3;150,154,152;,
  3;154,153,152;,
  3;151,155,150;,
  3;150,155,154;,
  3;151,156,155;,
  3;157,153,154;,
  3;155,157,154;,
  3;153,158,142;,
  3;153,157,158;,
  3;158,139,142;,
  3;159,157,155;,
  3;156,159,155;,
  3;157,160,158;,
  3;161,159,156;,
  3;162,161,156;,
  3;163,157,159;,
  3;157,163,160;,
  3;161,163,159;,
  3;162,164,161;,
  3;165,160,163;,
  3;161,165,163;,
  3;158,160,165;,
  3;164,165,161;,
  3;139,158,165;,
  3;164,140,165;,
  3;140,139,165;,
  3;166,167,168;,
  3;169,167,166;,
  3;169,170,167;,
  3;171,168,172;,
  3;173,171,172;,
  3;174,173,172;,
  3;170,175,167;,
  3;175,172,167;,
  3;176,175,170;,
  3;176,177,175;,
  3;174,172,178;,
  3;179,174,178;,
  3;179,178,180;,
  3;180,178,181;,
  3;182,178,172;,
  3;172,175,182;,
  3;183,181,182;,
  3;183,182,184;,
  3;182,175,184;,
  3;185,184,175;,
  3;185,175,177;,
  3;184,185,186;,
  3;187,185,177;,
  3;185,187,186;,
  3;188,189,190;,
  3;191,189,188;,
  3;192,191,188;,
  3;192,193,191;,
  3;194,190,195;,
  3;193,196,191;,
  3;193,197,196;,
  3;194,195,198;,
  3;199,194,198;,
  3;197,200,196;,
  3;197,201,200;,
  3;201,202,200;,
  3;199,198,203;,
  3;204,199,203;,
  3;196,200,205;,
  3;191,196,205;,
  3;203,206,204;,
  3;206,207,204;,
  3;207,206,208;,
  3;203,198,209;,
  3;206,203,209;,
  3;195,209,198;,
  3;206,210,208;,
  3;210,206,209;,
  3;208,210,211;,
  3;212,208,211;,
  3;212,211,213;,
  3;210,214,211;,
  3;213,211,214;,
  3;209,214,210;,
  3;215,213,214;,
  3;215,214,216;,
  3;214,217,216;,
  3;216,217,202;,
  3;218,214,209;,
  3;218,217,214;,
  3;217,219,202;,
  3;219,217,218;,
  3;202,219,200;,
  3;205,200,219;,
  3;205,219,218;,
  3;209,220,218;,
  3;220,205,218;,
  3;220,209,195;,
  3;205,220,191;,
  3;195,221,220;,
  3;191,220,189;,
  3;220,221,189;,
  3;222,223,224;,
  3;225,223,222;,
  3;226,225,222;,
  3;226,227,225;,
  3;228,224,229;,
  3;227,230,225;,
  3;227,231,230;,
  3;228,229,232;,
  3;233,228,232;,
  3;231,234,230;,
  3;231,235,234;,
  3;235,236,234;,
  3;233,232,237;,
  3;238,233,237;,
  3;230,234,239;,
  3;225,230,239;,
  3;237,240,238;,
  3;240,241,238;,
  3;241,240,242;,
  3;237,232,243;,
  3;240,237,243;,
  3;229,243,232;,
  3;240,244,242;,
  3;244,240,243;,
  3;242,244,245;,
  3;246,242,245;,
  3;246,245,247;,
  3;244,248,245;,
  3;247,245,248;,
  3;243,248,244;,
  3;249,247,248;,
  3;249,248,250;,
  3;248,251,250;,
  3;250,251,236;,
  3;252,248,243;,
  3;252,251,248;,
  3;251,253,236;,
  3;253,251,252;,
  3;236,253,234;,
  3;239,234,253;,
  3;239,253,252;,
  3;243,254,252;,
  3;254,239,252;,
  3;254,243,229;,
  3;239,254,225;,
  3;229,255,254;,
  3;225,254,223;,
  3;254,255,223;,
  3;256,257,258;,
  3;259,257,256;,
  3;260,259,256;,
  3;260,261,259;,
  3;262,258,263;,
  3;261,264,259;,
  3;261,265,264;,
  3;262,263,266;,
  3;267,262,266;,
  3;265,268,264;,
  3;265,269,268;,
  3;269,270,268;,
  3;267,266,271;,
  3;272,267,271;,
  3;264,268,273;,
  3;259,264,273;,
  3;271,274,272;,
  3;274,275,272;,
  3;275,274,276;,
  3;271,266,277;,
  3;274,271,277;,
  3;263,277,266;,
  3;274,278,276;,
  3;278,274,277;,
  3;276,278,279;,
  3;280,276,279;,
  3;280,279,281;,
  3;278,282,279;,
  3;281,279,282;,
  3;277,282,278;,
  3;283,281,282;,
  3;283,282,284;,
  3;282,285,284;,
  3;284,285,270;,
  3;286,282,277;,
  3;286,285,282;,
  3;285,287,270;,
  3;287,285,286;,
  3;270,287,268;,
  3;273,268,287;,
  3;273,287,286;,
  3;277,288,286;,
  3;288,273,286;,
  3;288,277,263;,
  3;273,288,259;,
  3;263,289,288;,
  3;259,288,257;,
  3;288,289,257;,
  3;290,291,292;,
  3;293,291,290;,
  3;294,293,290;,
  3;294,295,293;,
  3;296,292,297;,
  3;295,298,293;,
  3;295,299,298;,
  3;296,297,300;,
  3;301,296,300;,
  3;299,302,298;,
  3;299,303,302;,
  3;303,304,302;,
  3;301,300,305;,
  3;306,301,305;,
  3;298,302,307;,
  3;293,298,307;,
  3;305,308,306;,
  3;308,309,306;,
  3;309,308,310;,
  3;305,300,311;,
  3;308,305,311;,
  3;297,311,300;,
  3;308,312,310;,
  3;312,308,311;,
  3;310,312,313;,
  3;314,310,313;,
  3;314,313,315;,
  3;312,316,313;,
  3;315,313,316;,
  3;311,316,312;,
  3;317,315,316;,
  3;317,316,318;,
  3;316,319,318;,
  3;318,319,304;,
  3;320,316,311;,
  3;320,319,316;,
  3;319,321,304;,
  3;321,319,320;,
  3;304,321,302;,
  3;307,302,321;,
  3;307,321,320;,
  3;311,322,320;,
  3;322,307,320;,
  3;322,311,297;,
  3;307,322,293;,
  3;297,323,322;,
  3;293,322,291;,
  3;322,323,291;,
  3;324,325,326;,
  3;327,325,324;,
  3;328,327,324;,
  3;328,329,327;,
  3;330,326,331;,
  3;329,332,327;,
  3;329,333,332;,
  3;330,331,334;,
  3;335,330,334;,
  3;333,336,332;,
  3;333,337,336;,
  3;337,338,336;,
  3;335,334,339;,
  3;340,335,339;,
  3;332,336,341;,
  3;327,332,341;,
  3;339,342,340;,
  3;342,343,340;,
  3;343,342,344;,
  3;339,334,345;,
  3;342,339,345;,
  3;331,345,334;,
  3;342,346,344;,
  3;346,342,345;,
  3;344,346,347;,
  3;348,344,347;,
  3;348,347,349;,
  3;346,350,347;,
  3;349,347,350;,
  3;345,350,346;,
  3;351,349,350;,
  3;351,350,352;,
  3;350,353,352;,
  3;352,353,338;,
  3;354,350,345;,
  3;354,353,350;,
  3;353,355,338;,
  3;355,353,354;,
  3;338,355,336;,
  3;341,336,355;,
  3;341,355,354;,
  3;345,356,354;,
  3;356,341,354;,
  3;356,345,331;,
  3;341,356,327;,
  3;331,357,356;,
  3;327,356,325;,
  3;356,357,325;,
  3;358,359,360;,
  3;361,359,358;,
  3;360,362,358;,
  3;363,362,360;,
  3;358,364,361;,
  3;362,364,358;,
  3;362,363,365;,
  3;361,364,366;,
  3;366,367,361;,
  3;362,365,368;,
  3;364,362,368;,
  3;369,365,363;,
  3;368,365,369;,
  3;370,369,363;,
  3;368,371,364;,
  3;371,368,369;,
  3;372,369,370;,
  3;372,371,369;,
  3;370,373,372;,
  3;372,373,374;,
  3;371,375,364;,
  3;375,366,364;,
  3;371,372,376;,
  3;376,375,371;,
  3;374,376,372;,
  3;376,366,375;,
  3;367,376,374;,
  3;367,366,376;,
  3;377,378,379;,
  3;379,378,380;,
  3;379,381,377;,
  3;377,381,382;,
  3;380,383,379;,
  3;381,384,382;,
  3;385,382,384;,
  3;381,379,386;,
  3;386,379,383;,
  3;381,386,387;,
  3;387,386,383;,
  3;387,388,381;,
  3;388,384,381;,
  3;383,389,387;,
  3;388,387,389;,
  3;390,383,380;,
  3;380,391,390;,
  3;383,390,392;,
  3;392,389,383;,
  3;390,391,393;,
  3;392,390,393;,
  3;394,393,391;,
  3;395,389,392;,
  3;395,392,393;,
  3;389,396,388;,
  3;389,395,396;,
  3;384,388,396;,
  3;393,397,395;,
  3;397,393,394;,
  3;396,395,397;,
  3;394,398,397;,
  3;397,398,385;,
  3;396,399,384;,
  3;397,399,396;,
  3;384,399,385;,
  3;385,399,397;;

  MeshMaterialList {
   1;
   524;
   0,
   0,
   0,
   0,
   0,
   0,
   0,
   0,
   0,
   0,
   0,
   0,
   0,
   0,
   0,
   0,
   0,
   0,
   0,
   0,
   0,
   0,
   0,
   0,
   0,
   0,
   0,
   0,
   0,
   0,
   0,
   0,
   0,
   0,
   0,
   0,
   0,
   0,
   0,
   0,
   0,
   0,
   0,
   0,
   0,
   0,
   0,
   0,
   0,
   0,
   0,
   0,
   0,
   0,
   0,
   0,
   0,
   0,
   0,
   0,
   0,
   0,
   0,
   0,
   0,
   0,
   0,
   0,
   0,
   0,
   0,
   0,
   0,
   0,
   0,
   0,
   0,
   0,
   0,
   0,
   0,
   0,
   0,
   0,
   0,
   0,
   0,
   0,
   0,
   0,
   0,
   0,
   0,
   0,
   0,
   0,
   0,
   0,
   0,
   0,
   0,
   0,
   0,
   0,
   0,
   0,
   0,
   0,
   0,
   0,
   0,
   0,
   0,
   0,
   0,
   0,
   0,
   0,
   0,
   0,
   0,
   0,
   0,
   0,
   0,
   0,
   0,
   0,
   0,
   0,
   0,
   0,
   0,
   0,
   0,
   0,
   0,
   0,
   0,
   0,
   0,
   0,
   0,
   0,
   0,
   0,
   0,
   0,
   0,
   0,
   0,
   0,
   0,
   0,
   0,
   0,
   0,
   0,
   0,
   0,
   0,
   0,
   0,
   0,
   0,
   0,
   0,
   0,
   0,
   0,
   0,
   0,
   0,
   0,
   0,
   0,
   0,
   0,
   0,
   0,
   0,
   0,
   0,
   0,
   0,
   0,
   0,
   0,
   0,
   0,
   0,
   0,
   0,
   0,
   0,
   0,
   0,
   0,
   0,
   0,
   0,
   0,
   0,
   0,
   0,
   0,
   0,
   0,
   0,
   0,
   0,
   0,
   0,
   0,
   0,
   0,
   0,
   0,
   0,
   0,
   0,
   0,
   0,
   0,
   0,
   0,
   0,
   0,
   0,
   0,
   0,
   0,
   0,
   0,
   0,
   0,
   0,
   0,
   0,
   0,
   0,
   0,
   0,
   0,
   0,
   0,
   0,
   0,
   0,
   0,
   0,
   0,
   0,
   0,
   0,
   0,
   0,
   0,
   0,
   0,
   0,
   0,
   0,
   0,
   0,
   0,
   0,
   0,
   0,
   0,
   0,
   0,
   0,
   0,
   0,
   0,
   0,
   0,
   0,
   0,
   0,
   0,
   0,
   0,
   0,
   0,
   0,
   0,
   0,
   0,
   0,
   0,
   0,
   0,
   0,
   0,
   0,
   0,
   0,
   0,
   0,
   0,
   0,
   0,
   0,
   0,
   0,
   0,
   0,
   0,
   0,
   0,
   0,
   0,
   0,
   0,
   0,
   0,
   0,
   0,
   0,
   0,
   0,
   0,
   0,
   0,
   0,
   0,
   0,
   0,
   0,
   0,
   0,
   0,
   0,
   0,
   0,
   0,
   0,
   0,
   0,
   0,
   0,
   0,
   0,
   0,
   0,
   0,
   0,
   0,
   0,
   0,
   0,
   0,
   0,
   0,
   0,
   0,
   0,
   0,
   0,
   0,
   0,
   0,
   0,
   0,
   0,
   0,
   0,
   0,
   0,
   0,
   0,
   0,
   0,
   0,
   0,
   0,
   0,
   0,
   0,
   0,
   0,
   0,
   0,
   0,
   0,
   0,
   0,
   0,
   0,
   0,
   0,
   0,
   0,
   0,
   0,
   0,
   0,
   0,
   0,
   0,
   0,
   0,
   0,
   0,
   0,
   0,
   0,
   0,
   0,
   0,
   0,
   0,
   0,
   0,
   0,
   0,
   0,
   0,
   0,
   0,
   0,
   0,
   0,
   0,
   0,
   0,
   0,
   0,
   0,
   0,
   0,
   0,
   0,
   0,
   0,
   0,
   0,
   0,
   0,
   0,
   0,
   0,
   0,
   0,
   0,
   0,
   0,
   0,
   0,
   0,
   0,
   0,
   0,
   0,
   0,
   0,
   0,
   0,
   0,
   0,
   0,
   0,
   0,
   0,
   0,
   0,
   0,
   0,
   0,
   0,
   0,
   0,
   0,
   0,
   0,
   0,
   0,
   0,
   0,
   0,
   0,
   0,
   0,
   0,
   0,
   0,
   0,
   0,
   0,
   0,
   0,
   0,
   0,
   0,
   0,
   0,
   0,
   0,
   0,
   0,
   0,
   0,
   0,
   0,
   0,
   0,
   0,
   0,
   0,
   0,
   0,
   0,
   0,
   0,
   0,
   0,
   0,
   0,
   0,
   0,
   0,
   0;
   { MI_HOS_Debris01 }
  }

  DeclData {
   3;
   2;0;3;0;,
   1;0;5;0;,
   1;0;5;1;;
   2800;
   3210960700,
   1052985962,
   1048785713,
   1052164096,
   1059864576,
   1050230784,
   1006305280,
   3203564065,
   1061674286,
   1053864062,
   1051910144,
   1059831808,
   1050230784,
   1006501888,
   3204783116,
   1062898731,
   3169644574,
   1052401664,
   1059651584,
   1050230784,
   1005723648,
   1040951691,
   1061514024,
   1059008953,
   1050230784,
   1059340288,
   1042841600,
   1008754688,
   1041424952,
   1064365082,
   1050461327,
   1050435584,
   1059332096,
   1042849792,
   1008918528,
   1007407062,
   1064799203,
   1048734244,
   1051074560,
   1059553280,
   1042857984,
   1009319936,
   3207445965,
   1051899435,
   1059417300,
   1059495936,
   1052655616,
   1050230784,
   1006305280,
   3198373243,
   1061442476,
   1057919152,
   1059340288,
   1052606464,
   1050230784,
   1006501888,
   3200980647,
   1063749654,
   1042343019,
   1059610624,
   1052172288,
   1050230784,
   1005723648,
   1057725113,
   1061440373,
   1051549893,
   1058586624,
   1052467200,
   1042841600,
   1008754688,
   1051851740,
   1061604395,
   1057391989,
   1058725888,
   1052377088,
   1042849792,
   1008918528,
   1035795318,
   1064630167,
   1049426865,
   1058988032,
   1052426240,
   1042857984,
   1009319936,
   3207165625,
   1057580955,
   3204837063,
   1055875072,
   1059618816,
   1064411136,
   1016160256,
   3201207555,
   1058493337,
   3207777672,
   1055752192,
   1059651584,
   1064411136,
   1016160256,
   1029826625,
   1062613771,
   3205200751,
   1055449088,
   1059651584,
   1064411136,
   1016619008,
   3200915460,
   1063979693,
   3171938001,
   1055801344,
   1059905536,
   1064411136,
   1015971840,
   1043322249,
   1063828541,
   1052920906,
   1058643968,
   1059848192,
   1054752768,
   1017118720,
   1036411881,
   1064579087,
   1049723611,
   1058455552,
   1060020224,
   1054760960,
   1017135104,
   3174495387,
   1064173480,
   1052456380,
   1058398208,
   1059340288,
   1054760960,
   1017626624,
   1050704438,
   1063970428,
   1048210738,
   1058684928,
   1060306944,
   1054760960,
   1016930304,
   3196364733,
   1050557204,
   3211412063,
   1059209216,
   1056497664,
   1064411136,
   1016160256,
   3196457602,
   1059834380,
   3207696785,
   1059045376,
   1056555008,
   1064411136,
   1016160256,
   3171508990,
   1062853363,
   3204852555,
   1058988032,
   1056088064,
   1064411136,
   1016619008,
   3198879587,
   1060830541,
   3206054312,
   1059069952,
   1056776192,
   1064411136,
   1015971840,
   1053194112,
   1060902810,
   3205399403,
   1045807104,
   1063534592,
   1057955840,
   1013104640,
   1056799623,
   1062135476,
   3198371329,
   1048027136,
   1063755776,
   1057955840,
   1014104064,
   1057210911,
   1055399912,
   3208268583,
   1045635072,
   1063649280,
   1057955840,
   1013129216,
   1059926977,
   1059102892,
   3200603923,
   1048150016,
   1063878656,
   1057955840,
   1014194176,
   1059498830,
   1056231256,
   3205949813,
   1059766272,
   1050402816,
   1064411136,
   1016160256,
   1057120295,
   1061165725,
   3201808768,
   1059725312,
   1050378240,
   1064411136,
   1016160256,
   1048610941,
   1064770632,
   3180592721,
   1059651584,
   1049706496,
   1064411136,
   1016619008,
   1044023909,
   1064454937,
   3196613852,
   1059708928,
   1050697728,
   1064411136,
   1015971840,
   3194284157,
   1052097224,
   3211289494,
   1052311552,
   1052860416,
   1058349056,
   1010450432,
   3188274332,
   1058970071,
   3209035967,
   1052114944,
   1052901376,
   1058349056,
   1010532352,
   1038274387,
   1063670250,
   3201839504,
   1051541504,
   1052213248,
   1058349056,
   1010991104,
   3195186675,
   1063345848,
   3201457627,
   1052164096,
   1053294592,
   1058349056,
   1010302976,
   1057316446,
   1062894009,
   1015349087,
   1057529856,
   1057251328,
   1054752768,
   1017118720,
   1052455779,
   1064157360,
   1031555495,
   1057292288,
   1057308672,
   1054760960,
   1017135104,
   1051421050,
   1064096298,
   1043829786,
   1057202176,
   1056727040,
   1054760960,
   1017626624,
   1053790330,
   1063779999,
   3187000281,
   1057415168,
   1057472512,
   1054760960,
   1016930304,
   1056970034,
   1063025682,
   3182818524,
   1058529280,
   1052172288,
   1061568512,
   1018888192,
   1051851740,
   1061604395,
   1057391989,
   1058725888,
   1052377088,
   1061568512,
   1018748928,
   1057725113,
   1061440373,
   1051549893,
   1058586624,
   1052467200,
   1061568512,
   1018830848,
   1051761713,
   1063629722,
   3196916405,
   1058586624,
   1051959296,
   1061568512,
   1018855424,
   1053071567,
   1062983374,
   3199055604,
   1058701312,
   1051697152,
   1061560320,
   1018781696,
   1040453161,
   1063448141,
   3202585898,
   1058963456,
   1051729920,
   1061560320,
   1018609664,
   1045952577,
   1061538952,
   3206105356,
   1058856960,
   1051435008,
   1061560320,
   1018683392,
   1023756235,
   1059379903,
   3208883556,
   1059061760,
   1051443200,
   1061560320,
   1018544128,
   1035795318,
   1064630167,
   1049426865,
   1058988032,
   1052426240,
   1061568512,
   1018552320,
   3178688209,
   1063830760,
   3201490484,
   1059307520,
   1051574272,
   1061560320,
   1018363904,
   3189149519,
   1063094903,
   3203744805,
   1059397632,
   1051410432,
   1061560320,
   1018314752,
   3196412601,
   1057243450,
   3209743455,
   1059586048,
   1051664384,
   1061560320,
   1018159104,
   3200213723,
   1063421095,
   3197002367,
   1059758080,
   1051795456,
   1061560320,
   1018019840,
   3200980647,
   1063749654,
   1042343019,
   1059610624,
   1052172288,
   1061568512,
   1018093568,
   3206204508,
   1060353632,
   1052811844,
   1059758080,
   1052237824,
   1061568512,
   1018011648,
   3207445965,
   1051899435,
   1059417300,
   1059495936,
   1052655616,
   1061568512,
   1018208256,
   3198373243,
   1061442476,
   1057919152,
   1059340288,
   1052606464,
   1061568512,
   1018273792,
   3205720824,
   1058224074,
   1058325427,
   1059414016,
   1052835840,
   1061568512,
   1018224640,
   3172547693,
   1059905771,
   1060933884,
   1059192832,
   1052925952,
   1061576704,
   1018372096,
   1034902349,
   1060496309,
   1060294260,
   1058971648,
   1052909568,
   1061576704,
   1018527744,
   1041018798,
   1060170713,
   1060480813,
   1058791424,
   1052803072,
   1061576704,
   1018658816,
   1051593172,
   1063094000,
   1052545336,
   1058643968,
   1052696576,
   1061576704,
   1018781696,
   3204789255,
   1062883812,
   3174429790,
   1056120832,
   1059921920,
   1058250752,
   1023975424,
   3200915460,
   1063979693,
   3171938001,
   1055801344,
   1059905536,
   1058250752,
   1024065536,
   3207165625,
   1057580955,
   3204837063,
   1055875072,
   1059618816,
   1058242560,
   1024081920,
   3199093434,
   1064160725,
   1041575124,
   1055703040,
   1060044800,
   1058258944,
   1024114688,
   3202766012,
   1063114378,
   1046301750,
   1056014336,
   1060118528,
   1058258944,
   1024016384,
   3202515768,
   1062160529,
   1053124787,
   1055653888,
   1060323328,
   1058267136,
   1024147456,
   3130063091,
   1065338679,
   3173673434,
   1055121408,
   1059979264,
   1058242560,
   1024327680,
   3201207555,
   1058493337,
   3207777672,
   1055752192,
   1059651584,
   1058242560,
   1024106496,
   3200148364,
   1063015856,
   1051856948,
   1055391744,
   1060249600,
   1058267136,
   1024229376,
   1029826625,
   1062613771,
   3205200751,
   1055449088,
   1059651584,
   1058226176,
   1024188416,
   3199264713,
   1061198756,
   1057985447,
   1055203328,
   1060446208,
   1058275328,
   1024286720,
   3197514449,
   1062703093,
   3202860122,
   1055727616,
   1059577856,
   1058226176,
   1024098304,
   3188550991,
   1062384711,
   1057818583,
   1054941184,
   1060356096,
   1058267136,
   1024376832,
   3163702247,
   1061657637,
   1059076287,
   1054810112,
   1060478976,
   1058275328,
   1024409600,
   1048594891,
   1061272053,
   1058705843,
   1054318592,
   1060372480,
   1058275328,
   1024573440,
   1040831468,
   1060859309,
   3207262146,
   1055186944,
   1059610624,
   1058217984,
   1024286720,
   1039376408,
   1060055747,
   3208130573,
   1055064064,
   1059569664,
   1058217984,
   1024327680,
   3180533678,
   1064920795,
   1046149073,
   1055006720,
   1060241408,
   1058258944,
   1024360448,
   1033716023,
   1061972613,
   3206076943,
   1054670848,
   1059635200,
   1058217984,
   1024491520,
   1040938404,
   1057254746,
   3210234752,
   1054662656,
   1059602432,
   1058217984,
   1024491520,
   1001982279,
   1065313560,
   3180085482,
   1054392320,
   1059807232,
   1058234368,
   1024614400,
   1034290518,
   1063710855,
   3201892349,
   1054269440,
   1059659776,
   1058226176,
   1024704512,
   1044760516,
   1059931169,
   3207977480,
   1054220288,
   1059577856,
   1058217984,
   1024753664,
   1050624698,
   1064144316,
   3193062526,
   1053835264,
   1059577856,
   1058234368,
   1024860160,
   1034724908,
   1065290460,
   1016825033,
   1054482432,
   1060077568,
   1058250752,
   1024557056,
   1041076045,
   1065155525,
   3179712332,
   1054105600,
   1059749888,
   1058234368,
   1024761856,
   1042380741,
   1062661271,
   1057298471,
   1054523392,
   1060306944,
   1058267136,
   1024524288,
   1041140956,
   1064687313,
   1048020159,
   1054277632,
   1060167680,
   1058267136,
   1024622592,
   1049205815,
   1063146961,
   1054162953,
   1053876224,
   1060208640,
   1058267136,
   1024761856,
   1043810131,
   1064774972,
   1044480275,
   1054048256,
   1060052992,
   1058258944,
   1024729088,
   1051101428,
   1063283155,
   1052086218,
   1053696000,
   1060085760,
   1058258944,
   1024843776,
   1049615437,
   1064181413,
   1047660214,
   1053523968,
   1059930112,
   1058250752,
   1024925696,
   1044981303,
   1065025789,
   1006885721,
   1053958144,
   1059815424,
   1058242560,
   1024811008,
   1049703130,
   1064607872,
   1034193120,
   1053433856,
   1059782656,
   1058242560,
   1024991232,
   1059926977,
   1059102892,
   3200603923,
   1048150016,
   1063878656,
   1063485440,
   1028612096,
   1056799623,
   1062135476,
   3198371329,
   1048027136,
   1063755776,
   1063485440,
   1028571136,
   1059774681,
   1061007998,
   1033240529,
   1049001984,
   1063723008,
   1063493632,
   1028472832,
   1054501619,
   1063686390,
   1034514982,
   1048821760,
   1063608320,
   1063493632,
   1028440064,
   1056218708,
   1060673465,
   1056994761,
   1049387008,
   1063452672,
   1063501824,
   1028358144,
   1041801447,
   1065077889,
   3184539212,
   1046978560,
   1063378944,
   1063477248,
   1028415488,
   1053194112,
   1060902810,
   3205399403,
   1045807104,
   1063534592,
   1063469056,
   1028390912,
   1045203961,
   1062503178,
   1057309700,
   1049133056,
   1063403520,
   1063501824,
   1028333568,
   1046956949,
   1058676980,
   1061424524,
   1048952832,
   1063116800,
   1063501824,
   1028145152,
   1040576775,
   1063508142,
   1054842125,
   1048772608,
   1063149568,
   1063493632,
   1028161536,
   1031148279,
   1065110867,
   1042424972,
   1047527424,
   1063010304,
   1063477248,
   1028210688,
   1051020571,
   1063513715,
   1050957762,
   1048977408,
   1062576128,
   1063493632,
   1028079616,
   1057146914,
   1059152914,
   1058381268,
   1049133056,
   1062641664,
   1063493632,
   1028087808,
   3181218380,
   1065274632,
   3178223565,
   1046192128,
   1062879232,
   1063460864,
   1028268032,
   1052741470,
   1062452269,
   1054261898,
   1049600000,
   1062264832,
   1063493632,
   1027776512,
   1057133458,
   1058926373,
   1058631578,
   1049812992,
   1062297600,
   1063493632,
   1027760128,
   1043599318,
   1063287377,
   1055200332,
   1050288128,
   1061822464,
   1063493632,
   1027579904,
   3176365051,
   1065330309,
   1006770212,
   1047052288,
   1062477824,
   1063460864,
   1028022272,
   3190257381,
   1064690986,
   3194384276,
   1045258240,
   1062838272,
   1063452672,
   1028300800,
   1033477334,
   1061379440,
   3206828275,
   1044422656,
   1063313408,
   1063452672,
   1028374528,
   1057210911,
   1055399912,
   3208268583,
   1045635072,
   1063649280,
   1063469056,
   1028423680,
   1045134099,
   1058219240,
   3209377624,
   1044013056,
   1063403520,
   1063452672,
   1028399104,
   3199381122,
   1057952091,
   3208680360,
   1043759104,
   1062887424,
   1063436288,
   1028374528,
   3198496594,
   1061195484,
   3205699433,
   1044299776,
   1062846464,
   1063436288,
   1028341760,
   3203637835,
   1058887948,
   3206614461,
   1044316160,
   1062453248,
   1063428096,
   1028120576,
   3199396588,
   1062925440,
   3200507927,
   1044840448,
   1062477824,
   1063436288,
   1028104192,
   3199508865,
   1063235765,
   3198901844,
   1045561344,
   1061994496,
   1063428096,
   1027801088,
   3205032119,
   1060454002,
   3203147837,
   1045118976,
   1061912576,
   1063428096,
   1027784704,
   3150548059,
   1065300773,
   3181465606,
   1047830528,
   1062100992,
   1063452672,
   1027784704,
   3199203811,
   1063643668,
   3196877376,
   1046626304,
   1061748736,
   1063428096,
   1027612672,
   3205028749,
   1060343451,
   3203489676,
   1046257664,
   1061625856,
   1063428096,
   1027588096,
   1039329244,
   1065201920,
   1031757607,
   1048895488,
   1062174720,
   1063477248,
   1027784704,
   3201707086,
   1062806584,
   3198572929,
   1047224320,
   1061486592,
   1063436288,
   1027481600,
   3205472548,
   1060903780,
   3200461367,
   1047019520,
   1061347328,
   1063436288,
   1027440640,
   1027253846,
   1064547227,
   1050348176,
   1049927680,
   1061748736,
   1063485440,
   1027465216,
   3178940229,
   1064664960,
   1049475065,
   1050550272,
   1061470208,
   1063477248,
   1027284992,
   3181643794,
   1065267883,
   1031419478,
   1048961024,
   1061765120,
   1063469056,
   1027571712,
   3189998488,
   1064885538,
   1043320479,
   1049640960,
   1061453824,
   1063477248,
   1027325952,
   3192588083,
   1064694859,
   1044817124,
   1050304512,
   1061224448,
   1063477248,
   1027284992,
   3197910343,
   1064470832,
   3183839108,
   1048387584,
   1061314560,
   1063452672,
   1027252224,
   3199053628,
   1064320951,
   3179586551,
   1048338432,
   1060986880,
   1063452672,
   1027203072,
   3199261170,
   1064238676,
   1036242122,
   1049255936,
   1061019648,
   1063460864,
   1027276800,
   3196888172,
   1064651833,
   1034154266,
   1049108480,
   1061306368,
   1063460864,
   1027317760,
   1059982089,
   1058467041,
   3202305716,
   1052991488,
   1050484736,
   939524096,
   1065353216,
   1061051624,
   1059089675,
   3194926686,
   1052852224,
   1050656768,
   939524096,
   1065353216,
   1049231747,
   1053491785,
   3210782867,
   1052778496,
   1049731072,
   939524096,
   1065353216,
   1045810049,
   1055864137,
   3210473710,
   1052966912,
   1049853952,
   939524096,
   1065353216,
   3173962464,
   1060937212,
   3207380542,
   1052942336,
   1049387008,
   939524096,
   1065353216,
   3198652074,
   1056503998,
   3209652708,
   1053384704,
   1049198592,
   939524096,
   1065353216,
   3200295109,
   1058872239,
   3207705276,
   1053302784,
   1049026560,
   939524096,
   1065353216,
   3208652423,
   1058126162,
   3198930064,
   1053671424,
   1048846336,
   939524096,
   1065353216,
   3208261398,
   1055901684,
   3204477340,
   1053663232,
   1049034752,
   939524096,
   1065353216,
   3210205723,
   1056134014,
   1048622992,
   1054195712,
   1048993792,
   939524096,
   1065353216,
   3195167251,
   1058627628,
   3208892001,
   1053442048,
   1049444352,
   939524096,
   1065353216,
   3209440575,
   1055228942,
   1053731944,
   1054130176,
   1049182208,
   939524096,
   1065353216,
   3202736783,
   1058147453,
   1060113682,
   1054441472,
   1049206784,
   939524096,
   1065353216,
   3207889321,
   1060148510,
   3190317531,
   1053802496,
   1049223168,
   939524096,
   1065353216,
   1030002125,
   1062548130,
   3205299665,
   1053351936,
   1049772032,
   939524096,
   1065353216,
   3205186426,
   1061034947,
   1053294879,
   1053974528,
   1049313280,
   939524096,
   1065353216,
   3198497680,
   1058279501,
   1061146323,
   1054244864,
   1049362432,
   939524096,
   1065353216,
   3192394091,
   1058416260,
   1061763097,
   1054523392,
   1049616384,
   939524096,
   1065353216,
   3166322296,
   1063643838,
   1054923706,
   1053876224,
   1049845760,
   939524096,
   1065353216,
   1056861829,
   1062582178,
   3195178462,
   1053237248,
   1050255360,
   939524096,
   1065353216,
   3191003962,
   1058372746,
   1061876812,
   1054269440,
   1049624576,
   939524096,
   1065353216,
   1054667029,
   1062530184,
   1051907588,
   1053515776,
   1050230784,
   939524096,
   1065353216,
   1047201643,
   1060992130,
   1059181975,
   1054179328,
   1050558464,
   939524096,
   1065353216,
   1048320084,
   1056055268,
   1062769943,
   1054375936,
   1050689536,
   939524096,
   1065353216,
   1036726852,
   1062929958,
   1057100555,
   1054048256,
   1050238976,
   939524096,
   1065353216,
   1058285264,
   1061513753,
   1049091263,
   1053704192,
   1050984448,
   939524096,
   1065353216,
   1058517796,
   1061283751,
   1049384944,
   1053433856,
   1050574848,
   939524096,
   1065353216,
   1049885557,
   1064504119,
   1039915006,
   1050157056,
   1059225600,
   1061568512,
   1018888192,
   1041424952,
   1064365082,
   1050461327,
   1050435584,
   1059332096,
   1061568512,
   1018748928,
   1040951691,
   1061514024,
   1059008953,
   1050230784,
   1059340288,
   1061568512,
   1018830848,
   1049389218,
   1064511729,
   3189369346,
   1050263552,
   1059192832,
   1061568512,
   1018855424,
   1049559980,
   1063985140,
   3197067216,
   1050525696,
   1059176448,
   1061560320,
   1018781696,
   1024907452,
   1062374215,
   1058099785,
   1050476544,
   1059487744,
   1061576704,
   1018781696,
   1007407062,
   1064799203,
   1048734244,
   1051074560,
   1059553280,
   1061568512,
   1018552320,
   3161526656,
   1061270106,
   1059542938,
   1050787840,
   1059659776,
   1061576704,
   1018658816,
   3180028543,
   1061895559,
   1058713086,
   1051205632,
   1059840000,
   1061576704,
   1018527744,
   1044456973,
   1064101447,
   3198702109,
   1050968064,
   1059266560,
   1061560320,
   1018609664,
   1050025616,
   1062189867,
   3204541389,
   1050902528,
   1059151872,
   1061560320,
   1018683392,
   1050091787,
   1061158537,
   3205990935,
   1051344896,
   1059168256,
   1061560320,
   1018544128,
   3203564065,
   1061674286,
   1053864062,
   1051910144,
   1059831808,
   1061568512,
   1018273792,
   3196266601,
   1059574227,
   1060494182,
   1051598848,
   1059913728,
   1061576704,
   1018372096,
   3209076653,
   1056799362,
   1053308849,
   1052000256,
   1059930112,
   1061568512,
   1018224640,
   3210960700,
   1052985962,
   1048785713,
   1052164096,
   1059864576,
   1061568512,
   1018208256,
   3204783116,
   1062898731,
   3169644574,
   1052401664,
   1059651584,
   1061568512,
   1018093568,
   3209460798,
   1058607677,
   3179836717,
   1052639232,
   1059659776,
   1061568512,
   1018011648,
   3190332009,
   1064256416,
   3198248133,
   1052631040,
   1059446784,
   1061560320,
   1018019840,
   1026200926,
   1064640438,
   3197246138,
   1051975680,
   1059266560,
   1061560320,
   1018363904,
   3182769701,
   1063755843,
   3201648688,
   1052368896,
   1059299328,
   1061560320,
   1018159104,
   1038754948,
   1062262343,
   3205571740,
   1052057600,
   1059192832,
   1061560320,
   1018314752,
   1054358029,
   1062404030,
   1052845801,
   1058848768,
   1060241408,
   1055719424,
   1022738432,
   1050704438,
   1063970428,
   1048210738,
   1058684928,
   1060306944,
   1055711232,
   1022656512,
   1043322249,
   1063828541,
   1052920906,
   1058643968,
   1059848192,
   1055711232,
   1022468096,
   1051652099,
   1064299164,
   1032866492,
   1058611200,
   1060716544,
   1055694848,
   1022812160,
   1056143678,
   1063321818,
   1024950287,
   1058824192,
   1060904960,
   1055703040,
   1023000576,
   1051587446,
   1064110283,
   3190360863,
   1058594816,
   1061298176,
   1055686656,
   1023115264,
   1030677383,
   1062336802,
   1058123663,
   1058570240,
   1059340288,
   1055727616,
   1021960192,
   3174495387,
   1064173480,
   1052456380,
   1058398208,
   1059340288,
   1055711232,
   1021968384,
   1049113915,
   1064598840,
   3188066859,
   1058332672,
   1061027840,
   1055678464,
   1022926848,
   1051596441,
   1063835061,
   3195329583,
   1058185216,
   1061511168,
   1055662080,
   1023123456,
   3190950892,
   1063913312,
   1052472715,
   1058316288,
   1059037184,
   1055703040,
   1021648896,
   3197756884,
   1063029867,
   1053917599,
   1058349056,
   1058897920,
   1055703040,
   1021476864,
   1046084076,
   1064502176,
   3194814358,
   1057849344,
   1061281792,
   1055653888,
   1022910464,
   1043363534,
   1064235611,
   3198233727,
   1057865728,
   1061748736,
   1055645696,
   1023156224,
   3174297760,
   1063408240,
   3203283395,
   1057546240,
   1061642240,
   1055629312,
   1022926848,
   3206278859,
   1061394114,
   1046075292,
   1058021376,
   1058897920,
   1055678464,
   1021501440,
   3209948529,
   1055699134,
   1050849556,
   1058054144,
   1058832384,
   1055678464,
   1021460480,
   1020816571,
   1065314615,
   3179265306,
   1058004992,
   1060765696,
   1055662080,
   1022697472,
   3199496631,
   1064244250,
   1031179020,
   1057644544,
   1059037184,
   1055645696,
   1021501440,
   3206777420,
   1061255317,
   1041464623,
   1057685504,
   1058799616,
   1055645696,
   1021280256,
   3205317685,
   1062203693,
   3191962931,
   1057226752,
   1059086336,
   1055621120,
   1021607936,
   3171235856,
   1065342149,
   1015306419,
   1057538048,
   1059414016,
   1055653888,
   1021902848,
   3197198705,
   1064497628,
   3188476038,
   1057357824,
   1059323904,
   1055637504,
   1021747200,
   3193883662,
   1064574748,
   3193248272,
   1057259520,
   1059520512,
   1055621120,
   1021886464,
   3198459084,
   1063555181,
   3198254735,
   1056899072,
   1059414016,
   1055604736,
   1021673472,
   3200529590,
   1060800093,
   3205583877,
   1057005568,
   1059921920,
   1055604736,
   1022050304,
   3194268014,
   1064080257,
   3198074407,
   1057267712,
   1060691968,
   1055621120,
   1022394368,
   3201828106,
   1060606482,
   3205367539,
   1056997376,
   1060700160,
   1055604736,
   1022402560,
   3198765721,
   1061476576,
   3205239906,
   1057202176,
   1061191680,
   1055604736,
   1022656512,
   3190594454,
   1064411939,
   3197200024,
   1057456128,
   1061036032,
   1055629312,
   1022599168,
   3180413203,
   1065286023,
   3177118585,
   1057546240,
   1060487168,
   1055645696,
   1022410752,
   3182025634,
   1063745017,
   3201733711,
   1057595392,
   1061306368,
   1055637504,
   1022836736,
   3146146425,
   1065327850,
   1029736176,
   1058127872,
   1059905536,
   1055678464,
   1022304256,
   1036411881,
   1064579087,
   1049723611,
   1058455552,
   1060020224,
   1055711232,
   1022451712,
   3198828084,
   1057032326,
   3209432965,
   1059258368,
   1056825344,
   1058250752,
   1023975424,
   3198879587,
   1060830541,
   3206054312,
   1059069952,
   1056776192,
   1058250752,
   1024065536,
   3196364733,
   1050557204,
   3211412063,
   1059209216,
   1056497664,
   1058242560,
   1024081920,
   3204667384,
   1061940836,
   3198397274,
   1059028992,
   1056989184,
   1058258944,
   1024114688,
   3207886715,
   1058287366,
   3201423834,
   1059201024,
   1057112064,
   1058258944,
   1024016384,
   3209301303,
   1058565190,
   3189361811,
   1059069952,
   1057267712,
   1058267136,
   1024147456,
   3194948247,
   1057627062,
   3209632217,
   1059151872,
   1055883264,
   1058226176,
   1024098304,
   3171508990,
   1062853363,
   3204852555,
   1058988032,
   1056088064,
   1058226176,
   1024188416,
   3206383389,
   1061677460,
   3185309555,
   1058930688,
   1057112064,
   1058267136,
   1024229376,
   3209210845,
   1058875002,
   3183419819,
   1058922496,
   1057366016,
   1058275328,
   1024286720,
   1052272844,
   1060997064,
   3205582127,
   1058930688,
   1055817728,
   1058217984,
   1024286720,
   1057734901,
   1058105062,
   3206393404,
   1058930688,
   1055555584,
   1058217984,
   1024327680,
   3206023211,
   1061967804,
   1036944027,
   1058799616,
   1057185792,
   1058267136,
   1024376832,
   3206140418,
   1061259977,
   1048898258,
   1058791424,
   1057447936,
   1058275328,
   1024409600,
   3202352103,
   1059889942,
   1058555294,
   1058627584,
   1057390592,
   1058275328,
   1024573440,
   1056988484,
   1062596510,
   3194318596,
   1058766848,
   1055850496,
   1058217984,
   1024491520,
   1061705813,
   1058051302,
   3196457769,
   1058750464,
   1055588352,
   1058217984,
   1024491520,
   3183680870,
   1065218261,
   1034596760,
   1058807808,
   1057030144,
   1058258944,
   1024360448,
   1058640876,
   1061923374,
   1034782713,
   1058594816,
   1056088064,
   1058226176,
   1024704512,
   1064414916,
   1047663692,
   1047224878,
   1058488320,
   1055875072,
   1058217984,
   1024753664,
   1060312173,
   1052412464,
   1058889783,
   1058365440,
   1056227328,
   1058234368,
   1024860160,
   1034081711,
   1065300070,
   989725041,
   1058635776,
   1056432128,
   1058234368,
   1024614400,
   1053214082,
   1063265467,
   1049835373,
   1058529280,
   1056382976,
   1058234368,
   1024761856,
   1054355009,
   1062160420,
   1053863379,
   1058471936,
   1056604160,
   1058242560,
   1024811008,
   1059277161,
   1044499274,
   1061101124,
   1058324480,
   1056473088,
   1058242560,
   1024991232,
   1051472407,
   1059459786,
   1060029397,
   1058316288,
   1056931840,
   1058250752,
   1024925696,
   3145525780,
   1063450075,
   1055709334,
   1058521088,
   1057054720,
   1058258944,
   1024729088,
   1014537722,
   1058427614,
   1062153771,
   1058357248,
   1057177600,
   1058258944,
   1024843776,
   3194398008,
   1059874810,
   1060388359,
   1058447360,
   1057300480,
   1058267136,
   1024761856,
   3187752564,
   1063955409,
   1052909784,
   1058603008,
   1057128448,
   1058267136,
   1024622592,
   1034315508,
   1065151920,
   1040612984,
   1058652160,
   1056964608,
   1058250752,
   1024557056,
   3201958929,
   1061517664,
   1056055896,
   1058693120,
   1057210368,
   1058267136,
   1024524288,
   1032658539,
   1065302258,
   3172248637,
   1058848768,
   1056604160,
   1058242560,
   1024327680,
   3196457602,
   1059834380,
   3207696785,
   1059045376,
   1056555008,
   1058242560,
   1024106496,
   1044427285,
   1063851596,
   3200026398,
   1059774464,
   1050820608,
   1058250752,
   1023975424,
   1044023909,
   1064454937,
   3196613852,
   1059708928,
   1050697728,
   1058250752,
   1024065536,
   1059498830,
   1056231256,
   3205949813,
   1059766272,
   1050402816,
   1058242560,
   1024081920,
   967584902,
   1064842106,
   3195720791,
   1059659776,
   1050787840,
   1058258944,
   1024114688,
   3141030493,
   1064078571,
   3200499611,
   1059708928,
   1050910720,
   1058258944,
   1024016384,
   3195048416,
   1063208926,
   3202067854,
   1059495936,
   1051205632,
   1058267136,
   1024147456,
   1049919445,
   1064365598,
   3190934287,
   1059790848,
   1049665536,
   1058226176,
   1024098304,
   1048610941,
   1064770632,
   3180592721,
   1059651584,
   1049706496,
   1058226176,
   1024188416,
   3196457169,
   1064194488,
   3196212419,
   1059487744,
   1051115520,
   1058267136,
   1024229376,
   3202928902,
   1063300920,
   3189442066,
   1059471360,
   1051181056,
   1058275328,
   1024286720,
   1049666582,
   1064669590,
   1000991110,
   1059446784,
   1049206784,
   1058217984,
   1024286720,
   1050462433,
   1064537954,
   1023739637,
   1059364864,
   1048952832,
   1058217984,
   1024327680,
   3200062935,
   1064095553,
   1035353166,
   1059422208,
   1051041792,
   1058267136,
   1024376832,
   3199664418,
   1064242001,
   3163775332,
   1059438592,
   1051213824,
   1058275328,
   1024409600,
   3204809773,
   1062567494,
   1043897307,
   1059217408,
   1050722304,
   1058275328,
   1024573440,
   1046929392,
   1064907029,
   1025920447,
   1059217408,
   1048969216,
   1058217984,
   1024491520,
   1052077078,
   1064071648,
   1041612003,
   1059160064,
   1048821760,
   1058217984,
   1024491520,
   3190374450,
   1065108156,
   1026028515,
   1059414016,
   1050869760,
   1058258944,
   1024360448,
   1048709448,
   1064380555,
   1046514574,
   1058988032,
   1049026560,
   1058226176,
   1024704512,
   1054285364,
   1061323848,
   1056834209,
   1058938880,
   1048920064,
   1058217984,
   1024753664,
   1032220744,
   1064310395,
   1051622578,
   1058709504,
   1049149440,
   1058234368,
   1024860160,
   1015428026,
   1065350936,
   3136460899,
   1058938880,
   1049436160,
   1058234368,
   1024614400,
   1018351355,
   1065054671,
   1044317098,
   1058799616,
   1049321472,
   1058234368,
   1024761856,
   3185014663,
   1065024935,
   1042964390,
   1058742272,
   1049534464,
   1058242560,
   1024811008,
   3185632896,
   1064383381,
   1050809500,
   1058643968,
   1049436160,
   1058242560,
   1024991232,
   3196463691,
   1064590681,
   1041329615,
   1058627584,
   1049788416,
   1058250752,
   1024925696,
   3193486733,
   1064948485,
   1029391236,
   1058971648,
   1050148864,
   1058258944,
   1024729088,
   3204787707,
   1062862280,
   1032167019,
   1058865152,
   1050165248,
   1058258944,
   1024843776,
   3200302710,
   1064078953,
   1032331678,
   1058947072,
   1050468352,
   1058267136,
   1024761856,
   3192621348,
   1065016783,
   1013282006,
   1059094528,
   1050353664,
   1058267136,
   1024622592,
   3172279858,
   1065334787,
   1022466503,
   1059151872,
   1050132480,
   1058250752,
   1024557056,
   3199529059,
   1064076427,
   1041644471,
   1059241984,
   1050583040,
   1058267136,
   1024524288,
   1028135014,
   1065332987,
   1000271893,
   1059479552,
   1050042368,
   1058242560,
   1024327680,
   1057120295,
   1061165725,
   3201808768,
   1059725312,
   1050378240,
   1058242560,
   1024106496,
   3198583893,
   1062221300,
   3203858465,
   1052467200,
   1053466624,
   1060773888,
   1024712704,
   3195186675,
   1063345848,
   3201457627,
   1052164096,
   1053294592,
   1060765696,
   1024614400,
   3194284157,
   1052097224,
   3211289494,
   1052311552,
   1052860416,
   1060773888,
   1024581632,
   3196627148,
   1064359005,
   3193321676,
   1052090368,
   1053589504,
   1060765696,
   1024598016,
   3200201791,
   1063383611,
   3197253253,
   1052401664,
   1053884416,
   1060757504,
   1024696320,
   3200512401,
   1064061697,
   3173155032,
   1052188672,
   1054277632,
   1060749312,
   1024606208,
   3165644354,
   1063055140,
   3204527216,
   1051983872,
   1052090368,
   1060790272,
   1024516096,
   1038274387,
   1063670250,
   3201839504,
   1051541504,
   1052213248,
   1060782080,
   1024425984,
   3196595893,
   1064738201,
   1024419081,
   1051942912,
   1053892608,
   1060757504,
   1024507904,
   3196594336,
   1064526662,
   1042490884,
   1051877376,
   1054400512,
   1060749312,
   1024475136,
   1025783944,
   1064476514,
   3198291053,
   1051025408,
   1051713536,
   1060790272,
   1024311296,
   1040257712,
   1062014307,
   3205878751,
   1051058176,
   1051361280,
   1060798464,
   1024253952,
   3188241184,
   1064444993,
   1050113890,
   1051508736,
   1053736960,
   1060749312,
   1024376832,
   3189432849,
   1064774613,
   1046020165,
   1051566080,
   1054449664,
   1060741120,
   1024376832,
   3186729056,
   1063357928,
   1055556391,
   1050828800,
   1053827072,
   1060741120,
   1024196608,
   1054044102,
   1061654413,
   3203473315,
   1050722304,
   1051426816,
   1060790272,
   1024106496,
   1060719971,
   1052101221,
   3205985076,
   1050730496,
   1051238400,
   1060790272,
   1024098304,
   3176276489,
   1065270417,
   1034810078,
   1051418624,
   1053261824,
   1060757504,
   1024360448,
   1052360126,
   1064101613,
   3185615689,
   1050066944,
   1051590656,
   1060782080,
   1023918080,
   1057598875,
   1062314944,
   3192731067,
   1049903104,
   1051238400,
   1060790272,
   1023852544,
   1057798855,
   1062247818,
   1044124568,
   1049296896,
   1052041216,
   1060773888,
   1023787008,
   1012388758,
   1065348179,
   3165208144,
   1050296320,
   1052033024,
   1060773888,
   1024040960,
   1054052821,
   1063796540,
   1033985905,
   1049706496,
   1051983872,
   1060773888,
   1023901696,
   1043557826,
   1064750943,
   1045187745,
   1049616384,
   1052303360,
   1060765696,
   1023868928,
   1041893132,
   1064424800,
   1049969419,
   1049124864,
   1052581888,
   1060765696,
   1023688704,
   3183609906,
   1064018138,
   1052913558,
   1049354240,
   1052844032,
   1060757504,
   1023787008,
   3170928926,
   1064955348,
   1046173631,
   1050083328,
   1052770304,
   1060757504,
   1024000000,
   3196480282,
   1062275689,
   1057201126,
   1049616384,
   1052934144,
   1060749312,
   1023901696,
   3180165448,
   1063904187,
   1053630379,
   1049976832,
   1053368320,
   1060741120,
   1024000000,
   3175965725,
   1064980653,
   1045454314,
   1050525696,
   1053106176,
   1060749312,
   1024114688,
   1024356374,
   1065245903,
   1037829993,
   1050714112,
   1052762112,
   1060757504,
   1024155648,
   3182361613,
   1063953827,
   1053293506,
   1050992640,
   1053523968,
   1060749312,
   1024237568,
   1031654489,
   1065252364,
   3183008466,
   1051394048,
   1052663808,
   1060773888,
   1024344064,
   3188274332,
   1058970071,
   3209035967,
   1052114944,
   1052901376,
   1060773888,
   1024557056,
   1057865148,
   1061969935,
   3195176686,
   1057611776,
   1057488896,
   1055719424,
   1022738432,
   1053790330,
   1063779999,
   3187000281,
   1057415168,
   1057472512,
   1055711232,
   1022656512,
   1057316446,
   1062894009,
   1015349087,
   1057529856,
   1057251328,
   1055711232,
   1022468096,
   1048882329,
   1064003461,
   3197584252,
   1057349632,
   1057660928,
   1055694848,
   1022812160,
   1051192259,
   1062734578,
   3201916442,
   1057546240,
   1057816576,
   1055703040,
   1023000576,
   1040287623,
   1062833410,
   3204644371,
   1057349632,
   1058045952,
   1055686656,
   1023115264,
   1057531003,
   1062514410,
   1042384538,
   1057415168,
   1056620544,
   1055727616,
   1021960192,
   1051421050,
   1064096298,
   1043829786,
   1057202176,
   1056727040,
   1055711232,
   1021968384,
   1034910909,
   1063859366,
   3201210171,
   1057161216,
   1057865728,
   1055678464,
   1022926848,
   1023640572,
   1062893291,
   3204788907,
   1057071104,
   1058201600,
   1055662080,
   1023123456,
   1050048871,
   1063856043,
   1049920443,
   1057054720,
   1056112640,
   1055703040,
   1021648896,
   1051065267,
   1062954798,
   1053625115,
   1057030144,
   1055752192,
   1055703040,
   1021476864,
   3163517185,
   1063833355,
   3201614035,
   1056727040,
   1057988608,
   1055653888,
   1022910464,
   3189609494,
   1063941768,
   3200113331,
   1056620544,
   1058381824,
   1055645696,
   1023156224,
   3199464445,
   1063223927,
   3199009841,
   1056178176,
   1058291712,
   1055629312,
   1022926848,
   1041121082,
   1062074733,
   1058262466,
   1056481280,
   1055760384,
   1055678464,
   1021501440,
   1043362739,
   1058235467,
   1061985394,
   1056505856,
   1055604736,
   1055678464,
   1021460480,
   3176141582,
   1065258977,
   3183356569,
   1056841728,
   1057701888,
   1055662080,
   1022697472,
   3175767796,
   1064274602,
   1051907762,
   1055891456,
   1056006144,
   1055645696,
   1021501440,
   3175776845,
   1061673501,
   1059027910,
   1055809536,
   1055539200,
   1055645696,
   1021280256,
   3201760480,
   1062078884,
   1054261342,
   1055244288,
   1056112640,
   1055621120,
   1021607936,
   1016034774,
   1065336540,
   1026024956,
   1055883264,
   1056718848,
   1055653888,
   1021902848,
   3196389062,
   1064445905,
   1044834196,
   1055588352,
   1056546816,
   1055637504,
   1021747200,
   3197644007,
   1064513656,
   1036312464,
   1055399936,
   1056997376,
   1055621120,
   1021886464,
   3202445271,
   1063216329,
   1045978355,
   1054859264,
   1056825344,
   1055604736,
   1021673472,
   3205036523,
   1062749388,
   3147059791,
   1055023104,
   1057390592,
   1055604736,
   1022050304,
   3197963837,
   1064501720,
   3180226825,
   1055735808,
   1057693696,
   1055621120,
   1022394368,
   3205346227,
   1062435143,
   3185111770,
   1055268864,
   1057824768,
   1055604736,
   1022402560,
   3201615703,
   1063251657,
   3196009255,
   1055596544,
   1058119680,
   1055604736,
   1022656512,
   3193381873,
   1064868891,
   3186055993,
   1056104448,
   1057865728,
   1055629312,
   1022599168,
   3183849154,
   1065270720,
   1018554760,
   1056129024,
   1057521664,
   1055645696,
   1022410752,
   3198005661,
   1063277932,
   3200101177,
   1056342016,
   1058054144,
   1055637504,
   1022836736,
   1028865388,
   1065317357,
   1025793865,
   1056980992,
   1057243136,
   1055678464,
   1022304256,
   1052455779,
   1064157360,
   1031555495,
   1057292288,
   1057308672,
   1055711232,
   1022451712,
   1049097520,
   1063698544,
   3199149025,
   1057669120,
   1051852800,
   1062010880,
   1052393472,
   1056201289,
   1060652135,
   3204517232,
   1057832960,
   1051918336,
   1062354944,
   1052475392,
   3182741365,
   1061714261,
   3206387663,
   1057611776,
   1052409856,
   1061928960,
   1053761536,
   1058037043,
   1062371230,
   1033702770,
   1057792000,
   1051385856,
   1062297600,
   1051107328,
   3186421928,
   1062333889,
   3205463261,
   1057554432,
   1052237824,
   1061797888,
   1053425664,
   3199671548,
   1061273045,
   3205238807,
   1057259520,
   1052467200,
   1061085184,
   1053966336,
   1052112388,
   1064241608,
   3173957390,
   1057554432,
   1051680768,
   1061748736,
   1051852800,
   3198624648,
   1061015832,
   3205894797,
   1057284096,
   1052286976,
   1061126144,
   1053556736,
   1056132354,
   1060218226,
   1057651962,
   1057382400,
   1051205632,
   1061330944,
   1050558464,
   1055084858,
   1060405000,
   1057853183,
   1057406976,
   1051000832,
   1061363712,
   1050083328,
   3182080361,
   1063322884,
   3203425292,
   1057390592,
   1052000256,
   1061396480,
   1052827648,
   3204016670,
   1062837463,
   3192723123,
   1057144832,
   1051967488,
   1060732928,
   1052540928,
   3207177923,
   1060881144,
   3189435160,
   1056956416,
   1052180480,
   1060265984,
   1052884992,
   1014798059,
   1065328534,
   1028976144,
   1057325056,
   1051664384,
   1061191680,
   1051910144,
   3198907613,
   1063373303,
   1051313877,
   1057095680,
   1051648000,
   1060618240,
   1051705344,
   3204803666,
   1061322362,
   1053233061,
   1056817152,
   1051582464,
   1060036608,
   1051525120,
   3168774235,
   1061709333,
   1059005801,
   1057030144,
   1051115520,
   1060462592,
   1050509312,
   1050839991,
   1062885153,
   1054094749,
   1057349632,
   1051426816,
   1061232640,
   1051197440,
   1036157040,
   1062027447,
   1058475231,
   1057193984,
   1051344896,
   1060855808,
   1050984448,
   1053234040,
   1063886436,
   3187778802,
   1054785536,
   1060642816,
   1057210368,
   1065623552,
   1040446027,
   1063318988,
   3203091270,
   1057021952,
   1060716544,
   1058676736,
   1065902080,
   3160392412,
   1063867949,
   3201466511,
   1056727040,
   1061085184,
   1058324480,
   1066106880,
   3195892347,
   1063482641,
   3200636217,
   1057300480,
   1061658624,
   1059438592,
   1066762240,
   1055454217,
   1063333141,
   3188605768,
   1055113216,
   1061142528,
   1057423360,
   1066024960,
   1058523731,
   1061701375,
   1044600136,
   1053376512,
   1061167104,
   1054941184,
   1065861120,
   3192271623,
   1064461156,
   3196294691,
   1056342016,
   1061675008,
   1058562048,
   1066680320,
   1057686027,
   1061757382,
   1050133964,
   1053712384,
   1061404672,
   1055940608,
   1066164224,
   1042348435,
   1058991006,
   1061461910,
   1052819456,
   1062436864,
   1053908992,
   1066622976,
   1042646406,
   1064687988,
   3194526776,
   1055670272,
   1061322752,
   1057841152,
   1066319872,
   1039788830,
   1065180005,
   3180982757,
   1054638080,
   1061609472,
   1057341440,
   1066434560,
   1050057096,
   1064437307,
   1041214647,
   1054031872,
   1061568512,
   1056645120,
   1066311680,
   3166097581,
   1065342351,
   3169271257,
   1054670848,
   1062297600,
   1057349632,
   1066803200,
   3198311254,
   1062817860,
   3201861297,
   1056161792,
   1062707200,
   1058258944,
   1067220992,
   3201927930,
   1060895144,
   3204942156,
   1056808960,
   1063026688,
   1058693120,
   1067466752,
   3186364162,
   1064879563,
   3193097932,
   1055612928,
   1062510592,
   1057857536,
   1067057152,
   3200747785,
   1063671156,
   3192464809,
   1055555584,
   1063206912,
   1057341440,
   1067565056,
   3201303384,
   1063800693,
   3185257119,
   1055440896,
   1063657472,
   1057292288,
   1067786240,
   3197379979,
   1064500366,
   1040044899,
   1054318592,
   1062797312,
   1057103872,
   1067114496,
   1028127103,
   1064774556,
   1048768967,
   1053728768,
   1062338560,
   1056112640,
   1066672128,
   3197016349,
   1063314858,
   1053211574,
   1053483008,
   1062977536,
   1055694848,
   1067286528,
   3198844414,
   1063219758,
   1052158063,
   1053122560,
   1063223296,
   1055088640,
   1067442176,
   1031306437,
   1061547081,
   1059167983,
   1053237248,
   1062453248,
   1054998528,
   1066672128;
  }
 }
}